1117:1120	cdu	0.9999898672103882
1441:1444	drk	0.999991774559021
1564:1567	drk	0.9999935626983643
1584:1587	mdr	0.9362068176269531
5302:5322	robert_koch-institut	0.9999503493309021
5324:5327	rki	0.999990701675415
5513:5516	rki	0.9999740123748779
5900:5920	robert_koch-institut	0.9999648928642273
6086:6089	drk	0.9999904632568359
6213:6221	deutsche	0.9999558925628662
6222:6232	rote_kreuz	0.9999527931213379
6234:6237	drk	0.9999924898147583
6967:6990	ständige_impfkommission	0.9999690055847168
6992:6997	stiko	0.9999749660491943
7528:7533	stiko	0.6788794994354248
7641:7662	sächsische_aufbaubank	0.9998847544193268
9002:9013	mdr_sachsen	0.9502937197685242
11595:11615	robert_koch-institut	0.9998834133148193
13788:13791	rki	0.9999656677246094
13968:13989	robert_koch-instituts	0.9999521970748901
15028:15031	mdr	0.9999783039093018
16107:16117	euro-scene	0.8860482573509216
16223:16233	euro-scene	0.9969000816345215
16428:16446	vereinten_nationen	0.999981701374054
