1482:1488	goebel	0.9996328353881836
1599:1609	astrazenca	0.5537314414978027
2090:2101	astrazeneca	0.7993844151496887
2352:2363	astrazeneca	0.6422878503799438
2633:2665	verband_deutscher_maschinenbauer	0.9999829530715942
2667:2671	vdma	0.9999865293502808
3846:3849	mdr	0.9999840259552002
5776:5779	rki	0.9998810291290283
5822:5845	bauindustrieverband_ost	0.9999672770500183
6624:6646	sächsischem_brauerbund	0.9982974529266357
7168:7183	landessportbund	0.976132333278656
7330:7353	landessportbund_sachsen	0.9999548196792603
7355:7358	lsb	0.9999914169311523
8100:8103	dfl	0.9999903440475464
8140:8161	deutsche_fußball_liga	0.9999818404515585
8163:8166	dfl	0.999992847442627
8590:8593	dfl	0.9999916553497314
9174:9177	fdp	0.9999750852584839
9456:9474	chemnitz_steht_auf	0.9999765157699585
10436:10456	deutsche_turner_bund	0.999982992808024
10458:10461	dtb	0.9999902248382568
10763:10766	dtb	0.9999896287918091
11389:11412	silbermann-gesellschaft	0.7411470413208008
12112:12144	europäischen_arzneimittelbehörde	0.9999701380729675
12146:12149	ema	0.9999791383743286
12393:12407	erzgebirge_aue	0.9999629259109497
12486:12503	fc_erzgebirge_aue	0.9999785820643107
13127:13130	ovg	0.9185834527015686
13652:13655	ovg	0.992530882358551
14006:14026	robert-koch-institut	0.999964714050293
14415:14419	bund	0.9998791217803955
14524:14535	mdr_sachsen	0.9996365606784821
14713:14736	görlitzer_kulturservice	0.9999613761901855
15604:15625	robert_koch-instituts	0.9998966455459595
15763:15766	rki	0.7301865220069885
15821:15838	seenland-klinikum	0.9993407130241394
16025:16054	seenland_klinikum_hoyerswerda	0.999893844127655
16990:16993	cdu	0.9999858140945435
