349:360	mdr_sachsen	0.9999246597290039
731:741	tu_dresden	0.999971330165863
915:925	tu_dresden	0.9999725222587585
1110:1112	tu	0.9999643564224243
1243:1253	tu_dresden	0.999936580657959
2017:2024	oschatz	0.5487639307975769
2469:2474	linke	0.9997938275337219
2525:2530	linke	0.9867254495620728
3236:3240	kita	0.9999195337295532
3327:3342	kita_purzelbaum	0.9995549023151398
4352:4364	moritzbastei	0.9751308560371399
5639:5649	finanztest	0.9998146891593933
6477:6500	handelsverbands_sachsen	0.9915403723716736
6921:6941	robert-koch-institut	0.9999622106552124
7078:7081	rki	0.9999774694442749
7197:7218	robert_koch-instituts	0.9999181032180786
7220:7223	rki	0.9999896287918091
7874:7877	spd	0.9999867677688599
