2095:2108	volkmar_beier	0.9999963641166687
2828:2842	lukas_kotzybik	0.999995768070221
4027:4037	jörg_künzl	0.9999915361404419
4328:4343	torsten_reitler	0.9999949336051941
4646:4653	reitler	0.9999758005142212
5892:5906	susanne_kadner	0.9999940991401672
6502:6513	rené_glaser	0.999995231628418
6810:6816	glaser	0.9999707937240601
7859:7872	petra_köpping	0.9999951720237732
