301:308	sachsen	0.9998490810394287
697:704	sachsen	0.9997389912605286
842:850	chemnitz	0.99998939037323
888:904	paracelsusklinik	0.9970470070838928
908:915	zwickau	0.9999892711639404
1473:1480	leipzig	0.999994158744812
1874:1887	bischofswerda	0.9999899864196777
2018:2024	kamenz	0.9999750852584839
2029:2037	neukirch	0.9999830722808838
2076:2083	görlitz	0.9999862909317017
2120:2129	mittweida	0.999987006187439
2302:2307	pirna	0.9999840259552002
2338:2370	sächsische_schweiz-osterzgebirge	0.9980954527854919
2372:2381	schloßhof	0.9999514818191528
2390:2395	pirna	0.9999799728393555
2928:2934	berlin	0.9999905824661255
3345:3352	görlitz	0.9999943971633911
3420:3427	görlitz	0.9999943971633911
4080:4087	dresden	0.9999938011169434
4313:4320	dresden	0.9999943971633911
4416:4437	rudolf-harbig-stadion	0.9999885559082031
4849:4859	weißwasser	0.999963641166687
5044:5054	weißwasser	0.9999756813049316
5174:5196	berthold-brecht-straße	0.9999703168869019
5203:5213	weißwasser	0.9999847412109375
5455:5462	sachsen	0.9994520545005798
5929:5936	leipzig	0.9999934434890747
6348:6355	leipzig	0.9999942779541016
7214:7221	bautzen	0.9999505281448364
7299:7306	bautzen	0.999975323677063
7778:7785	bautzen	0.9999737739562988
7937:7951	dresden-meißen	0.9999887943267822
8892:8900	leipzigs	0.9999319314956665
9342:9349	dresden	0.999992847442627
9399:9406	dresden	0.999992847442627
9776:9784	oelsnitz	0.9999799728393555
9827:9835	oelsnitz	0.9999843835830688
10190:10198	sachsens	0.8883477449417114
10603:10610	sachsen	0.999974250793457
11354:11361	sachsen	0.9997106194496155
11365:11372	sachsen	0.9999651908874512
11526:11533	leipzig	0.9999958276748657
11538:11545	dresden	0.9999947547912598
11779:11800	rudolf-harbig-stadion	0.999991774559021
12101:12108	sachsen	0.621199905872345
13595:13602	dresden	0.9999638795852661
14972:14979	sachsen	0.9700332283973694
14983:14990	sachsen	0.9935489296913147
15312:15319	sachsen	0.9817315936088562
15431:15442	deutschland	0.9998631477355957
15517:15536	nordrhein-westfalen	0.9999765157699585
15538:15544	bayern	0.9999618530273438
15549:15566	baden-württemberg	0.9999828338623047
15616:15627	hoyerswerda	0.9999861717224121
15658:15669	hoyerswerda	0.9999873638153076
16222:16233	falkenstein	0.9999914169311523
16610:16617	sachsen	0.9972610473632812
16670:16677	sachsen	0.9998311996459961
16789:16802	vogtlandkreis	0.9999829530715942
16983:16990	dresden	0.9999960660934448
16995:17002	leipzig	0.9999945163726807
17259:17274	leipzig.ähnlich	0.8614460825920105
17319:17326	dresden	0.9999929666519165
17868:17876	finnland	0.9999933242797852
18082:18089	tampere	0.9999923706054688
18260:18268	chemnitz	0.999994158744812
18273:18280	tampere	0.9999946355819702
