5136:5151	erik_bodendieck	0.9999940991401672
5303:5313	bodendieck	0.9999685287475586
6310:6323	petra_köpping	0.9999960660934448
6591:6598	köpping	0.9999850988388062
7237:7251	angelika_taube	0.9999953508377075
7369:7374	taube	0.9706357717514038
7690:7695	taube	0.9997852444648743
7708:7715	köpping	0.9999480247497559
7935:7942	köpping	0.99996018409729
8531:8546	barbara_klepsch	0.9999939799308777
9464:9478	mike_schnitter	0.999980628490448
9800:9809	schnitter	0.9921115636825562
10470:10483	roland_wöller	0.999995768070221
13304:13313	mintzlaff	0.9999892711639404
13391:13407	oliver_mintzlaff	0.999996542930603
13942:13951	mintzlaff	0.9999939203262329
15136:15160	nadja_döscher-schmalsfuß	0.9999892711639404
17004:17018	thomas_mertens	0.9999958276748657
17414:17426	achim_junker	0.9999964833259583
18175:18185	jens_spahn	0.9999971389770508
18212:18227	andreas_scheuer	0.9999959468841553
18902:18914	peter_elbers	0.9999960660934448
19301:19307	elbers	0.9999803304672241
19320:19327	köpping	0.999971866607666
19574:19587	petra_köpping	0.9999951124191284
21139:21154	helmut_stadeler	0.9999958276748657
