text	types	tokens	types/tokens
18:14	57	63	1.0877
17:25	30	33	1.0667
17:06	19	23	1.1579
15:58	45	53	1.1556
14:36	113	148	1.3009
13:12	64	74	1.1406
12:08	57	62	1.0702
11:36	86	107	1.2326
10:53	47	59	1.234
10:21	30	36	1.1667
09:59	53	59	1.0943
09:23	30	31	1.0
09:07	33	38	1.1212
08:20	84	102	1.2024
8:15	56	66	1.1607
8:00	50	61	1.2
