2793:2797	euro	0.9999703168869019
9673:9690	zweiten_weltkrieg	0.9958289861679077
12471:12487	covid-19-fighter	0.8230777978897095
14034:14040	corona	0.9760563373565674
16420:16426	corona	0.9714480042457581
18517:18521	euro	0.9999854564666748
