text	types	tokens	types/tokens
21:51	32	34	1.0312
21:49	91	112	1.2198
20:54	50	64	1.26
20:51	85	108	1.2588
19:56	58	65	1.1034
18:58	47	56	1.1702
16:52	66	71	1.0606
16:17	48	61	1.25
15:50	116	153	1.3103
15:04	94	120	1.266
14:37	77	88	1.1299
14:19	68	79	1.1471
14:09	73	82	1.1096
13:23	35	39	1.0857
13:02	78	96	1.2179
12:45	74	86	1.1486
12:25	66	75	1.1212
11:52	34	38	1.0882
11:36	49	56	1.1224
11:23	79	97	1.2152
10:49	51	58	1.1176
10:19	61	72	1.1639
10:05	50	57	1.12
09:54	60	69	1.1333
09:30	41	49	1.1707
09:18	56	62	1.0893
09:07	54	63	1.1481
08:47	43	53	1.2093
07:51	74	90	1.2027
07:39	55	61	1.0909
07:26	52	67	1.2692
07:04	59	73	1.2203
06:38	61	72	1.1639
06:28	28	32	1.1071
06:03	44	52	1.1591
05:36	60	70	1.15
05:09	61	71	1.1475
