245:256	brandenburg	0.9999964237213135
288:300	brandenburgs	0.9999967813491821
921:928	sachsen	0.9998300075531006
1160:1167	sachsen	0.9999488592147827
1344:1351	sachsen	0.9999240636825562
1410:1417	sachsen	0.9997612833976746
1456:1463	dresden	0.9999935626983643
1684:1692	freiberg	0.9999879598617554
1874:1882	freiberg	0.9999921321868896
2173:2187	šwjela-scheune	0.976608157157898
2470:2479	nochtener	0.9259511232376099
2613:2620	görlitz	0.9999874830245972
2678:2685	görlitz	0.9999932050704956
2868:2872	bonn	0.9999123811721802
2907:2914	görlitz	0.9999915361404419
3025:3037	deutschlands	0.9999221563339233
3193:3198	polen	0.9999878406524658
3331:3338	bautzen	0.9999741315841675
3637:3644	sachsen	0.9999748468399048
3688:3694	uganda	0.9999860525131226
3695:3702	sachsen	0.9998544454574585
3754:3760	uganda	0.9999867677688599
3943:3950	kampala	0.9999717473983765
4270:4276	uganda	0.999988317489624
4443:4450	leipzig	0.9998842477798462
4500:4507	kampala	0.9999837875366211
4755:4763	sachsens	0.9999347925186157
5278:5285	dresden	0.9999958276748657
5844:5854	königstein	0.9999867677688599
5921:5931	königstein	0.9999905824661255
6187:6201	festungsstraße	0.9995679259300232
6220:6227	latzweg	0.9999332427978516
7282:7287	riesa	0.9999157190322876
7348:7358	elbe-hafen	0.9999334812164307
7362:7367	riesa	0.9999622106552124
7501:7509	oberelbe	0.7872449159622192
7853:7860	sachsen	0.9412752389907837
9045:9052	sachsen	0.9996803998947144
9088:9095	sachsen	0.9997714161872864
9373:9380	sachsen	0.9985995888710022
9923:9934	hoyerswerda	0.9999783039093018
10130:10139	eilenburg	0.9999850988388062
10188:10197	eilenburg	0.9999856948852539
10544:10552	chemnitz	0.9999911785125732
10575:10583	chemnitz	0.9999903440475464
10707:10720	gellertstraße	0.9999855756759644
11027:11034	leipzig	0.9999943971633911
11039:11046	dresden	0.9999936819076538
11313:11326	leipzig_halle	0.9986010193824768
11331:11338	dresden	0.9999943971633911
