613:631	ursula_nonnemacher	0.9999959468841553
815:828	birgit_bessin	0.9999859929084778
955:966	nonnemacher	0.9999650716781616
2247:2260	reik_pietzsch	0.9999620914459229
7443:7455	heiko_loroff	0.9999926686286926
7861:7878	markus_schlimbach	0.9999935626983643
8561:8574	burkhard_jung	0.9999966621398926
9477:9490	roland_wöller	0.9999960660934448
