text	types	tokens	types/tokens
20:23	52	61	1.1538
20:13	24	25	1.0
18:25	29	31	1.0345
17:44	21	22	1.0
17:07	43	51	1.1628
16:20	99	122	1.2222
15:16	37	41	1.0811
14:39	88	102	1.1477
14:14	34	41	1.1765
13:46	63	75	1.1746
12:52	77	91	1.1688
11:52	65	96	1.4615
10:34	92	111	1.1957
07:40	73	85	1.1507
07:04	81	95	1.1605
05:56	54	58	1.0556
05:31	77	94	1.2078
05:15	54	61	1.1111
05:06	31	33	1.0323
