1374:1379	drops	0.9996286630630493
2204:2207	cdu	0.9999874830245972
2578:2581	spd	0.9999876022338867
2620:2623	cdu	0.9999862909317017
3863:3885	leipziger_volkszeitung	0.9999565482139587
5230:5246	dresden_nazifrei	0.9997011125087738
5777:5789	astra-zeneca	0.7946109771728516
5866:5878	astra-zeneca	0.9999740123748779
6087:6099	astra-zeneca	0.9999626874923706
7290:7293	fis	0.9999638795852661
8559:8626	innung_des_vogtländischen_musikinstrumentenhandwerks_markneukirchen	0.9011103987693787
9263:9269	unesco	0.99994957447052
10389:10401	astra-zeneca	0.9999872446060181
10730:10742	astra-zeneca	0.9999842643737793
