1089:1092	cdu	0.9999878406524658
2841:2853	astra-zeneca	0.9995771050453186
3004:3022	europäischen_union	0.9978956580162048
4417:4425	biontech	0.9656708836555481
4497:4512	biontech_pfizer	0.9989126324653625
4956:4968	astra-zeneca	0.9999680519104004
5296:5319	dresdner_bürgerstiftung	0.9999070763587952
5829:5832	rve	0.9872913956642151
6919:6951	politische_bildungsforum_sachsen	0.9999030033747355
8914:8925	mdr_sachsen	0.9999440908432007
11611:11628	kinderuni_leipzig	0.999944806098938
11633:11643	mdr_wissen	0.9998216927051544
11908:11911	mdr	0.9987506866455078
12453:12456	fit	0.9999806880950928
12499:12502	fit	0.999982476234436
12789:12799	fit_gmb_h.	0.9999128778775533
13273:13284	immowelt_ag	0.9999688267707825
15078:15103	muldentaler_faschingsclub	0.9999744296073914
15434:15437	drk	0.9999899864196777
15488:15516	deutsche_rote_kreuz_chemnitz	0.9999816715717316
15518:15521	drk	0.9999903440475464
15571:15574	drk	0.9999905824661255
16962:16981	eissport_weißwasser	0.9998883903026581
16983:16986	esw	0.9999892711639404
17354:17357	esw	0.9999877214431763
18769:18794	dresdner_verkehrsbetriebe	0.9990429580211639
18796:18799	dvb	0.999985933303833
18904:18907	dvb	0.9998902082443237
19392:19397	stiko	0.9999547004699707
19447:19470	ständige_impfkommission	0.9995440244674683
19472:19477	stiko	0.9998990297317505
19483:19504	robert_koch-instituts	0.999867171049118
19583:19595	astra-zeneca	0.9999736547470093
19681:19693	astra-zeneca	0.9999756813049316
19767:19770	ema	0.9999759197235107
19867:19883	bio_ntech_pfizer	0.9999263683954874
19888:19895	moderna	0.9999681711196899
20036:20042	textil	0.9999126195907593
21688:21700	jolly_jumper	0.9999822974205017
