text	types	tokens	types/tokens
20:17	23	27	1.1304
19:44	25	27	1.04
19:19	30	33	1.0667
18:51	56	66	1.1607
18:35	39	47	1.1795
18:13	58	72	1.2241
17:35	71	94	1.3099
16:28	44	55	1.2273
16:04	85	115	1.3412
14:43	72	93	1.2778
14:18	59	71	1.1864
13:59	62	69	1.0968
13:13	31	32	1.0
13:04	66	80	1.197
12:58	90	108	1.1889
12:38	63	76	1.1905
12:12	96	119	1.2292
11:10	58	74	1.2586
11:02	32	35	1.0625
10:40	92	131	1.413
09:51	59	69	1.1525
09:42	68	82	1.1912
09:36	74	83	1.1081
08:47	62	72	1.1452
08:10	78	97	1.2308
07:45	67	81	1.194
07:34	40	42	1.025
07:08	53	66	1.2264
06:47	47	54	1.1277
06:33	99	124	1.2424
06:11	32	35	1.0625
05:53	25	29	1.12
05:39	66	84	1.2576
05:25	37	40	1.0541
05:15	64	81	1.25
05:04	118	156	1.3136
