164:171	sachsen	0.9957613348960876
316:323	dresden	0.9999951124191284
1697:1704	sachsen	0.9940146803855896
2001:2008	sachsen	0.9965085387229919
2229:2236	seiffen	0.9986875653266907
2712:2726	großbritannien	0.9999698400497437
3766:3773	dresden	0.9999958276748657
3775:3782	leipzig	0.9999948740005493
3787:3795	chemnitz	0.9999936819076538
4256:4263	sachsen	0.9997866749763489
4631:4638	leipzig	0.9999955892562866
4643:4650	dresden	0.9999943971633911
5145:5152	sachsen	0.9987264275550842
5237:5244	dresden	0.9999970197677612
5249:5256	leipzig	0.9999960660934448
5282:5290	chemnitz	0.999982476234436
5416:5423	dresden	0.9999936819076538
5642:5654	augustusburg	0.999964714050293
5718:5738	schloss_augustusburg	0.9996786117553711
6233:6239	coswig	0.9999891519546509
6403:6409	meißen	0.9999823570251465
6501:6508	sachsen	0.5848166942596436
7038:7046	radebeul	0.9999188184738159
7089:7099	großenhain	0.9999372959136963
7101:7106	riesa	0.9999699592590332
7111:7117	meißen	0.9999890327453613
7301:7325	dresdner_residenzschloss	0.9973509907722473
7377:7384	dresden	0.999955415725708
7446:7470	dresdner_residenzschloss	0.9101950824260712
8117:8127	rothenburg	0.9999954700469971
9828:9835	görlitz	0.9999933242797852
10415:10422	görlitz	0.9999885559082031
10939:10956	baden-württemberg	0.9999904632568359
12050:12062	markkleeberg	0.999995231628418
12073:12085	markkleeberg	0.9999963045120239
12559:12564	riesa	0.9999117851257324
12739:12755	elblandklinikums	0.9978614449501038
12759:12764	riesa	0.9999465942382812
13548:13555	sachsen	0.9999527931213379
13993:14000	görlitz	0.9999927282333374
14211:14217	coswig	0.9999756813049316
14221:14226	sport	0.99808669090271
14232:14247	freizeitzentrum	0.5744410753250122
14248:14255	olympia	0.9966975450515747
14259:14265	coswig	0.9999854564666748
14327:14333	meißen	0.9999597072601318
15347:15354	sachsen	0.9999284744262695
15429:15443	dresden-meißen	0.9999915361404419
15855:15862	sachsen	0.9995107650756836
16060:16067	bayerns	0.99997878074646
16072:16080	sachsens	0.9999396800994873
16160:16166	bayern	0.9999679327011108
16171:16178	sachsen	0.9996034502983093
16455:16462	leipzig	0.9993233680725098
16537:16544	münchen	0.9985211491584778
