2507:2513	corona	0.9179391264915466
3646:3650	euro	0.9999796152114868
3762:3766	euro	0.9999725818634033
3930:3934	euro	0.9999849796295166
4129:4156	überbrückungshilfe_iii_plus	0.9984476764996847
6972:6984	corona-virus	0.9989582300186157
8087:8093	corona	0.892034649848938
9337:9355	firebirds-festival	0.9999921321868896
11336:11347	coronavirus	0.9999634027481079
11453:11464	coronavirus	0.9999562501907349
12435:12441	corona	0.993674635887146
12904:12914	ballonfest	0.9997677206993103
14124:14135	coronavirus	0.9996156692504883
14973:14981	la_palma	0.999860018491745
15105:15113	parkfest	0.995200514793396
