3270:3273	cdu	0.9999898672103882
3275:3280	grüne	0.9999830722808838
3285:3288	spd	0.9999889135360718
3299:3302	afd	0.9999876022338867
3824:3840	dresden_nazifrei	0.9998498260974884
4528:4585	instituts_für_tierhygiene_und_öffentliches_veterinärwesen	0.9646349847316742
4631:4655	europäischen_beirats_für	0.9999566078186035
4675:4679	abcd	0.9999816417694092
7268:7310	konferenz_sächsischer_studierendenschaften	0.9986919164657593
7312:7315	kss	0.9999884366989136
7616:7619	kss	0.9992509484291077
7807:7810	kss	0.9998999834060669
8311:8317	corona	0.5745547413825989
8746:8752	corona	0.9397846460342407
9033:9040	eventim	0.999984860420227
9171:9187	wirtschaftswoche	0.8472707867622375
9378:9385	eventim	0.9999885559082031
9555:9578	handwerkskammer_dresden	0.7587407231330872
9650:9665	handwerkskammer	0.6821656227111816
10640:10649	lufthansa	0.9999823570251465
10712:10721	eurowings	0.999987006187439
11082:11085	mdr	0.999983549118042
