1032:1040	facebook	0.9997813105583191
1064:1091	sächsischer_weihnachtsmarkt	0.9999443292617798
2047:2068	robert_koch-instituts	0.9998860955238342
2385:2387	2g	0.922515332698822
3381:3384	rki	0.9983294606208801
3838:3848	rb_leipzig	0.9999837875366211
3883:3890	leipzig	0.9999823570251465
4356:4372	bayer_leverkusen	0.9999873638153076
5589:5606	klinikum_chemnitz	0.9922370612621307
6202:6219	klinikum_chemnitz	0.9789347052574158
6517:6520	drk	0.9999903440475464
6881:6902	deutschen_roten_kreuz	0.9999740123748779
