text	types	tokens	types/tokens
19:31	30	35	1.1333
18:31	94	113	1.1915
18:13	62	70	1.1129
18:03	60	71	1.1667
17:13	46	49	1.0435
16:49	32	36	1.0938
16:32	47	65	1.3617
16:01	52	65	1.2308
15:30	36	41	1.1111
13:58	39	54	1.359
13:34	46	49	1.0435
12:45	40	48	1.175
12:29	59	75	1.2542
11:56	47	51	1.0638
11:27	44	48	1.0682
10:39	74	81	1.0811
10:06	47	54	1.1277
09:40	44	53	1.1818
09:11	82	99	1.1951
08:28	42	49	1.1429
07:50	95	118	1.2316
07:17	51	66	1.2745
06:41	23	26	1.087
06:03	73	81	1.0959
05:34	57	68	1.1754
05:22	36	41	1.1111
05:00	60	69	1.1333
