473:483	thüringens	0.9999895095825195
572:586	ostdeutschland	0.9999943971633911
824:843	westdeutschland.man	0.9999910593032837
1377:1384	sachsen	0.9999270439147949
2320:2327	bautzen	0.8332718014717102
2718:2724	bayern	0.9999473094940186
3337:3344	freital	0.9999595880508423
3583:3590	sachsen	0.9999678134918213
3945:3955	großenhain	0.9999228715896606
3956:3966	großenhain	0.9985958933830261
4581:4587	berlin	0.9999819993972778
4993:5003	marienberg	0.9999269247055054
5062:5072	tschechien	0.9999698400497437
5077:5082	polen	0.9998890161514282
5116:5123	sachsen	0.9999210834503174
5141:5148	sachsen	0.9999673366546631
5748:5757	thüringen	0.9999845027923584
5911:5924	vogtlandhalle	0.9999895095825195
5962:5971	thüringen	0.99998939037323
6098:6103	greiz	0.9999845027923584
6411:6420	karlsruhe	0.9999921321868896
6544:6551	bautzen	0.9998923540115356
7106:7115	delitzsch	0.999990701675415
7484:7491	sachsen	0.9998681545257568
7782:7789	dresden	0.9999954700469971
7867:7874	dresden	0.9999947547912598
8029:8036	sachsen	0.9999855756759644
8086:8093	sachsen	0.9999862909317017
9067:9074	bautzen	0.9999767541885376
9140:9147	bautzen	0.9999762773513794
9218:9225	sachsen	0.9645972847938538
9631:9638	sachsen	0.9998749494552612
9719:9726	leipzig	0.999995231628418
9728:9734	grimma	0.9999927282333374
9736:9744	chemnitz	0.9999933242797852
9746:9754	freiberg	0.9999935626983643
9759:9768	mittweida	0.9999927282333374
