text	types	tokens	types/tokens
21:19	26	30	1.1154
20:26	37	40	1.0541
19:46	62	75	1.1935
19:25	61	73	1.1803
18:37	52	69	1.3077
18:02	51	58	1.1176
17:42	48	55	1.125
17:23	83	101	1.2048
16:56	85	104	1.2118
16:09	54	68	1.2407
15:58	68	83	1.2059
15:36	67	78	1.1493
15:20	53	65	1.2075
14:48	73	88	1.1918
14:34	69	82	1.1739
14:02	92	118	1.2717
13:47	57	66	1.1404
12:58	39	41	1.0256
12:55	70	90	1.2714
12:39	41	49	1.1707
12:28	28	32	1.1071
10:55	67	84	1.2388
09:30	71	91	1.2676
09:19	57	70	1.2105
08:45	79	102	1.2785
07:00	69	86	1.2319
06:45	64	73	1.125
06:30	80	101	1.25
06:18	23	24	1.0
05:58	71	98	1.3662
05:50	94	112	1.1809
05:19	53	65	1.2075
05:00	27	29	1.037
