320:333	protect_watch	0.9999663829803467
1022:1037	tag_der_sachsen	0.9996971487998962
1400:1419	leipziger_buchmesse	0.9848609268665314
2544:2553	leipziger	0.9717040061950684
7702:7708	corona	0.9991323351860046
7714:7717	rsv	0.9967659711837769
9828:9832	euro	0.9999759197235107
