55:61	corona	0.8515175580978394
920:933	freie_sachsen	0.9999570250511169
1431:1437	corona	0.789772093296051
1475:1484	leipziger	0.58150315284729
1791:1809	börsenblatt_online	0.9999808669090271
3334:3337	spd	0.9999825954437256
3837:3858	robert_koch-instituts	0.9965420365333557
4898:4901	mdr	0.9891641139984131
5554:5557	drk	0.9997777342796326
5783:5786	drk	0.9999885559082031
6086:6089	drk	0.9999890327453613
6127:6130	drk	0.9999887943267822
6508:6511	drk	0.9999568462371826
8069:8080	fsv_zwickau	0.9999886751174927
8171:8174	fsv	0.999988317489624
8329:8342	viktoria_köln	0.9999855756759644
8402:8405	fsv	0.9999896287918091
9159:9180	robert-koch-instituts	0.9999274015426636
9490:9493	rki	0.9996378421783447
10838:10846	ligenium	0.9999430179595947
10977:10984	diamant	0.9998940229415894
11458:11474	sc_dhf_k_leipzig	0.9999849498271942
