85:92	sachsen	0.999947190284729
245:252	sachsen	0.9998641014099121
474:481	sachsen	0.9999879598617554
565:578	vogtlandkreis	0.9999306201934814
629:636	leipzig	0.9999946355819702
641:649	chemnitz	0.9999909400939941
1565:1572	dresden	0.999995231628418
1577:1594	annaberg-buchholz	0.9999939203262329
1617:1624	dresden	0.9999947547912598
1914:1921	dresden	0.9982020854949951
1931:1948	annaberg-buchholz	0.9999921321868896
2177:2182	polen	0.9999738931655884
2217:2222	polen	0.9999535083770752
2323:2333	tschechien	0.9999902248382568
2338:2346	slowakei	0.9999731779098511
2651:2662	deutschland	0.9999855756759644
2706:2716	tschechien	0.999992847442627
2791:2801	tschechien	0.9999909400939941
3443:3457	großbritannien	0.999993085861206
3461:3472	deutschland	0.9999799728393555
5939:5942	aue	0.9084488153457642
6429:6436	sachsen	0.9999655485153198
6839:6851	bad_brambach	0.9999836087226868
6960:6970	tschechien	0.9999719858169556
7053:7065	bad_brambach	0.9999862909317017
7243:7254	klingenthal	0.999984860420227
8214:8224	tschechien	0.9999828338623047
8253:8263	tschechien	0.9999910593032837
8330:8338	karlsbad	0.9999916553497314
9912:9919	sachsen	0.9996110796928406
10321:10338	großhartmannsdorf	0.9999469518661499
10372:10377	adorf	0.9998965263366699
11166:11173	leipzig	0.9999905824661255
