778:782	bund	0.6619348526000977
994:1003	deutschen	0.9844232201576233
3037:3056	wir_sind_erzgebirge	0.8897892832756042
3236:3247	mdr_sachsen	0.8308032751083374
4372:4383	mdr_sachsen	0.999967098236084
4604:4616	fc_liverpool	0.9999811053276062
4621:4631	rb_leipzig	0.9999803304672241
4803:4813	rb_leipzig	0.9999839067459106
4876:4888	fc_liverpool	0.9999779462814331
5091:5101	rb_leipzig	0.9999831914901733
5934:5940	corona	0.9891513586044312
6289:6293	bund	0.9999537467956543
6643:6647	bild	0.9999387264251709
