301:305	bund	0.9762128591537476
1873:1894	robert-koch-instituts	0.9999134540557861
2408:2429	deutschem_roten_kreuz	0.9999832312266032
2836:2850	dak_gesundheit	0.9999797344207764
3067:3081	dak_gesundheit	0.9999457001686096
3448:3451	dak	0.9999637603759766
4829:4849	robert-koch-institut	0.9999560117721558
6459:6470	mdr_sachsen	0.7573593258857727
7634:7638	bund	0.9993908405303955
7647:7658	europäische	0.7292741537094116
8010:8018	biontech	0.9987099170684814
8059:8066	moderna	0.9967789053916931
8977:8985	immowelt	0.9999531507492065
9440:9443	cdu	0.9999771118164062
10101:10121	robert-koch-institut	0.9999674558639526
11648:11650	eu	0.9978765249252319
11962:11983	deutschem_roten_kreuz	0.9999796946843466
11985:11988	drk	0.9999903440475464
12017:12032	biontech_pfizer	0.9572793245315552
12079:12090	astrazeneca	0.99997878074646
13779:13802	verein_ländliches_leben	0.9995237787564596
13815:13818	ihk	0.9997294545173645
13867:13903	industrie_und_handelskammer_chemnitz	0.9999853074550629
13905:13908	ihk	0.9999872446060181
14026:14029	ihk	0.9999790191650391
14245:14248	ihk	0.9999396800994873
14919:14930	mdr_sachsen	0.9999364018440247
15290:15298	vogtland	0.5324326157569885
15334:15374	digitalen_internationalen_tourismusbörse	0.8578857978185018
16084:16087	mdr	0.9999706745147705
16660:16691	redaktions_netzwerk_deutschland	0.9927143454551697
16941:16947	condor	0.9999821186065674
