1079:1100	staatskapelle_dresden	0.9999591708183289
1365:1368	zdf	0.9999896287918091
1816:1823	leipzig	0.8899637460708618
2593:2601	mdrfragt	0.9998986721038818
2763:2771	mdrfragt	0.9747060537338257
4715:4734	krankenkasse_barmer	0.9824599027633667
5950:5953	cdu	0.9999884366989136
6650:6653	cdu	0.9999877214431763
6810:6832	berufsakademie_sachsen	0.9965689778327942
7250:7253	spd	0.9999886751174927
9698:9718	robert-koch-institut	0.999951958656311
11693:11696	mdr	0.9912970066070557
11764:11767	mdr	0.9999895095825195
11958:11961	rbb	0.9999912977218628
12245:12248	mdr	0.9999884366989136
12430:12447	bautzen_gemeinsam	0.9254646897315979
12478:12512	bürgerinitiative_bautzen_gemeinsam	0.9524758656819662
13958:13972	dynamo_dresden	0.9999886155128479
14024:14042	team_sport_sachsen	0.9999872446060181
14225:14239	dynamo_dresden	0.9999881982803345
14463:14479	dresden_monarchs	0.9999819993972778
14501:14515	dresden_titans	0.9999828934669495
14530:14547	dresdner_eislöwen	0.9999840259552002
14561:14572	dresdner_sc	0.9999847412109375
14590:14603	hc_elbflorenz	0.999984860420227
16562:16565	drk	0.9999746084213257
18232:18252	ard-deutschlandtrend	0.9932977557182312
18966:19005	deutsche_berufsverband_für_pflegeberufe	0.9999831318855286
19491:19495	bund	0.9994056224822998
19549:19553	bund	0.9987757802009583
21361:21371	semperoper	0.9912926554679871
21552:21559	moderna	0.9998447895050049
22128:22131	mdr	0.9999552965164185
22680:22691	mdr_sachsen	0.9991230964660645
22767:22774	moderna	0.9999752044677734
23207:23230	technischen_universität	0.9965260326862335
