588:601	angela_merkel	0.9999948143959045
1212:1226	henning_homann	0.9999964237213135
4984:4997	petr_kulhanek	0.9999963641166687
5410:5420	jan_blatny	0.9999937415122986
6490:6508	annekatrin_klepsch	0.9998729526996613
7603:7617	ulrich_hörning	0.9999948740005493
8422:8435	hannes_zacher	0.9999956488609314
10071:10080	peter_pan	0.9999562501907349
10269:10289	james_matthew_barrie	0.9999881982803345
10315:10327	felix_lydike	0.9999955892562866
10359:10368	peter_pan	0.9993289113044739
13292:13302	jens_spahn	0.9999963641166687
14209:14223	henry_graichen	0.9999963641166687
14457:14475	christoph_scheurer	0.9999960660934448
14549:14553	robi	0.7349217534065247
14720:14724	robi	0.653863251209259
14783:14787	robi	0.9751756191253662
15720:15735	kai_kranich.die	0.9999901652336121
16647:16652	spahn	0.9999834299087524
16889:16899	jens_spahn	0.9999961256980896
17462:17475	petra_köpping	0.9999938607215881
