text	types	tokens	types/tokens
22:00	27	34	1.2222
20:53	72	94	1.2917
20:25	55	59	1.0545
20:07	62	79	1.2581
19:30	84	94	1.1071
18:56	66	85	1.2727
18:30	25	27	1.04
17:29	84	107	1.2619
17:14	102	120	1.1667
16:57	54	83	1.5185
16:45	85	134	1.5647
16:20	53	59	1.0943
14:55	63	75	1.1746
14:1513:58	45	55	1.2
13:54	79	102	1.2785
13:28	72	99	1.3611
13:03	87	107	1.2184
12:58	59	72	1.2034
12:35	72	85	1.1667
12:15	51	65	1.2549
12:00	58	78	1.3276
11:22	51	67	1.2941
08:38	58	67	1.1379
07:09	39	45	1.1282
06:56	60	74	1.2167
06.21	59	68	1.1356
06:16	57	68	1.1754
05:59	47	55	1.1489
05:47	88	103	1.1591
05:18	79	97	1.2152
