text	types	tokens	types/tokens
19:09	28	33	1.1429
18:40	48	57	1.1667
17:27	32	37	1.125
16:53	71	91	1.2676
16:02	58	69	1.1724
15:39	25	26	1.0
15:17	53	64	1.1887
14:50	57	67	1.1579
13:46	74	99	1.3243
13:21	44	53	1.1818
12:32	28	30	1.0357
12:04	40	51	1.25
11:50	71	84	1.169
11:09	70	86	1.2143
10:24	58	68	1.1552
09:45	32	36	1.0938
08:55	23	25	1.0435
08:28	81	99	1.2099
07:53	71	84	1.169
07:25	30	34	1.1
06:46	60	65	1.0667
06:18	23	27	1.1304
05:32	48	59	1.2083
05:21	55	62	1.1091
05:04	34	35	1.0
