2187:2201	thomas_mertens	0.9999963045120239
3145:3158	lothar_wieler	0.999995768070221
3280:3286	wieler	0.9994019269943237
3996:4014	christoph_dittrich	0.9999966621398926
4935:4945	susan_graf	0.9999966025352478
5108:5112	graf	0.9805306196212769
6554:6560	piwarz	0.9999675750732422
6632:6642	jens_spahn	0.9999950528144836
6798:6814	christian_piwarz	0.9999967217445374
7881:7895	robert_matzeck	0.9999964833259583
8151:8157	wieler	0.999574601650238
8248:8261	lothar_wieler	0.9999961853027344
8364:8370	wieler	0.9934571385383606
8662:8668	wieler	0.9999303817749023
9615:9625	arno_jesse	0.9999969005584717
9796:9801	jesse	0.9999698400497437
10163:10174	kai_kranich	0.9999940395355225
10822:10837	beate_schücking	0.9999898076057434
11685:11697	reiner_eckel	0.9999655485153198
11702:11714	dieter_frank	0.9999799728393555
