1102:1111	millarden	0.9999896287918091
1800:1806	corona	0.9996088147163391
1832:1838	corona	0.9997919201850891
4767:4786	dresdner_laienchöre	0.8321902453899384
8913:8919	corona	0.999542236328125
12733:12751	moderna-impfstoffs	0.9998916387557983
