529:542	petra_köpping	0.999996542930603
1470:1484	ellen_schaller	0.9999964237213135
1489:1502	paul_ulbricht	0.999996542930603
1713:1722	tom_pauls	0.9999958276748657
2500:2515	christian_dahms	0.9999960064888
2788:2797	dahms.für	0.9999760389328003
3213:3217	heil	0.9998865127563477
3320:3337	sebastian_michael	0.9999955892562866
3782:3786	roth	0.9999856948852539
4043:4047	roth	0.9999861717224121
5233:5246	guido_zöllick	0.9999944567680359
6007:6020	isabelle_lehn	0.9999955296516418
6314:6322	isabelle	0.9999775886535645
6375:6382	köpping	0.9998767375946045
6450:6463	petra_köpping	0.9999963045120239
6697:6708	köpping.die	0.9999568462371826
6768:6779	simone_lang	0.9999961256980896
6927:6931	lang	0.9993114471435547
8116:8129	petra_köpping	0.9999942779541016
8155:8171	christian_piwarz	0.9999957084655762
8483:8489	piwarz	0.9999910593032837
9572:9585	roland_wöller	0.9999963045120239
9619:9636	horst_kretzschmar	0.9999948143959045
10829:10842	eugène_bruins	0.9999967217445374
16281:16294	jens_weichelt	0.9999942183494568
16384:16392	weichelt	0.9192949533462524
16971:16984	jana_tolkmitt	0.9999927282333374
17852:17870	michael_kretschmer	0.9999940991401672
19204:19216	ulf_buchholz	0.999991238117218
20619:20629	jens_spahn	0.9999954104423523
21608:21621	roland_wöller	0.9999964833259583
21655:21672	horst_kretzschmar	0.999995231628418
22092:22108	christian_piwarz	0.9999963045120239
22156:22169	petra_köpping	0.9999951720237732
