text	types	tokens	types/tokens
20:54	27	32	1.1481
20:04	64	78	1.2031
19:52	40	43	1.05
19:50	55	60	1.0727
19:44	51	65	1.2549
19:23	71	84	1.169
19:14	29	33	1.1034
19:06	30	31	1.0
18:55	51	64	1.2353
18:45	23	25	1.0435
18:06	44	51	1.1364
17:44	24	26	1.0417
17:39	43	50	1.1395
17:23	43	50	1.1395
17:16	63	76	1.1905
16:31	58	68	1.1552
16:15	48	54	1.1042
15:56	53	63	1.1698
15:35	73	87	1.1781
15:16	65	90	1.3692
14:59	65	74	1.1231
14:42	37	42	1.1081
14:40	40	43	1.05
14:25	31	33	1.0323
14:18	47	54	1.1277
13:16	57	72	1.2456
12:37	37	43	1.1351
12:03	56	73	1.2857
11:45	75	99	1.3067
11:31	92	129	1.3913
10:50	65	94	1.4308
10:16	69	87	1.2464
09:54	66	78	1.1667
09:15	31	34	1.0645
08:51	48	55	1.125
08:08	59	74	1.2373
07:44	71	80	1.1127
07:19	37	39	1.027
07:02	67	72	1.0597
06:33	58	75	1.2759
06:01	64	76	1.1719
05:34	27	30	1.0741
05:22	81	92	1.1235
05:10	88	106	1.1932
