text	types	tokens	types/tokens
19:39	23	25	1.0435
19:35	84	109	1.2857
17:59	15	17	1.0667
17:17	83	103	1.2289
15:40	66	73	1.0909
14:51	86	98	1.1279
14:06	48	59	1.2083
13:33	28	29	1.0
13:08	58	75	1.2759
12:13	61	80	1.2951
11:50	54	65	1.1852
11:10	69	95	1.3623
10:56	66	74	1.1061
10:30	73	89	1.2055
07:05	41	44	1.0488
05:55	86	113	1.3023
