816:836	robert-koch-institut	0.9999414682388306
926:929	rki	0.9999185800552368
1303:1323	robert-koch-institut	0.9999604225158691
2514:2533	deutsche_rote_kreuz	0.999985416730245
2535:2538	drk	0.99998939037323
4405:4411	bundes	0.9999392032623291
5686:5697	astrazeneca	0.9890090823173523
6377:6381	bund	0.9909606575965881
6386:6398	land_sachsen	0.7326097190380096
6504:6507	spd	0.9999873638153076
6780:6801	sächsische_aufbaubank	0.9970241785049438
12388:12399	mdr_aktuell	0.9999739527702332
13015:13020	union	0.9999864101409912
13025:13028	spd	0.9999849796295166
13366:13383	oschatzer_zeitung	0.9998529255390167
13662:13668	oxford	0.9746755957603455
13881:13903	complexity_science_hub	0.9023773868878683
13937:13940	mdr	0.9999632835388184
14500:14508	die_welt	0.9943819940090179
15498:15504	bundes	0.998306155204773
