1847:1860	oliver_schenk	0.9999966025352478
2199:2205	schenk	0.999927282333374
4275:4291	christian_piwarz	0.9999959468841553
5739:5752	petra_köpping	0.999995231628418
6490:6502	martin_dulig	0.9999924302101135
6662:6667	dulig	0.9095333814620972
7397:7411	andreas_schulz	0.999995231628418
9470:9490	robert_koch-institut	0.9999613761901855
9932:9950	christoph_scheurer	0.9999951124191284
13913:13925	peter_klimek	0.9999967813491821
14249:14265	christian_piwarz	0.9999961853027344
14475:14481	piwarz	0.9999706745147705
15623:15636	burkhard_jung	0.9999946355819702
16939:16949	jörg_urban	0.9999887943267822
18063:18077	joanna_kesicka	0.9999958276748657
