699:706	sachsen	0.9867327809333801
775:782	sachsen	0.9932793974876404
1290:1297	sachsen	0.9999881982803345
1471:1478	zwickau	0.9999874830245972
1490:1505	erzgebirgskreis	0.9999011754989624
1530:1543	mittelsachsen	0.9999858140945435
1643:1650	dresden	0.9999957084655762
1661:1668	leipzig	0.9999954700469971
1687:1694	sachsen	0.9999819993972778
1727:1734	sachsen	0.9999552965164185
1902:1909	dresden	0.9999945163726807
2219:2226	sachsen	0.9728734493255615
3381:3388	sachsen	0.9999631643295288
3390:3404	sachsen-anhalt	0.9999065399169922
3409:3418	thüringen	0.9999755620956421
3534:3541	sachsen	0.999936580657959
4213:4220	sachsen	0.9999791383743286
4736:4743	sachsen	0.9999880790710449
4801:4808	sachsen	0.9999709129333496
5535:5542	sachsen	0.9999796152114868
5608:5615	sachsen	0.9999822378158569
5794:5801	dresden	0.9999951124191284
7005:7025	leipziger_gewandhaus	0.9989794492721558
7029:7049	leipziger_gewandhaus	0.9998432099819183
7354:7361	leipzig	0.9999871253967285
7971:7978	leipzig	0.9999896287918091
8143:8150	leipzig	0.9999853372573853
8226:8234	freiberg	0.9999828338623047
8295:8303	chemnitz	0.9999921321868896
8474:8482	chemnitz	0.9999897480010986
8497:8510	mittelsachsen	0.999964714050293
8520:8535	erzgebirgskreis	0.9944539666175842
8712:8720	freiberg	0.9999868869781494
9384:9391	sachsen	0.997305154800415
9402:9409	sachsen	0.9989058971405029
9647:9654	sachsen	0.9998124241828918
9703:9718	erzgebirgskreis	0.9999169111251831
9734:9741	zwickau	0.9999899864196777
9760:9773	mittelsachsen	0.9999862909317017
9808:9815	dresden	0.9999936819076538
9820:9827	leipzig	0.9999945163726807
10215:10223	vogtland	0.9999831914901733
10386:10392	bayern	0.9995872378349304
10401:10410	thüringen	0.99757319688797
10462:10469	zwickau	0.9999839067459106
10578:10586	vogtland	0.9998538494110107
11044:11052	seebühne	0.9988903403282166
11053:11063	kriebstein	0.9579611420631409
11255:11270	rochlitzer_berg	0.9999781847000122
11300:11315	burg_kriebstein	0.9999760985374451
11454:11461	zwickau	0.9999741315841675
11538:11545	zwickau	0.9999843835830688
12554:12565	deutschland	0.9999825954437256
12640:12649	thüringen	0.9999912977218628
12763:12777	sachsen-anhalt	0.9996582269668579
13153:13160	oschatz	0.9997275471687317
13209:13216	oschatz	0.9992583394050598
13690:13697	europas	0.9998891353607178
13907:13911	wien	0.9999585151672363
14084:14088	jena	0.9982264637947083
14796:14801	löbau	0.9998319149017334
14855:14860	löbau	0.9999411106109619
16163:16170	freital	0.9999715089797974
16279:16284	hains	0.9998313188552856
16288:16295	freital	0.9999709129333496
