text	types	tokens	types/tokens
19:00	27	33	1.1852
18:20	81	101	1.2346
18:00	82	101	1.2195
17:15	23	24	1.0
16:34	53	61	1.1321
16:23	65	76	1.1538
15:59	47	56	1.1702
14:47	48	60	1.2292
13:40	51	54	1.0392
13:14	86	118	1.3605
12:40	65	99	1.5077
12:32	45	52	1.1333
11:27	27	31	1.1111
11:17	46	51	1.087
10:56	34	37	1.0588
10:08	147	188	1.2721
09:51	36	38	1.0278
09:00	55	61	1.0909
