757:761	euro	0.999974250793457
925:929	euro	0.999966025352478
2263:2275	corona-virus	0.9998303651809692
2837:2848	sars-co_v-2	0.8082279860973358
5653:5666	leipzig_liest	0.9741358160972595
5784:5793	berlinale	0.9999349117279053
5894:5900	corona	0.9987837672233582
7481:7485	euro	0.9999847412109375
7619:7635	leipzig_marathon	0.9999212622642517
7685:7701	leipzig_marathon	0.9999042749404907
8166:8182	leipzig_marathon	0.9998782873153687
9725:9735	und_kultur	0.9531601965427399
