1564:1579	plauener_herbst	0.9996209442615509
2084:2098	plauner_herbst	0.9813883602619171
4980:4984	euro	0.9999772310256958
5152:5156	euro	0.9999667406082153
6184:6188	euro	0.9999567270278931
8687:8698	coronavirus	0.9821703433990479
9138:9144	corona	0.9986594915390015
9515:9526	coronavirus	0.7746838331222534
9582:9588	corona	0.9983036518096924
10178:10184	corona	0.999876856803894
12374:12380	corona	0.9959157109260559
12520:12531	coronavirus	0.9918240904808044
13349:13366	dresdner_filmfest	0.9998652935028076
13398:13406	filmfest	0.7113661766052246
13450:13456	corona	0.8968951106071472
