text	types	tokens	types/tokens
21:05	23	26	1.087
20:25	102	131	1.2745
17:50	35	40	1.1143
17:00	66	87	1.303
16:29	59	70	1.1695
16:10	48	59	1.2083
15:15	49	60	1.2041
14:50	94	103	1.0851
14:25	41	47	1.122
14:20	45	53	1.1556
14:05	58	67	1.1379
13:20	88	111	1.25
12:49	72	88	1.2083
12:01	30	31	1.0
11:12	69	90	1.2899
10:32	67	81	1.194
09:46	46	48	1.0217
09:01	90	110	1.2111
08:12	40	48	1.175
07:31	43	52	1.186
06:53	49	57	1.1429
06:08	72	87	1.1944
05:42	48	55	1.125
05:20	63	75	1.1746
05:03	28	30	1.0357
