186:193	sachsen	0.9998296499252319
305:312	sachsen	0.9998708963394165
337:344	sachsen	0.9999698400497437
1183:1190	sachsen	0.9999821186065674
3058:3072	plauen-zwickau	0.9990656971931458
3198:3212	plauen-zwickau	0.9989253878593445
3343:3356	schwanenteich	0.9999423027038574
3360:3367	zwickau	0.99998939037323
3728:3736	dresdens	0.9868720769882202
5096:5111	störmthaler_see	0.9999842643737793
5116:5123	leipzig	0.9999943971633911
5889:5900	sachsenring	0.7310258746147156
6022:6030	leipzigs	0.9999938011169434
6289:6296	leipzig	0.9999939203262329
6514:6521	görlitz	0.9999868869781494
6579:6586	görlitz	0.9999889135360718
7325:7332	england	0.9999945163726807
7578:7595	robert-sterl-haus	0.9999597072601318
7599:7607	struppen	0.9999308586120605
7627:7644	robert-sterl-haus	0.9999853372573853
7668:7676	naundorf	0.9999923706054688
8007:8015	naundorf	0.9999943971633911
8023:8034	sächsischen	0.9830064177513123
8492:8499	dresden	0.9999935626983643
8501:8506	riesa	0.9999778270721436
8508:8513	pirna	0.9999822378158569
8518:8524	kamenz	0.999983549118042
8558:8565	schlema	0.9515247344970703
9666:9673	europas	0.9999854564666748
9697:9704	sachsen	0.9999563694000244
10829:10836	oederan	0.9999918937683105
10895:10902	oederan	0.9999881982803345
11440:11447	sachsen	0.9998854398727417
11473:11480	sachsen	0.9996803998947144
11766:11773	dresden	0.9999958276748657
11799:11807	chemnitz	0.9999959468841553
11821:11828	leipzig	0.9999966621398926
12346:12352	indien	0.9999915361404419
12719:12727	gohrisch	0.9999251365661621
12735:12746	sächsischen	0.9173524975776672
12747:12754	schweiz	0.9836169481277466
12782:12790	hellerau	0.9999810457229614
12859:12867	gohrisch	0.9999179840087891
13387:13394	sachsen	0.98347407579422
13688:13695	sachsen	0.9995785355567932
13845:13852	sachsen	0.9993453621864319
14775:14782	sachsen	0.9998804330825806
14856:14870	großbritannien	0.999991774559021
14875:14883	portugal	0.9999842643737793
