865:876	jesko_vogel	0.9999963045120239
1503:1521	michael_kretschmer	0.9999960064888
1678:1688	kretschmer	0.9999825954437256
2011:2018	köpping	0.9999698400497437
2100:2113	petra_köpping	0.9999964237213135
2552:2559	köpping	0.9999785423278809
3499:3511	marion_nagel	0.9999889731407166
6934:6952	hans-jörg_stiehler	0.999995231628418
7312:7320	stiehler	0.9999734163284302
8500:8517	jessica_rosenthal	0.9999924898147583
10009:10029	gottfried_silbermann	0.9999954700469971
10192:10203	silbermanns	0.999951958656311
10403:10416	albrecht_koch	0.9999956488609314
10534:10545	silbermanns	0.9999185800552368
10630:10643	johann_kuhnau	0.9999955892562866
10679:10700	johann_sebastian_bach	0.999989906946818
10721:10748	felix_mendelssohn_bartholdy	0.9999894301096598
