360:368	covid-19	0.7538636326789856
3760:3785	consumer_electronics_show	0.9996089935302734
3787:3790	ces	0.9973650574684143
5682:5686	euro	0.9999873638153076
5779:5783	euro	0.9999879598617554
7831:7842	gernelernen	0.9999570846557617
8000:8011	gernelernen	0.9996747970581055
