4085:4148	fraunhofer-institut_für_organische_elektronik_,_elektronenstrahl	0.8713259100914001
4150:4167	und_plasmatechnik	0.7744324803352356
4228:4235	sachsen	0.999747097492218
6121:6125	queo	0.9999603033065796
6989:6997	mdrfragt	0.9102198481559753
7396:7416	robert_koch-institut	0.9997331202030182
7418:7421	rki	0.9999884366989136
7672:7675	rki	0.9999651908874512
7738:7748	mdr_wissen	0.9999553561210632
7785:7795	mdr_wissen	0.9999721646308899
7872:7897	kinderuniversität_leipzig	0.9998771250247955
8016:8026	mdr_wissen	0.9999748468399048
8114:8124	mdr_wissen	0.9999710917472839
8244:8253	mdr-clara	0.9608384966850281
8258:8269	mdr_klassik	0.9999855756759644
8396:8399	ard	0.9999901056289673
8834:8838	bund	0.9997267127037048
10128:10161	gottfried-silbermann-gesellschaft	0.999953031539917
10466:10489	silbermann-gesellschaft	0.9998756647109985
