text	types	tokens	types/tokens
18:45	21	25	1.1429
17:31	56	67	1.1786
16:43	66	76	1.1364
16:28	67	80	1.1791
16:15	116	156	1.3362
14:50	33	37	1.0909
14:47	68	77	1.1176
13:00	92	115	1.2391
12:50	88	104	1.1705
12:05	31	36	1.129
11:45	43	52	1.186
11:25	63	73	1.1429
11:10	35	45	1.2571
09:50	73	92	1.2466
09:25	69	88	1.2609
08:37	74	95	1.2703
07:00	93	108	1.1505
