1141:1152	coronavirus	0.9998650550842285
3520:3550	lange_nacht_der_wissenschaften	0.9980492144823074
3575:3605	lange_nacht_der_wissenschaften	0.9994685649871826
3917:3942	dresdner_langen_nacht_der	0.9503950923681259
5031:5035	euro	0.9999831914901733
5463:5474	coronavirus	0.999880313873291
6113:6117	euro	0.9999864101409912
6363:6369	corona	0.9962762594223022
7770:7781	coronavirus	0.9989247918128967
12162:12181	gewandhausorchester	0.6795411109924316
14053:14064	coronavirus	0.9999372959136963
15038:15044	corona	0.9922046661376953
