657:664	sachsen	0.9980498552322388
727:734	sachsen	0.9998432397842407
844:851	görlitz	0.9999890327453613
946:981	sächsische_schweiz-osterzgebirge.am	0.9992711246013641
1109:1116	sachsen	0.9999176263809204
1250:1257	sachsen	0.9997420907020569
1374:1381	sachsen	0.9999336004257202
1540:1547	dresden	0.9999948740005493
1552:1559	leipzig	0.9999935626983643
1649:1656	sachsen	0.9994944334030151
1687:1694	sachsen	0.8380991220474243
2342:2347	tokio	0.99998939037323
2512:2524	markkleeberg	0.9999936819076538
2545:2557	markkleeberg	0.9999929666519165
3285:3296	kreuzkirche	0.9999160766601562
3615:3632	clara-zetkin-park	0.9999719858169556
3841:3854	sachsenbrücke	0.9999701976776123
4249:4256	sachsen	0.9999772310256958
4289:4296	sachsen	0.9999562501907349
5077:5088	deutschland	0.9999586343765259
5583:5600	dresdner_neustadt	0.999894380569458
5608:5625	dresdner_neustadt	0.9999101758003235
5803:5814	königstraße	0.9999905824661255
5816:5830	gomondai-platz	0.9999749660491943
5832:5844	albertstraße	0.9999878406524658
5849:5866	meißner_straße.in	0.9977771639823914
5867:5874	dresden	0.9999961853027344
5950:5957	prohlis	0.999954342842102
5966:5974	altstadt	0.9934738278388977
6554:6571	steinhaus_bautzen	0.9856093227863312
6670:6688	bautzner_steinhaus	0.9999727010726929
6727:6743	telux_weißwasser	0.999933660030365
6749:6773	kulturfabrik_hoyerswerda	0.9988215267658234
6779:6801	barockschloss_rammenau	0.9992110431194305
6807:6835	dorfkretscham_niederoderwitz	0.997161865234375
6844:6855	bildungsgut	0.8139961361885071
6856:6867	schmochtitz	0.849988579750061
6916:6927	reichenbach	0.9999802112579346
6931:6939	vogtland	0.999934196472168
6981:6992	reichenbach	0.9999638795852661
7548:7555	leipzig	0.9999951124191284
7925:7952	museum_der_bildenden_künste	0.9774187207221985
8099:8106	dresden	0.9999936819076538
8185:8192	dresden	0.9999924898147583
9006:9013	dresden	0.9999953508377075
9326:9333	leipzig	0.999994158744812
9506:9513	münchen	0.9999958276748657
9518:9525	hamburg	0.9999936819076538
9568:9580	deutschlands	0.9996446371078491
9787:9798	deutschland	0.9998929500579834
9908:9916	portugal	0.9999923706054688
9918:9932	großbritannien	0.9999849796295166
9934:9944	nordirland	0.9999910593032837
9946:9954	russland	0.9999933242797852
9956:9962	indien	0.9999940395355225
9967:9972	nepal	0.9999926090240479
10388:10399	deutschland	0.9998687505722046
11183:11186	usa	0.9999868869781494
11291:11297	grimma	0.999981164932251
11332:11341	muldental	0.9743965268135071
11397:11403	grimma	0.9999855756759644
11830:11837	sachsen	0.9998714923858643
11868:11875	görlitz	0.9999879598617554
12056:12063	sachsen	0.9998276233673096
12071:12079	chemnitz	0.9999951124191284
12084:12091	dresden	0.9999938011169434
12362:12369	leipzig	0.9999911785125732
12806:12813	sachsen	0.42983657121658325
12949:12956	leipzig	0.9999910593032837
