71:85	corona-tickers	0.9145897626876831
888:906	mdr_sachsenspiegel	0.9999118447303772
941:944	afd	0.999987006187439
1014:1017	cdu	0.9999889135360718
1027:1030	afd	0.9999891519546509
1130:1133	afd	0.9999853372573853
1475:1481	corona	0.9998738765716553
1978:1984	corona	0.9994033575057983
3718:3721	rki	0.9998921155929565
4969:4980	ovg_bautzen	0.785323828458786
5408:5415	curevac	0.9999842643737793
5703:5710	curevac	0.9999850988388062
6028:6034	plauen	0.9999392032623291
6073:6095	nagelkreuzgemeinschaft	0.9938667416572571
6234:6240	plauen	0.7610309720039368
6428:6434	plauen	0.5553159117698669
8118:8121	afd	0.9999860525131226
8153:8156	afd	0.9999858140945435
8248:8251	afd	0.9999886751174927
8392:8395	afd	0.9999892711639404
8442:8445	afd	0.9999899864196777
8683:8686	ovg	0.9999426603317261
8760:8763	ovg	0.998744010925293
11796:11806	querdenken	0.9999369382858276
12027:12030	ovg	0.9705601930618286
12505:12527	funke_mediengruppe.der	0.9999530911445618
13085:13089	bund	0.9999821186065674
13452:13455	afp	0.9999901056289673
13631:13635	bund	0.9999704360961914
14105:14121	dresden_nazifrei	0.9990301132202148
14577:14580	drk	0.9998859167098999
14635:14646	astrazeneca	0.9999656677246094
14936:14957	paul-ehrlich-institut	0.999929666519165
15357:15378	johnson_&_amp_;_johnson	0.9999647617340088
15402:15405	rki	0.9999849796295166
15540:15561	robert-koch-instituts	0.999967098236084
15738:15741	rki	0.9999781847000122
