1698:1706	covid-19	0.7742242217063904
1986:1993	omikron	0.9904592037200928
2004:2011	sars-co	0.9969556331634521
2284:2291	omikron	0.9875587224960327
4049:4055	corona	0.9989323019981384
4972:4978	corona	0.9985918402671814
6385:6404	fichtelbergmarathon	0.9999887943267822
6421:6444	fichtelberg-radmarathon	0.9999898672103882
6780:6784	euro	0.999981164932251
7268:7282	corona-warnapp	0.9999085664749146
7319:7333	corona-warnapp	0.9999616146087646
7654:7661	warnapp	0.9998014569282532
8125:8136	coronavirus	0.999969482421875
12726:12732	corona	0.9996789693832397
13772:13779	omikron	0.9980370402336121
15331:15335	euro	0.9999812841415405
