844:863	covid-19-erkrankung	0.986791729927063
914:925	coronavirus	0.9995653033256531
1000:1009	fakt_ist_.	0.8647777239481608
1250:1261	coronavirus	0.9994571805000305
1639:1647	fakt_ist	0.9629344344139099
2160:2168	fakt_ist	0.9097841680049896
4084:4099	covid-simulator	0.7272434234619141
7638:7649	coronavirus	0.9997833371162415
11444:11455	coronavirus	0.999915361404419
11858:11869	coronavirus	0.9997381567955017
12070:12081	coronavirus	0.998977541923523
12558:12562	euro	0.9999029636383057
13693:13704	coronavirus	0.9960877895355225
13783:13789	corona	0.9985490441322327
14655:14665	zero_covid	0.7496403455734253
21873:21877	euro	0.9990155696868896
22054:22070	filmfest_dresden	0.9963338375091553
22127:22143	filmfest_dresden	0.9977640807628632
23095:23105	enterprise	0.999651312828064
