text	types	tokens	types/tokens
22:00	16	17	1.0
21:45	71	86	1.1972
21:30	79	93	1.1646
20:55	55	65	1.1636
20:40	62	72	1.1452
20:25	67	81	1.194
19:55	54	61	1.1111
19:00	46	55	1.1739
18:35	41	43	1.0244
18:10	46	67	1.4348
17:35	50	56	1.1
17:10	90	114	1.2556
16:50	50	52	1.02
16:35	62	70	1.1129
15:45	69	78	1.1159
14:40	89	108	1.2022
14:15	60	69	1.1333
13:50	36	40	1.0833
12:57	103	140	1.3495
12:42	45	49	1.0667
12:04	68	80	1.1618
11:12	64	74	1.1406
10:56	41	43	1.0244
10:36	53	66	1.2264
10:22	53	60	1.1132
10:05	48	53	1.0833
09:26	68	79	1.1471
09:16	31	33	1.0323
08:54	48	55	1.125
08:40	58	67	1.1379
08:26	26	31	1.1538
08:13	38	43	1.1053
07:59	30	32	1.0333
07:40	73	89	1.2055
07:29	74	92	1.2297
07:20	61	77	1.2459
07:08	55	65	1.1636
06:48	55	64	1.1455
06:22	50	70	1.38
05:55	61	76	1.2295
05:30	48	53	1.0833
05:20	69	81	1.1594
05:07	71	85	1.1831
