97:106	wilsdruff	0.9969984292984009
232:241	wilsdruff	0.9999908208847046
586:595	wilsdruff	0.9998836517333984
1498:1505	sachsen	0.9769617915153503
1547:1554	sachsen	0.9989408850669861
1871:1882	deutschland	0.9995006322860718
1934:1943	karlsruhe	0.9999918937683105
2195:2206	deutschland	0.9999338388442993
2408:2429	rudolf-harbig-stadion	0.9999927282333374
2574:2581	dresden	0.9999945163726807
2720:2729	darmstadt	0.9999827146530151
2753:2760	leipzig	0.9999876022338867
3432:3439	dresden	0.999991774559021
3488:3501	prager_straße	0.9999781250953674
3505:3512	dresden	0.999994158744812
3808:3815	dresden	0.9999934434890747
4387:4394	sachsen	0.9998705387115479
4690:4699	thüringen	0.9999924898147583
4712:4726	sachsen-anhalt	0.9999827146530151
4793:4811	schleswig-holstein	0.9999933242797852
5731:5737	kamenz	0.9997941851615906
6628:6639	mühlleithen	0.9999188184738159
6645:6663	johanngeorgenstadt	0.9999791383743286
6735:6746	deutschland	0.9990113973617554
6805:6816	deutschland	0.9997773766517639
6873:6880	sachsen	0.9999709129333496
7286:7293	sachsen	0.9656973481178284
7317:7324	sachsen	0.9997422099113464
7597:7604	sachsen	0.9989131689071655
8713:8719	bochum	0.9999942779541016
9038:9052	bochumer_arena	0.9974162578582764
