351:364	mtv_stuttgart	0.9999838471412659
373:384	dresdner_sc	0.9999872446060181
1040:1094	der_nord-ostdeutschen_textil_-_und_bekleidungsindustrie	0.9464435577392578
1985:1994	lottoland	0.9996830224990845
2249:2259	semperoper	0.9992247819900513
2464:2474	semperoper	0.9994865655899048
3099:3106	ryanair	0.999982476234436
3171:3180	eurowings	0.9999872446060181
3230:3237	sundair	0.9999812841415405
3461:3468	novavax	0.9946123361587524
3878:3885	novavax	0.9999099969863892
4362:4382	robert-koch-institut	0.9999608993530273
5019:5036	bundesagentur_für	0.9999762177467346
5705:5725	robert-koch-institut	0.9999560117721558
6397:6426	hotel_-_und_gaststättenverband	0.9987963438034058
6428:6434	dehoga	0.999990701675415
7765:7797	sächsische_schweiz-osterzgebirge	0.8622975647449493
8915:8923	covid-19	0.7907994985580444
