822:828	corona	0.7697579264640808
2384:2392	covid-19	0.996468186378479
2491:2499	covid-19	0.9987452030181885
3721:3727	corona	0.9946826100349426
3763:3769	jawort	0.9998639822006226
3934:3941	dresden	0.8113892674446106
4851:4862	coronavirus	0.9999072551727295
5375:5379	euro	0.9999798536300659
5477:5481	euro	0.9999853372573853
5586:5590	euro	0.9999867677688599
5639:5643	euro	0.9999879598617554
5704:5708	euro	0.9999877214431763
5751:5755	euro	0.9999868869781494
10815:10819	euro	0.9999830722808838
11346:11366	pineal_gland_studies	0.9999446868896484
14611:14622	coronavirus	0.7390180826187134
14756:14775	covid-19-erkrankung	0.8940126299858093
15185:15194	histo_pad	0.6868110001087189
17649:17660	coronavirus	0.9995715022087097
19033:19044	coronavirus	0.9992030262947083
