text	types	tokens	types/tokens
20:23	36	38	1.0278
20:08	38	48	1.2368
19:49	55	64	1.1455
18:45	41	44	1.0488
18:27	95	128	1.3368
17:34	52	57	1.0769
17:30	58	68	1.1552
17:12	62	69	1.0968
16:57	53	65	1.2075
16:35	67	93	1.3731
16:23	41	65	1.561
15:37	70	89	1.2571
15:06	44	52	1.1591
14:37	68	86	1.25
14:34	37	42	1.1081
14:15	71	87	1.2113
13:53	70	75	1.0571
13:45	45	48	1.0444
13:16	52	64	1.2115
12:58	66	79	1.1818
12:18	60	68	1.1167
12:03	53	56	1.0377
11:46	82	101	1.2195
11:16	60	76	1.25
10:52	60	74	1.2167
10:42	93	117	1.2473
10:10	49	59	1.1837
09:43	66	77	1.1515
08:51	56	62	1.0893
08:26	68	79	1.1471
07:47	55	59	1.0545
07:13	63	77	1.2063
06:58	68	78	1.1324
06:19	51	57	1.098
05:50	49	56	1.1224
05:27	61	70	1.1311
05:19	61	67	1.082
05:02	66	84	1.2576
