text	types	tokens	types/tokens
20:30	61	65	1.0492
18:29	53	67	1.2453
18:17	43	51	1.1628
17:31	69	82	1.1739
17:23	62	73	1.1613
16:40	115	152	1.313
15:14	63	84	1.3175
15:00	60	70	1.15
14:42	83	112	1.3373
13:52	42	46	1.0714
13:14	64	79	1.2188
12:36	58	73	1.2414
12:01	71	91	1.2676
11:29	59	69	1.1525
11:05	80	101	1.25
10:38	64	70	1.0781
09:43	36	43	1.1667
07:46	57	69	1.193
07:18	68	94	1.3676
05:56	52	66	1.25
05:41	65	82	1.2462
05:24	47	52	1.0851
05:10	23	25	1.0435
