1000:1007	moderna	0.9999871253967285
2711:2722	astrazeneca	0.9999843835830688
3916:3928	coronavirus'	0.9999669790267944
4420:4426	corona	0.9995344877243042
11480:11486	corona	0.9910405278205872
13150:13158	covid-19	0.9997056126594543
13545:13549	euro	0.999970555305481
13635:13639	euro	0.9999752044677734
13856:13860	euro	0.9999849796295166
15587:15591	euro	0.9999223947525024
15615:15621	corona	0.9919501543045044
16178:16184	corona	0.9962165951728821
16360:16366	corona	0.9926546812057495
