1081:1102	johnson_&_amp_;_johnson	0.9999652862548828
1694:1716	museum_für_archäologie	0.7570589979489645
2303:2316	smac._sachsen	0.998422771692276
2541:2557	sc_dhf_k_leipzig	0.9999878704547882
2904:2916	sc_magdeburg	0.9999873638153076
2993:3001	sc_dhf_k	0.9999865293502808
3098:3112	dynamo_dresden	0.9999877214431763
3178:3192	dynamo_dresden	0.9999879002571106
3268:3284	türkgücü_münchen	0.9999880194664001
3625:3639	dynamo_dresden	0.9999865293502808
3836:3844	biontech	0.9998822212219238
4360:4375	biontech_pfizer	0.9999473690986633
4926:4937	riechen_und	0.7191639244556427
6530:6559	industrie_-_und_handelskammern	0.95956651866436
6561:6564	ihk	0.9999842643737793
6607:6610	ihk	0.9999775886535645
8388:8391	ifo	0.9999808073043823
8538:8544	bundes	0.9120116829872131
8616:8628	institut_für	0.9999815225601196
8651:8654	ifo	0.9999850988388062
9218:9238	robert-koch-institut	0.9999666213989258
9580:9583	rki	0.9999570846557617
10518:10538	robert_koch-institut	0.9999100565910339
11356:11359	rki	0.999845027923584
11551:11554	vvo	0.9999911785125732
11812:11836	verkehrsverbund_oberelbe	0.9999728202819824
11838:11841	vvo	0.9999916553497314
11953:11967	s-bahn_dresden	0.9973227977752686
11976:12000	mitteldeutsche_regiobahn	0.9999377727508545
13372:13428	bundesverbandes_der_ärztinnen_und_ärzte_des_öffentlichen	0.9997900128364563
13519:13523	bund	0.9999736547470093
13593:13599	bundes	0.9999605417251587
15433:15451	funke_mediengruppe	0.9998913407325745
16706:16717	mdr_sachsen	0.696136474609375
