814:827	petra_köpping	0.9999952912330627
2011:2025	sabine_wolfram	0.9999960660934448
4764:4777	thomas_hummel	0.9999960660934448
4871:4877	hummel	0.9999805688858032
5299:5305	hummel	0.9999815225601196
5318:5325	köpping	0.9999468326568604
5412:5425	petra_köpping	0.9999954700469971
5639:5646	köpping	0.999922513961792
7486:7499	petra_köpping	0.9999952912330627
8111:8123	lutz_schäfer	0.9999943971633911
8298:8305	schäfer	0.9994562268257141
8726:8741	joachim_ragnitz	0.9999944567680359
11765:11778	lutz_auerbach	0.9999932646751404
13342:13354	ute_teichert	0.999963641166687
13998:14012	peter_altmaier	0.999995768070221
15400:15413	burkhard_jung	0.9999963641166687
16400:16404	witt	0.999969482421875
16493:16506	katarina_witt	0.9999963045120239
