639:649	kretschmer	0.9999656677246094
715:733	michael_kretschmer	0.9999962449073792
2258:2271	petra_köpping	0.9999952912330627
2668:2674	wöller	0.9996594190597534
2739:2752	roland_wöller	0.9999966025352478
4976:4987	frank_vogel	0.9999933242797852
8929:8941	gregor_giele	0.9999967217445374
9419:9429	kretschmer	0.9999480247497559
9495:9513	michael_kretschmer	0.9999966621398926
9865:9875	kretschmer	0.9999896287918091
10430:10441	olaf_scholz	0.9999963045120239
11181:11205	kristin_klaudia_kaufmann	0.9999886353810629
