1375:1399	sächsische_israelfreunde	0.9999691247940063
3242:3245	spd	0.9999895095825195
3310:3313	cdu	0.9999902248382568
3459:3462	spd	0.9999916553497314
3637:3657	robert-koch-institut	0.9999603033065796
4252:4255	rki	0.9999369382858276
4384:4402	mdr_sachsenspiegel	0.9999547004699707
4464:4486	muskauer_waldeisenbahn	0.9884873628616333
6218:6265	landesverband_des_deutschen_jugendherbergswerks	0.9999631643295288
