53:60	sachsen	0.9998430013656616
147:154	sachsen	0.9999741315841675
681:688	sachsen	0.9998986721038818
746:753	sachsen	0.9999589920043945
815:824	thüringen	0.9999868869781494
933:947	sachsen-anhalt	0.9999656677246094
1267:1274	dresden	0.9999932050704956
1492:1499	dresden	0.9999942779541016
2015:2022	sachsen	0.999039351940155
2491:2498	sachsen	0.9984961748123169
2648:2656	sachsens	0.9878838658332825
2723:2730	sachsen	0.999218225479126
2773:2780	dresden	0.9999911785125732
2897:2904	sachsen	0.9980782270431519
3139:3146	görlitz	0.9999879598617554
3190:3197	görlitz	0.9999858140945435
3856:3863	sachsen	0.9998677968978882
4058:4065	dresden	0.9999943971633911
4122:4129	dresden	0.9999948740005493
4404:4409	pirna	0.9999749660491943
4564:4571	dresden	0.9999896287918091
4957:4964	leipzig	0.875731348991394
6084:6091	leipzig	0.9999926090240479
6205:6212	leipzig	0.9999943971633911
6902:6911	eilenburg	0.9999901056289673
6915:6924	eilenburg	0.9999916553497314
7332:7340	sachsens	0.9999380111694336
9207:9215	chemnitz	0.9999754428863525
9487:9495	chemnitz	0.9999786615371704
10283:10292	karlsruhe	0.9999938011169434
10574:10582	chemnitz	0.9999892711639404
10770:10777	dresden	0.9999939203262329
11194:11201	zwickau	0.9999758005142212
11216:11223	zwickau	0.9999839067459106
11390:11397	sachsen	0.9926440119743347
11479:11486	zwickau	0.9999775886535645
12002:12010	chemnitz	0.9999555349349976
12029:12037	chemnitz	0.9999548196792603
12427:12441	markneukirchen	0.9999896287918091
12551:12565	markneukirchen	0.9999903440475464
12874:12882	freitals	0.6993054747581482
12933:12941	freitals	0.5834491848945618
13259:13266	sachsen	0.774623453617096
13796:13804	rumänien	0.9999209642410278
14014:14021	sachsen	0.8894693851470947
14295:14301	zittau	0.9999319314956665
14452:14458	zittau	0.9999655485153198
14558:14567	karlsruhe	0.9999954700469971
15066:15074	sachsens	0.9428730010986328
