1007:1028	robert_koch-instituts	0.999900221824646
1613:1648	staatlichen_kunstsammlungen_dresden	0.9950504501660665
1650:1653	skd	0.999988317489624
1901:1904	skd	0.9999849796295166
2694:2697	spd	0.9999864101409912
3030:3034	bund	0.9999773502349854
4302:4309	sachsen	0.8844771981239319
4953:4956	zoo	0.42026910185813904
5029:5040	zoo_leipzig	0.7604137361049652
5620:5623	mdr	0.9999533891677856
6375:6386	mdr_sachsen	0.8203170895576477
7067:7093	eilenburger_carneval_clubs	0.9999725818634033
7373:7376	spd	0.9999841451644897
7834:7845	drk_sachsen	0.992809921503067
7915:7938	deutschen_roten_kreuzes	0.9994900822639465
8428:8439	mdr_sachsen	0.71567702293396
9249:9252	pcs	0.9999890327453613
10067:10070	bgh	0.9999921321868896
10256:10273	bundesgerichtshof	0.9800198078155518
10275:10278	bgh	0.9999486207962036
10562:10565	kik	0.9999862909317017
10675:10678	kik	0.9999881982803345
11120:11141	dresdner_philharmonie	0.83915975689888
11589:11600	wittichenau	0.9986697435379028
13541:13549	biontech	0.9996364116668701
14107:14128	robert-koch-instituts	0.9999798536300659
14130:14133	rki	0.9999878406524658
14471:14474	bgh	0.999987006187439
14531:14548	bundesgerichtshof	0.9998893737792969
14550:14553	bgh	0.999984860420227
14755:14762	sachsen	0.9624181389808655
14906:14909	kik	0.9999884366989136
