1056:1059	drk	0.9999872446060181
1107:1126	deutsche_rote_kreuz	0.9999734958012899
1274:1277	mdr	0.9999380111694336
1960:1963	mdr	0.9999709129333496
2114:2116	eu	0.9999788999557495
2117:2128	astrazeneca	0.9999703168869019
2999:3010	mdr_sachsen	0.8703071177005768
4873:4884	mdr_sachsen	0.9731014966964722
5153:5161	mdrfragt	0.999556839466095
6392:6410	hand_in_hand_e._v.	0.9995203137397766
9951:9965	stadtmarketing	0.9719252586364746
10912:10932	robert-koch-institut	0.9999165534973145
10951:10972	dresdner_philharmonie	0.9999702572822571
11002:11010	dresdner	0.9999746084213257
11541:11549	dresdner	0.9996562004089355
12209:12213	bund	0.9698491096496582
12552:12555	cdu	0.9999896287918091
13616:13623	envia_m	0.99993896484375
14226:14250	künstlergut_prösitz.weil	0.9470065236091614
14628:14690	verband_der_nord-ostdeutschen_textil_-_und_bekleidungsindustrie	0.999308202947889
14953:14959	damino	0.9998867511749268
16011:16024	umgebindehaus	0.9991104006767273
16430:16443	umgebindehaus	0.9736614227294922
17277:17280	cdu	0.9999892711639404
17414:17418	bund	0.999909520149231
17730:17734	bund	0.9999799728393555
17987:17993	bundes	0.9999743700027466
18437:18441	bund	0.9999620914459229
18458:18466	mdrfragt	0.9998925924301147
18473:18490	meinungsbarometer	0.5026804208755493
