text	types	tokens	types/tokens
20:22	24	31	1.25
20:13	38	42	1.0789
18:54	40	44	1.075
18:35	41	50	1.1951
17:48	74	85	1.1351
17:13	58	73	1.2414
16:25	65	87	1.3231
16:02	55	74	1.3273
15:49	61	77	1.2459
15:31	79	93	1.1646
15:16	119	151	1.2605
14:56	58	82	1.3966
14:31	71	84	1.169
14:13	72	95	1.3056
13:51	64	82	1.2656
13:32	73	95	1.2877
13:04	34	40	1.1471
12:37	57	66	1.1404
12:11	48	58	1.1875
11:54	79	94	1.1772
11:18	52	61	1.1538
10:50	48	56	1.1458
10:10	77	93	1.1948
09:48	64	83	1.2812
09:20	33	36	1.0606
08:45	88	106	1.1932
07:56	23	25	1.0435
07:27	64	76	1.1719
06:47	72	84	1.1528
06:23	39	44	1.1026
05:59	39	41	1.0256
05:27	86	107	1.2326
05:13	30	31	1.0
05:02	51	65	1.2549
