1302:1315	petra_köpping	0.999995231628418
2359:2372	gérard_krause	0.9999959468841553
2828:2842	veronika_hiebl	0.9999959468841553
2934:2939	hiebl	0.999631404876709
4819:4837	marcus_von_salisch	0.9999890327453613
5257:5264	salisch	0.9999644756317139
6147:6162	reiner_rogowski	0.9999945759773254
7923:7940	sten-gunnar_zeitz	0.9999944567680359
8238:8251	eugène_bruins	0.9999958872795105
9033:9048	barbara_klepsch	0.9999964833259583
9141:9148	klepsch	0.9999500513076782
9729:9744	matthias_rößler	0.999993622303009
9911:9921	kretschmer	0.9999896287918091
10045:10055	kretschmer	0.9999828338623047
10552:10565	klaus_rennert	0.9999961256980896
11282:11292	kretschmer	0.9999698400497437
11364:11382	michael_kretschmer	0.9999963045120239
11572:11582	kretschmer	0.9999743700027466
12229:12243	veronika_hiebl	0.9999958276748657
12671:12676	hiebl	0.9999192953109741
13215:13230	katrin_schiller	0.9999948740005493
13522:13530	vosgerau	0.8408194780349731
14387:14399	dirk_hilbert	0.9999960660934448
15634:15645	rené_glaser	0.9999945163726807
15915:15921	glaser	0.9999839067459106
17402:17415	petra_köpping	0.9999955296516418
17953:17963	jörg_urban	0.9999861717224121
18148:18153	urban	0.9999855756759644
18530:18545	marlies_zuschke	0.9999949932098389
19194:19205	oliver_hess	0.9999962449073792
19269:19273	hess	0.997722327709198
19831:19836	spahn	0.9999865293502808
20085:20095	jens_spahn	0.9999967813491821
20167:20172	spahn	0.9999896287918091
20363:20376	angela_merkel	0.9999952912330627
