2021-01-13	20229:20237	fakt_ist	0.5852740406990051
2021-01-13	20574:20582	fakt_ist	0.9982700943946838
2021-01-18	1639:1647	fakt_ist	0.9629344344139099
2021-01-18	2160:2168	fakt_ist	0.9097841680049896
2021-01-19	23452:23460	fakt_ist	0.7197049260139465
2021-04-27	15293:15301	fakt_ist	0.9995808601379395
2021-11-22	408:416	fakt_ist	0.9954440295696259
2021-11-23	22815:22823	fakt_ist	0.9837736487388611
2022-01-31	215:223	fakt_ist	0.9955511689186096
