2021-03-10	11380:11393	leipzig_liest	0.9982899725437164
2021-05-05	6319:6332	leipzig_liest	0.842113196849823
2021-05-28	18938:18951	leipzig_liest	0.9992565810680389
2022-02-07	4321:4334	leipzig_liest	0.998702734708786
2022-02-07	4480:4493	leipzig_liest	0.9997335374355316
2022-02-11	5653:5666	leipzig_liest	0.9741358160972595
