2022-01-12	8532:8539	novavax	0.9999794960021973
2022-01-28	6624:6631	novavax	0.9999125003814697
2022-01-28	6672:6679	novavax	0.8438816666603088
2022-01-28	6871:6878	novavax	0.9999563694000244
2022-02-01	7436:7443	novavax	0.9999126195907593
2022-02-16	4177:4184	novavax	0.9999817609786987
2022-02-16	4560:4567	novavax	0.9999096393585205
2022-02-16	4892:4899	novavax	0.9999309778213501
2022-02-22	6836:6843	novavax	0.9996445178985596
2022-02-23	6757:6764	novavax	0.9999785423278809
2022-02-23	6794:6801	novavax	0.9999858140945435
2022-02-24	1373:1380	novavax	0.9999715089797974
2022-02-24	1428:1435	novavax	0.9999672174453735
2022-02-24	1927:1934	novavax	0.9997745156288147
2022-02-28	422:429	novavax	0.9999744892120361
2022-02-28	5712:5719	novavax	0.9989606142044067
2022-02-28	6332:6339	novavax	0.9942295551300049
2022-03-01	7052:7059	novavax	0.999980092048645
2022-03-01	7089:7096	novavax	0.9999772310256958
2022-03-02	3404:3411	novavax	0.8205028176307678
