2021-01-25	11552:11572	regionalliga_nordost	0.75473952293396
2021-01-25	11655:11675	regionalliga_nordost	0.9786985218524933
2021-03-12	10537:10557	regionalliga_nordost	0.7021339237689972
2021-03-12	10781:10801	regionalliga_nordost	0.6114911735057831
2021-03-25	19057:19077	regionalliga_nordost	0.7491507530212402
2021-04-16	1222:1242	regionalliga_nordost	0.9549531638622284
2021-04-17	3293:3313	regionalliga_nordost	0.9794139564037323
