2021-02-27	13106:13121	semperopernball	0.9999639987945557
2021-02-27	13181:13196	semperopernball	0.9999598264694214
2021-05-13	4496:4511	semperopernball	0.9999665021896362
2021-05-13	4947:4962	semperopernball	0.9999862909317017
