289:292	cdu	0.9999897480010986
541:548	phoenix	0.9999308586120605
2113:2123	aufbaubank	0.9999861717224121
2201:2223	sächsischen_aufbaubank	0.9999762177467346
2225:2228	sab	0.9999885559082031
2326:2329	sab	0.999988317489624
2561:2565	bund	0.9999852180480957
3028:3035	phoenix	0.9998563528060913
3451:3464	fc_erzgebirge	0.9999561309814453
3505:3522	fc_erzgebirge_aue	0.9999639590581259
3590:3604	dynamo_dresden	0.9999867677688599
4109:4119	silbermond	0.9999500513076782
6051:6074	handwerkskammer_dresden	0.9987828135490417
8042:8048	dehoga	0.9999839067459106
8098:8127	hotel_-_und_gaststättenverband	0.9032229632139206
8129:8135	dehoga	0.9999890327453613
8840:8858	zookultur_g_gmb_h.	0.9973142892122269
10568:10585	klinikum_chemnitz	0.9999103546142578
10915:10935	robert-koch-institut	0.9999521970748901
11213:11218	ortec	0.9999868869781494
11732:11735	lvb	0.9665939807891846
11804:11807	lvb	0.9996870756149292
12034:12037	ema	0.9999806880950928
12081:12089	biontech	0.9851251840591431
12140:12145	stiko	0.9999399185180664
15261:15272	mdr_sachsen	0.9999244809150696
16127:16137	mdr_kultur	0.9998067021369934
16536:16548	oper_leipzig	0.9999633431434631
16717:16726	lohengrin	0.43968677520751953
