38:51	chemnitzer_fc	0.9999872446060181
56:69	chemnitzer_fc	0.9999858140945435
296:315	chemnitzer_klinikum	0.9999545216560364
362:379	klinikum_chemnitz	0.9997341334819794
1001:1021	robert-koch-institut	0.9999558925628662
1760:1801	allgemeinen_deutschen_tanzlehrerverbandes	0.9998707373936971
1803:1807	adtv	0.9999710321426392
2279:2310	medizinischen_labors_ostsachsen	0.9993283947308859
2521:2530	g-h-t._de	0.7995266914367676
2958:2966	oberelbe	0.9999760389328003
3933:3947	impfkommission	0.8522782921791077
3949:3953	siko	0.9999790191650391
5027:5050	deutsche_presse-agentur	0.9999144673347473
5371:5381	semperoper	0.6331909894943237
5669:5679	semperoper	0.533953845500946
6778:6810	oberschule_an_der_mulde_rochlitz	0.9959628343582153
6821:6845	johann-esche-grundschule	0.9997914433479309
7772:7782	rb_leipzig	0.9993208646774292
7789:7801	fsv_mainz_05	0.9999653498331705
7855:7862	leipzig	0.9999443292617798
8326:8344	sächsische_zeitung	0.8142401278018951
8457:8462	swiss	0.99998939037323
8530:8535	swiss	0.9999834299087524
8645:8656	mdr_sachsen	0.9999637603759766
8741:8746	swiss	0.9999879598617554
9040:9057	lufthansa-konzern	0.9874818325042725
9203:9212	lufthansa	0.9999897480010986
9313:9317	bund	0.9999170303344727
9415:9418	cdu	0.999988317489624
9514:9518	bund	0.9999610185623169
