243:253	kretschmer	0.9999691247940063
311:329	michael_kretschmer	0.9999963045120239
424:434	kretschmer	0.9999772310256958
1047:1060	petra_köpping	0.9999960660934448
3883:3901	michael_kretschmer	0.9999952912330627
4701:4711	dirk_wiese	0.9999946355819702
5385:5400	klaus_heckemann	0.9999963641166687
5689:5698	heckemann	0.9999805688858032
5962:5973	tobias_bilz	0.9999964833259583
6561:6579	wolfgang_leonhardt	0.9999958872795105
9032:9039	köpping	0.9998633861541748
9099:9112	petra_köpping	0.9999942779541016
9634:9641	köpping	0.9999004602432251
9814:9821	köpping	0.9999634027481079
9891:9904	petra_köpping	0.9999961853027344
10416:10423	köpping	0.9999490976333618
10774:10788	köpping.einige	0.9999780654907227
11255:11270	matthias_berger	0.999996542930603
12283:12290	köpping	0.9996384382247925
12367:12380	petra_köpping	0.999995231628418
13722:13732	kretschmer	0.9999721050262451
13793:13811	michael_kretschmer	0.9999955296516418
14041:14051	kretschmer	0.9999858140945435
14156:14166	kretschmer	0.999971866607666
14566:14578	rolf_schmidt	0.9999966621398926
14763:14770	schmidt	0.9999815225601196
