296:321	kriebstein-talsperrenfest	0.9999933242797852
3703:3709	männer	0.9535446763038635
4978:4993	corona-warn-app	0.9999746084213257
5065:5080	corona-warn-app	0.999975323677063
5253:5268	corona-warn-app	0.9999758005142212
5527:5542	corona-warn-app	0.9999765157699585
5687:5695	luca-app	0.9976676106452942
5813:5828	corona-warn-app	0.9999774694442749
6492:6503	coronavirus	0.98349529504776
8528:8532	euro	0.9999743700027466
10110:10114	euro	0.9999778270721436
13649:13657	miniwelt	0.9968916773796082
14463:14474	coronavirus	0.9999706745147705
