82:89	sachsen	0.9925998449325562
230:237	leipzig	0.9999886751174927
458:465	leipzig	0.9999942779541016
2440:2451	deutschland	0.9999524354934692
2924:2932	freiberg	0.9999827146530151
3278:3286	cranzahl	0.9979920387268066
3291:3305	oberwiesenthal	0.9999717473983765
4255:4262	sachsen	0.9999597072601318
4343:4350	sachsen	0.9999513626098633
4541:4548	sachsen	0.9999254941940308
4774:4781	leipzig	0.9999808073043823
4818:4825	leipzig	0.9999904632568359
5529:5540	deutschland	0.9707528352737427
5631:5638	sachsen	0.5224697589874268
6261:6268	sachsen	0.9999234676361084
6912:6919	dresden	0.9999946355819702
6975:6980	ostra	0.9998014569282532
6984:6991	dresden	0.9999953508377075
7074:7081	dresden	0.9999935626983643
7971:7981	tschechien	0.9999775886535645
8381:8391	tschechien	0.9999606609344482
8396:8401	polen	0.9999055862426758
8585:8594	wiesbaden	0.9998493194580078
9371:9378	sachsen	0.9438509941101074
10021:10028	sachsen	0.9960200190544128
10083:10094	hoyerswerda	0.9999768733978271
10103:10114	hoyerswerda	0.9996408224105835
10749:10756	sachsen	0.999961256980896
11844:11851	sachsen	0.9990900754928589
12128:12133	asien	0.9867667555809021
12515:12522	sachsen	0.9998267292976379
12626:12633	leipzig	0.9995729327201843
13060:13068	vogtland	0.999987006187439
13116:13124	vogtland	0.9999843835830688
13288:13294	plauen	0.999885082244873
13935:13946	falkenstein	0.9999934434890747
13951:13959	neustadt	0.9999885559082031
16080:16091	deutschland	0.9999929666519165
16929:16936	sachsen	0.9999823570251465
17016:17024	chemnitz	0.9999897480010986
17663:17671	auerbach	0.999992847442627
17676:17690	markneukirchen	0.9999929666519165
17732:17749	auerbach_vogtland	0.9997469186782837
17757:17771	markneukirchen	0.9999942779541016
18128:18135	sachsen	0.9999771118164062
19388:19394	bayern	0.9999535083770752
19400:19419	nordrhein-westfalen	0.9999803304672241
19492:19499	sachsen	0.9991102814674377
19742:19749	sachsen	0.9988735318183899
20483:20490	sachsen	0.9998977184295654
20608:20621	mittelsachsen	0.9999828338623047
20651:20664	mittelsachsen	0.9999880790710449
21096:21103	sachsen	0.998824417591095
21525:21532	leipzig	0.9999920129776001
22607:22613	kamenz	0.9999864101409912
23477:23484	bamberg	0.9999619722366333
24202:24209	dresden	0.9998936653137207
