817:823	corona	0.7290910482406616
2822:2830	biontech	0.9997143149375916
2853:2860	moderna	0.99960857629776
2865:2876	astrazeneca	0.999666690826416
3848:3854	corona	0.9308852553367615
4393:4404	go_trabi_go	0.9999048312505087
5373:5379	corona	0.9991887211799622
5576:5580	euro	0.999964714050293
5678:5682	euro	0.999976396560669
5971:5986	corona-pandemie	0.981855571269989
6065:6080	corona-pandemie	0.9965040683746338
6433:6441	covid-19	0.9943494200706482
10641:10645	euro	0.999984622001648
10730:10734	euro	0.9999845027923584
19896:19902	corona	0.9983918070793152
