text	types	tokens	types/tokens
20:09	21	25	1.1429
19:06	26	28	1.0385
18:29	86	106	1.2209
17:30	36	39	1.0556
17:13	49	55	1.102
17:02	54	63	1.1481
16:40	62	74	1.1774
16:10	38	44	1.1316
15:32	39	43	1.0769
15:16	34	42	1.2059
14:59	57	68	1.1754
14:34	65	70	1.0615
14:19	82	105	1.2683
13:55	59	72	1.2034
13:31	48	57	1.1667
13:17	70	92	1.3
12:43	39	45	1.1282
11:57	72	85	1.1667
11:01	43	51	1.1628
10:25	27	28	1.0
09:44	33	36	1.0606
09:26	33	36	1.0606
08:45	47	55	1.1489
08:29	63	72	1.127
07:51	28	30	1.0357
07:22	53	61	1.1321
06:53	47	71	1.4894
06:23	25	28	1.08
05:45	76	90	1.1711
05:22	47	53	1.1064
05:09	42	47	1.0952
