1046:1064	michael_praetorius	0.9999960064888
1069:1084	heinrich_schütz	0.9999961853027344
2866:2876	axel_klein	0.9999873042106628
3152:3158	kleins	0.9984878301620483
3833:3842	beethoven	0.9999842643737793
3847:3859	tschaikowski	0.9999645948410034
4233:4244	rené_glaser	0.9999939203262329
5174:5185	thomas_horn	0.9999944567680359
6986:6997	tobias_bilz	0.9999963045120239
7194:7198	bilz	0.9999836683273315
7888:7902	gerd_landsberg	0.9999960660934448
8107:8116	landsberg	0.99989914894104
9672:9687	andreas_richter	0.9999959468841553
11645:11658	petra_köpping	0.9999958276748657
11990:12005	klaus_heckemann	0.9999934434890747
12163:12172	heckemann	0.999703586101532
