1006:1024	instrumenta_musica	0.9999856948852539
1243:1272	stiftung_frauenkirche_dresden	0.833496073881785
2825:2864	hotel_-_und_gaststättenverbandes_sachsen	0.9995695233345032
3370:3390	vogtlandphilharmonie	0.9999468326568604
3430:3468	vogtlandphilharmonie_greiz-reichenbach	0.9999728202819824
4054:4076	handelsverband_sachsen	0.9988612830638885
4112:4134	handelsverband_sachsen	0.9997346103191376
4255:4258	mdr	0.9999599456787109
4415:4418	rki	0.9999330043792725
4453:4462	tu_berlin	0.9999642968177795
5033:5067	wirtschaftsförderung_sachsen_gmb_h	0.9794181734323502
5585:5601	pressnitztalbahn	0.9999440908432007
5656:5678	pressnitztalbahn_gmb_h	0.9935756921768188
5680:5685	press	0.9996938705444336
5927:5932	press	0.9999159574508667
6500:6509	mc_kinsey	0.9996884763240814
6788:6797	mc_kinsey	0.9937911033630371
8228:8232	bund	0.9998654127120972
8561:8581	robert_koch-institut	0.9999211430549622
8742:8745	rki	0.9999740123748779
9019:9022	rki	0.9999549388885498
11354:11362	biontech	0.998178243637085
11663:11674	mdr_sachsen	0.9622207283973694
12027:12046	vereinigung_sachsen	0.9999803304672241
