5317:5335	stoneman_miriquidi	0.9998966455459595
5404:5422	stoneman_miriquidi	0.9999392032623291
5543:5549	corona	0.6209298968315125
12918:12933	silbermann-tage	0.9999901056289673
13023:13039	silbermann-tagen	0.9999895095825195
14439:14458	rewe_team_challenge	0.9998801747957865
14674:14694	team_challenge_light	0.9934064745903015
15411:15425	annaberger_kät	0.9996709227561951
15772:15786	annaberger_kät	0.999473363161087
15926:15937	schmochtitz	0.9807378649711609
15969:15980	schmochtitz	0.9973063468933105
16307:16318	schmochtitz	0.9898046255111694
17043:17052	capriccio	0.9999897480010986
17310:17319	capriccio	0.9999873638153076
17638:17642	euro	0.9999810457229614
19452:19460	frühling	0.7470614910125732
