2089:2104	steffen_seibert	0.9999949932098389
4075:4091	josquin_des_préz	0.9999873240788778
5033:5046	petra_köpping	0.9999959468841553
6897:6912	wolfram_günther	0.9999966621398926
7393:7404	axel_hüpkes	0.999986469745636
7753:7762	hüpke.der	0.9999219179153442
13207:13220	albrecht_koch	0.9999955296516418
13486:13506	gottfried_silbermann	0.9999935030937195
13695:13706	klaus_stöhr	0.999993622303009
13949:13962	andré_scherag	0.999994695186615
14304:14310	robert	0.8104762434959412
14802:14813	andré_egger	0.9999960660934448
17057:17072	richard_strauss	0.9999963045120239
17242:17255	peter_theiler	0.999996542930603
17351:17358	theiler	0.9827123880386353
18131:18148	magdalena_weniger	0.9999945759773254
18259:18274	chiara_detscher	0.9999960064888
18667:18681	christina_koch	0.9999960660934448
18967:18971	koch	0.9999419450759888
