1019:1036	bundeskriminalamt	0.9994899034500122
2733:2747	jugend_forscht	0.9999262094497681
3211:3221	dreamstage	0.9670515060424805
4770:4791	robert_koch-instituts	0.9999350905418396
7232:7245	umgebindehaus	0.9238825440406799
7569:7579	kulturraum	0.7858451008796692
