854:879	statistischen_bundesamtes	0.9521234333515167
1232:1239	bündnis	0.8672572374343872
1540:1575	aktionsnetzwerk_leipzig_nimmt_platz	0.9903036653995514
2724:2734	crifbürgel	0.9999455213546753
3698:3720	robert-koch-institutes	0.9999285936355591
4449:4452	spd	0.9999889135360718
5125:5128	afd	0.9999837875366211
5278:5281	afd	0.9999829530715942
5531:5534	afd	0.9999868869781494
6917:6928	mdr_sachsen	0.9999189972877502
8130:8160	landestourismusverband_sachsen	0.9311707019805908
8275:8297	landestourismusverband	0.9862964153289795
8299:8302	ltv	0.9999524354934692
8677:8688	ihk_dresden	0.9996683895587921
8727:8763	industrie_-_und_handelskammer_dresden	0.9941681265830994
9102:9113	mdr_sachsen	0.7206429839134216
9125:9135	rb_leipzig	0.9999667406082153
9211:9221	rb_leipzig	0.9639392197132111
9379:9383	uefa	0.9999855756759644
9725:9738	bürgerallianz	0.9984214305877686
9788:9813	bürgerallianz_deutschland	0.9999784827232361
10546:10571	bürgerallianz_deutschland	0.9999732375144958
12459:12473	helios-konzern	0.9999426603317261
12514:12528	helios-konzern	0.9999449253082275
13391:13400	lufthansa	0.999988317489624
13423:13432	lufthansa	0.9999865293502808
14243:14246	fdp	0.9999867677688599
14291:14294	fdp	0.9999822378158569
14314:14318	bund	0.999357283115387
15599:15608	deutschen	0.9999346733093262
15622:15675	für_internistische_intensivmedizin_und_notfallmedizin	0.9999869346618653
15677:15682	dgiin	0.9999879598617554
17926:17938	rot-grün-rot	0.9672516584396362
18284:18312	deutschen_hausärzteverbandes	0.9998512864112854
18341:18359	funke_mediengruppe	0.9999750852584839
