text	types	tokens	types/tokens
21:26	25	28	1.08
21:22	47	53	1.1064
20:41	57	69	1.193
20:26	72	84	1.1528
19:36	60	71	1.1667
19:31	72	87	1.1944
18:31	58	71	1.2069
18:08	74	91	1.2162
17:01	73	85	1.1507
16:51	49	56	1.1224
16:30	55	62	1.1091
16:17	56	65	1.1429
15:06	74	89	1.1892
14:49	69	84	1.2029
14:18	53	58	1.0755
13:54	48	54	1.1042
13:40	61	73	1.1803
12:44	99	125	1.2525
12:18	79	95	1.1899
11:52	47	54	1.1277
11:30	60	82	1.35
10:59	56	65	1.1429
10:37	44	48	1.0682
09:48	52	64	1.2115
09:39	45	52	1.1333
09:01	88	116	1.3068
08:33	55	65	1.1636
08:10	53	60	1.1132
07:47	87	111	1.2644
07:15	90	118	1.3
06:53	63	76	1.1905
06:28	95	112	1.1684
06:04	20	22	1.05
05:34	58	79	1.3448
05:12	30	33	1.0667
05:05	30	31	1.0
