99:106	sachsen	0.9999507665634155
356:363	sachsen	0.9999561309814453
610:617	leipzig	0.9992619156837463
773:780	sachsen	0.9999803304672241
827:834	sachsen	0.9999699592590332
952:959	sachsen	0.9193137884140015
1537:1545	chemnitz	0.9999953508377075
1801:1812	deutschland	0.999737560749054
2561:2568	sachsen	0.999862551689148
3131:3142	jänschwalde	0.9998325109481812
4262:4267	polen	0.9999840259552002
4348:4353	polen	0.9999853372573853
4744:4752	chemnitz	0.9999878406524658
5097:5108	deutschland	0.9999804496765137
5296:5303	leipzig	0.9999961853027344
5357:5364	leipzig	0.9999945163726807
5927:5937	tschechien	0.9999897480010986
5974:5981	sachsen	0.9999542236328125
6126:6136	tschechien	0.9999909400939941
6214:6221	sachsen	0.9999440908432007
6337:6344	bautzen	0.9999716281890869
6586:6599	mittelsachsen	0.9999760389328003
6610:6617	bautzen	0.9998878240585327
6647:6660	mittelsachsen	0.9999784231185913
6678:6685	bautzen	0.9999644756317139
7289:7297	vogtland	0.9999618530273438
7363:7371	chemnitz	0.9999905824661255
7393:7403	erzgebirge	0.9998456239700317
7405:7412	zwickau	0.9999880790710449
7414:7425	nordsachsen	0.9999884366989136
7430:7436	meißen	0.9651634097099304
7811:7818	sachsen	0.9997531771659851
8484:8491	dresden	0.9999947547912598
8559:8566	dresden	0.9999958276748657
8604:8611	dresden	0.9999951124191284
9068:9077	kirchberg	0.9999939203262329
9115:9124	kirchberg	0.9999908208847046
9179:9190	meisterhaus	0.9997990727424622
9574:9588	bundesrepublik	0.9670562148094177
9589:9600	deutschland	0.9397545456886292
9775:9784	kirchberg	0.999987006187439
9850:9857	leipzig	0.999994158744812
9953:9964	johannapark	0.9999862909317017
9968:9975	leipzig	0.9999935626983643
10253:10257	karl	0.7924754619598389
10303:10318	karl_may_museum	0.9911389549573263
10322:10330	radebeul	0.9999570846557617
10517:10523	meißen	0.9999654293060303
11725:11733	chemnitz	0.9999947547912598
11776:11784	chemnitz	0.999994158744812
13765:13776	deutschland	0.9995482563972473
14157:14166	gornsdorf	0.9999847412109375
14171:14179	chemnitz	0.9999873638153076
14361:14368	sachsen	0.9997956156730652
14437:14444	sachsen	0.9998723268508911
14827:14835	sachsens	0.9997847676277161
15140:15145	pegau	0.9999501705169678
15163:15168	pegau	0.9999591112136841
15589:15596	dresden	0.9999948740005493
15854:15860	berlin	0.9999964237213135
15862:15869	dresden	0.9999960660934448
15871:15878	hamburg	0.9999954700469971
15883:15890	münchen	0.9999945163726807
16057:16064	leipzig	0.9999896287918091
16085:16092	leipzig	0.999993085861206
16104:16128	zeitgeschichtliche_forum	0.9916496872901917
16529:16540	oberlausitz	0.9999542236328125
16560:16567	bautzen	0.9999892711639404
16572:16579	görlitz	0.9999834299087524
17094:17101	bautzen	0.9999899864196777
17106:17113	görlitz	0.9999850988388062
17611:17619	chemnitz	0.9999945163726807
17633:17641	chemnitz	0.9999940395355225
17706:17715	ebersdorf	0.9999827146530151
17992:18000	chemnitz	0.999992847442627
18114:18121	dresden	0.9999946355819702
18472:18479	dresden	0.9999934434890747
18997:19004	sachsen	0.9997931122779846
19084:19091	sachsen	0.9999293088912964
19432:19436	nord	0.9999775886535645
19445:19456	westsachsen	0.9999690055847168
19490:19497	zwickau	0.9999877214431763
19629:19636	bautzen	0.9999749660491943
19811:19818	sachsen	0.9999799728393555
19973:19980	bautzen	0.9999786615371704
