937:940	cdu	0.999987006187439
1852:1906	bundesamt_für_bevölkerungsschutz_und_katastrophenhilfe	0.9999873876571655
1908:1911	bbk	0.9999896287918091
2070:2073	cdu	0.9999889135360718
2252:2255	bbk	0.9999827146530151
2848:2852	leag	0.9999828338623047
2985:2989	leag	0.9999858140945435
4820:4823	cdu	0.999988317489624
9419:9422	asb	0.9997058510780334
10035:10071	deutschen_literaturinstituts_leipzig	0.9998904665311178
10258:10268	may_museum	0.5263651311397552
10744:10747	cdu	0.9999890327453613
13706:13723	bundesnetzagentur	0.999944806098938
14141:14153	sachsenkabel	0.9999544620513916
14513:14533	robert_koch-institut	0.9999692440032959
14535:14538	rki	0.9999884366989136
15548:15555	flixbus	0.9997550845146179
15600:15607	flixbus	0.9990045428276062
16671:16703	landesamt_für_schule_und_bildung	0.9999221682548523
18496:18507	mdr_sachsen	0.9998041391372681
