2184:2198	dario_nardella	0.9999924898147583
3922:3937	klaus_heckemann	0.999997079372406
4291:4300	heckemann	0.9998732805252075
4423:4433	kretschmer	0.9999663829803467
4487:4505	michael_kretschmer	0.9999963641166687
5599:5610	helge_braun	0.9999957084655762
6292:6303	anne_lütkes	0.9999935030937195
6637:6643	lütkes	0.9962025284767151
8876:8890	kristin_becker	0.9999952912330627
9469:9481	özlem_türeci	0.9999933242797852
9486:9496	ugur_sahin	0.9999768733978271
10824:10828	jung	0.9999289512634277
10911:10924	burkhard_jung	0.9999964833259583
11430:11434	jung	0.9982959628105164
