470:477	you_gov	0.9999698996543884
1374:1395	robert-koch-instituts	0.9999688863754272
2142:2152	eurocities	0.9999721050262451
2773:2794	robert-koch-instituts	0.9999344348907471
4507:4510	cdu	0.9999887943267822
4631:4638	twitter	0.9994762539863586
6328:6346	funke-mediengruppe	0.9075565934181213
7474:7506	landesamt_für_schule_und_bildung	0.9999678134918213
9092:9100	biontech	0.999984622001648
9658:9664	pfizer	0.9999809265136719
10158:10165	moderna	0.9995877146720886
11059:11063	bund	0.877845048904419
11199:11217	funke_mediengruppe	0.9999576210975647
12978:12998	robert-koch-institut	0.9999662637710571
