78:85	sachsen	0.9999642372131348
670:677	sachsen	0.9999812841415405
682:691	thüringen	0.9999772310256958
1374:1381	sachsen	0.9999648332595825
1593:1600	leipzig	0.9998564720153809
1887:1894	dresden	0.9999896287918091
1939:1949	frankreich	0.9999849796295166
2204:2211	sachsen	0.9232524633407593
2797:2811	dresden-meißen	0.9999921321868896
3801:3809	sachsens	0.9999431371688843
4537:4544	sachsen	0.9999715089797974
4583:4591	sachsens	0.9988743662834167
4837:4844	sachsen	0.9937815070152283
4895:4902	sachsen	0.9999487400054932
6374:6388	dresden-meißen	0.9914101958274841
6825:6832	leipzig	0.9999926090240479
7464:7471	sachsen	0.9993667006492615
8078:8085	sachsen	0.9994518160820007
8179:8187	dänemark	0.9999954700469971
8192:8202	österreich	0.9995631575584412
8276:8282	europa	0.9999223947525024
8298:8306	dänemark	0.9999953508377075
8311:8321	österreich	0.9997959733009338
8424:8429	pegau	0.9719699621200562
8468:8473	pegau	0.9997308850288391
8487:8494	leipzig	0.9999927282333374
8812:8817	pegau	0.9997220635414124
8885:8890	borna	0.9999903440475464
8905:8910	borna	0.9999929666519165
9242:9248	coswig	0.9999847412109375
9252:9258	coswig	0.9999898672103882
9272:9278	meißen	0.9999769926071167
9305:9310	sport	0.9928154945373535
9332:9339	olympia	0.9917603731155396
10662:10669	dresden	0.9999945163726807
10671:10678	leipzig	0.9999964237213135
10683:10691	chemnitz	0.9999953508377075
11047:11054	sachsen	0.9999594688415527
11259:11266	bautzen	0.9999454021453857
11383:11390	görlitz	0.9999761581420898
11530:11537	dresden	0.9999929666519165
11631:11639	freiberg	0.9999877214431763
11641:11648	zwickau	0.9999867677688599
11650:11655	löbau	0.999750554561615
11660:11666	zittau	0.9999240636825562
11680:11685	pirna	0.9999723434448242
12404:12411	sachsen	0.9998550415039062
