1524:1530	corona	0.9998983144760132
1586:1601	corona-pandemie	0.9997017979621887
1857:1863	corona	0.9998779296875
3426:3437	coronavirus	0.9992464780807495
3713:3719	sars-1	0.9998558759689331
3724:3730	sars-2	0.9994233846664429
4590:4601	astrazeneca	0.8513428568840027
7007:7015	covid-19	0.9998384714126587
7816:7822	corona	0.9960719347000122
11407:11418	coronavirus	0.9999740123748779
13469:13484	corona-pandemie	0.5923275351524353
