2889:2892	spd	0.9999880790710449
3472:3485	staatskapelle	0.5090221166610718
3538:3559	staatskapelle_dresden	0.9953740835189819
4176:4179	spd	0.9999825954437256
5103:5114	astrazeneca	0.9954267740249634
7320:7340	robert_koch-institut	0.9999240636825562
8952:8976	freunde_der_spielschiffe	0.9999785820643107
8981:8997	mdr_sachsenradio	0.9997141063213348
9296:9322	regionalagentur_für_arbeit	0.999934991200765
10170:10173	cdu	0.9999879598617554
11100:11120	robert-koch-institut	0.999954342842102
11565:11571	trilex	0.9997841715812683
11576:11588	vogtlandbahn	0.990665853023529
11632:11635	u28	0.9942586421966553
11785:11793	oberelbe	0.9999579191207886
11810:11821	mdr_sachsen	0.9999685883522034
12386:12397	astrazeneca	0.9999855756759644
12579:12582	spd	0.9999871253967285
12680:12688	biontech	0.999810516834259
13726:13742	sc_dhf_k_leipzig	0.9999871551990509
13773:13784	hc_erlangen	0.9999868869781494
15472:15488	rheinischen_post	0.9999820590019226
16068:16071	rtl	0.9999891519546509
16076:16079	ntv	0.9999871253967285
16589:16600	astrazeneca	0.9999871253967285
16662:16673	astrazeneca	0.9999872446060181
16920:16931	astrazeneca	0.891218364238739
16941:16952	astrazeneca	0.9999839067459106
17312:17326	institutes_für	0.9998382031917572
18419:18422	rb5	0.2945399880409241
18911:18914	ihk	0.9999359846115112
19657:19660	ihk	0.9976857900619507
19714:19726	ihk_chemnitz	0.8833377957344055
20448:20460	ihk_chemnitz	0.9998676180839539
21633:21636	cdu	0.999987006187439
22661:22669	musikrat	0.9893653392791748
22717:22736	sächsische_musikrat	0.6017853617668152
23246:23257	astrazeneca	0.9999583959579468
23825:23828	spd	0.9999868869781494
23922:23929	moderna	0.9979435801506042
23935:23943	biontech	0.9922123551368713
24026:24037	astrazeneca	0.9998252987861633
24347:24350	cdu	0.9999886751174927
25047:25070	handwerkskammer_leipzig	0.9999634027481079
25665:25668	cdu	0.999988317489624
