1942:1953	uwe_rumberg	0.9999616742134094
1983:2002	peter_pfitzenreiter	0.9999957084655762
2237:2250	pfitzenreiter	0.999984860420227
2864:2887	frank-walter_steinmeier	0.9999953508377075
3921:3936	andreas_spilger	0.9999959468841553
4161:4174	dirk_neubauer	0.9999967217445374
5254:5268	steffen_zenner	0.9999954104423523
8926:8940	claude_bernard	0.9999967813491821
9462:9480	klaus-peter_hansen	0.9999955892562866
10151:10168	hartmut_vorjohann	0.9999959468841553
10549:10558	vorjohann	0.9999915361404419
12564:12577	petra_köpping	0.9999960660934448
12921:12928	köpping	0.9999849796295166
12955:12960	storl	0.9999877214431763
13033:13044	david_storl	0.9999963641166687
13212:13217	storl	0.9999691247940063
13470:13475	storl	0.9999715089797974
15449:15461	ute_teichert	0.9999893307685852
15696:15704	teichert	0.999833345413208
15874:15884	kretschmer	0.9999871253967285
15961:15979	michael_kretschmer	0.9999950528144836
16301:16311	kretschmer	0.9999581575393677
16455:16465	kretschmer	0.999944806098938
18716:18721	klein	0.9998464584350586
18799:18809	axel_klein	0.9999891519546509
19128:19133	klein	0.9996107220649719
19498:19514	michael_albrecht	0.9999966621398926
20398:20421	hans-joachim_wunderlich	0.9999932646751404
21618:21631	torsten_bonew	0.9999960660934448
21778:21783	bonew	0.9999939203262329
22203:22221	claudia_glashauser	0.9999961853027344
23810:23823	petra_köpping	0.9999945163726807
24333:24345	udo_witschas	0.9999713897705078
25025:25038	andrea_wolter	0.999996542930603
25444:25450	wolter	0.9999818801879883
25471:25476	vogel	0.9998457431793213
25652:25663	frank_vogel	0.9999954104423523
