1754:1767	petra_köpping	0.9999955892562866
2033:2040	köpping	0.9999842643737793
2123:2133	kretschmer	0.9999808073043823
2225:2234	rolf_keil	0.9999958276748657
2257:2275	michael_kretschmer	0.9999952912330627
2408:2418	kretschmer	0.9999802112579346
2581:2591	kretschmer	0.9999885559082031
3382:3395	marco_rendler	0.9999952912330627
3704:3711	rendler	0.9999860525131226
4472:4484	martin_dulig	0.9998338222503662
5481:5493	markus_krebs	0.9999935030937195
5559:5578	sybille_bullatschek	0.9999886751174927
5728:5741	olaf_schubert	0.9999884963035583
6082:6095	detlef_hamann	0.9999954700469971
6488:6494	hamann	0.9999463558197021
7110:7122	otto_waalkes	0.999639242887497
7127:7140	olaf_schubert	0.9999898672103882
7576:7589	rüdiger_unger	0.9999851584434509
8170:8183	oliver_schenk	0.9999967813491821
9438:9451	petra_köpping	0.9999963641166687
10353:10360	köpping	0.999954342842102
10987:11002	monika_grütters	0.9999897480010986
12029:12043	matthias_lißke	0.9999964237213135
12163:12168	lißke	0.9999796152114868
12226:12242	marco_wanderwitz	0.999995231628418
12566:12571	lißke	0.9999690055847168
12962:12973	steve_alter	0.999996542930603
13169:13183	horst_seehofer	0.9999956488609314
13669:13682	rico_gebhardt	0.9999964237213135
14679:14692	petra_köpping	0.9999948143959045
14721:14734	oliver_schenk	0.9999960660934448
14741:14754	rüdiger_unger	0.9999951720237732
15748:15761	michael_clauß	0.9999940991401672
16432:16446	thomas_mertens	0.9999960660934448
18326:18337	dirk_hentze	0.9999951124191284
19402:19409	klepsch	0.9999499320983887
19573:19588	barbara_klepsch	0.9999966621398926
20057:20073	kristin_kaufmann	0.9999943971633911
21503:21514	frank_vogel	0.9999960660934448
21858:21863	vogel	0.9998612403869629
21917:21931	astrid_münster	0.9999934434890747
22269:22282	angela_merkel	0.9999938607215881
22859:22871	jörg_junhold	0.9999944567680359
23701:23707	spahns	0.9999828338623047
23810:23820	jens_spahn	0.9999959468841553
24685:24706	heinz-peter_meidinger	0.9999931454658508
