1043:1063	robert-koch-institut	0.9999716281890869
1150:1153	drk	0.999993085861206
1187:1216	drk_blutspendedienst_nord-ost	0.955273429552714
3960:3972	leere_stühle	0.999899685382843
4629:4636	porsche	0.9999855756759644
4714:4721	porsche	0.9999845027923584
5862:5865	ihk	0.9999805688858032
5921:5957	industrie_-_und_handelskammer_dresden	0.99971444606781
6334:6355	sächsische_aufbaubank	0.9999549388885498
6896:6899	fvg	0.9999914169311523
7205:7225	elbland_philharmonie	0.9997929930686951
7852:7855	drk	0.99998939037323
9453:9456	spd	0.9999854564666748
10173:10185	astra-zeneca	0.9999728202819824
10601:10613	astra-zeneca	0.9999662637710571
10652:10671	kurt_wolff_stiftung	0.9995153943697611
10715:10734	kurt_wolff_stiftung	0.8929773767789205
11567:11586	kurt_wolff_stiftung	0.9998060266176859
11744:11754	erzgebirge	0.9984752535820007
14788:14791	drk	0.9049710035324097
14821:14824	drk	0.9999920129776001
15035:15053	hand_in_hand_e._v.	0.9892768263816833
15062:15080	nikola-tesla_-_klub	0.9421390891075134
15372:15379	in_hand	0.9999568462371826
15496:15509	eu-kommission	0.8289397358894348
15684:15687	dpa	0.9999911785125732
16398:16422	ständigen_impfkommission	0.9998007118701935
16424:16429	stiko	0.9992934465408325
16633:16646	bild_-_zeitung	0.9989712436993917
17056:17075	deutsche_rote_kreuz	0.9611500104268392
18677:18689	sachsenradio	0.9995217323303223
19761:19772	mdr_sachsen	0.9999756813049316
20080:20091	mdr_sachsen	0.9948832392692566
21393:21404	mdr_sachsen	0.9468072950839996
22194:22200	gärten	0.8682763576507568
22205:22214	tierparks	0.6865826845169067
23330:23345	cluster_leipzig	0.9745668768882751
23566:23581	cluster_leipzig	0.8389230966567993
23608:23626	universitätsklinik	0.855942964553833
23640:23660	collm_klinik_oschatz	0.9938898881276449
23669:23680	herzzentrum	0.8554655313491821
24324:24335	lehrverband	0.9549089670181274
24361:24365	bund	0.9999803304672241
24711:24724	bild_-_zeitung	0.9671621918678284
24726:24730	bund	0.9999825954437256
24867:24906	gewerkschaft_erziehung_und_wissenschaft	0.9788710922002792
25549:25561	barthels_hof	0.9291903376579285
