5457:5461	ffp2	0.9986454844474792
5467:5471	kn95	0.9977715015411377
13454:13466	don_giovanni	0.9998499751091003
13510:13522	frankenstein	0.9999499320983887
13525:13543	das_monster_in_uns	0.9995896965265274
13644:13659	zerbrochne_krug	0.9171048402786255
23015:23021	corona	0.9961125254631042
23085:23100	corona-pandemie	0.9269072413444519
23415:23421	corona	0.99904865026474
