text	types	tokens	types/tokens
21:00	48	56	1.1458
20:53	48	60	1.2292
20:38	63	84	1.3175
20:19	52	60	1.1346
19:57	86	110	1.2674
19:30	70	80	1.1286
18:56	51	65	1.2549
18:23	64	71	1.0938
18:09	54	69	1.2593
17:48	85	104	1.2118
17:24	46	49	1.0435
17:09	61	74	1.1967
16:51	56	68	1.1964
16:34	68	84	1.2206
16:21	69	91	1.3043
15:49	73	85	1.1507
15:34	42	48	1.119
15:03	57	71	1.2281
14:44	65	76	1.1538
14:19	55	64	1.1455
13:56	46	49	1.0435
13:1413:04	36	45	1.2222
12:06	89	109	1.2135
11:55	51	57	1.098
11:42	82	101	1.2195
11:0710:32	53	62	1.1509
10:09	52	63	1.1923
09:30	65	83	1.2615
09:08	67	88	1.2985
09:00	59	72	1.2034
08:29	94	118	1.2447
08:00	82	99	1.1951
07:43	76	88	1.1447
07:16	53	72	1.3396
07:02	75	87	1.1467
06:15	65	82	1.2462
06:05	40	47	1.15
05:55	42	50	1.1667
05:27	27	29	1.037
05:10	53	64	1.1887
