41:48	sachsen	0.9999852180480957
635:642	görlitz	0.9999922513961792
647:653	zittau	0.9999580383300781
657:664	görlitz	0.9999921321868896
672:678	zittau	0.9999648332595825
828:833	löbau	0.9998000264167786
861:871	weißwasser	0.9999762773513794
876:882	niesky	0.9999672174453735
1332:1340	chemnitz	0.999982476234436
1388:1396	chemnitz	0.9999833106994629
2378:2385	leipzig	0.9999932050704956
2443:2450	leipzig	0.9999921321868896
2699:2721	quarterback_immobilien	0.7167478501796722
2722:2727	arena	0.873752236366272
2905:2912	leipzig	0.9999912977218628
2966:2973	sachsen	0.999760091304779
2977:2984	sachsen	0.9999080896377563
3519:3526	sachsen	0.9997732043266296
3556:3564	dresdens	0.9999936819076538
3678:3685	sachsen	0.9997254014015198
4240:4246	berlin	0.9999949932098389
4405:4411	berlin	0.9999912977218628
4480:4487	dresden	0.9999945163726807
4638:4645	am_bühl	0.9416827261447906
4649:4659	eibenstock	0.999581515789032
5336:5343	sachsen	0.9999337196350098
5804:5811	sachsen	0.9998959302902222
6969:6976	zwickau	0.9999881982803345
8179:8187	chemnitz	0.9999964237213135
8203:8210	dresden	0.9999964237213135
8229:8236	leipzig	0.9999963045120239
8279:8286	sachsen	0.999940037727356
8312:8319	sachsen	0.9999722242355347
8544:8551	sachsen	0.999977707862854
8834:8841	sachsen	0.999969482421875
8928:8935	sachsen	0.9997459053993225
9988:9998	ostsachsen	0.9999508857727051
10106:10120	sachsen.obwohl	0.7083133459091187
10453:10460	bautzen	0.9999728202819824
10476:10483	bautzen	0.9999740123748779
10701:10708	dresden	0.9999957084655762
10714:10720	london	0.999995231628418
10758:10765	dresden	0.9999957084655762
10771:10777	london	0.9999958276748657
10843:10858	london-stansted	0.9999964237213135
11268:11274	london	0.9999969005584717
11280:11289	amsterdam	0.9999955892562866
11294:11300	zürich	0.999992847442627
11353:11360	dresden	0.9999938011169434
11389:11400	wackerbarth	0.9999653100967407
11457:11468	wackerbarth	0.6000316739082336
12128:12137	belvedere	0.8563975095748901
13072:13078	bayern	0.9999841451644897
13080:13087	sachsen	0.9999701976776123
13092:13111	nordrhein-westfalen	0.9999896287918091
13174:13181	zwickau	0.9999873638153076
13361:13368	sachsen	0.9999096393585205
13617:13624	zwickau	0.9998949766159058
14124:14137	bischofswerda	0.9999877214431763
14142:14149	görlitz	0.9999876022338867
14280:14295	dresden-görlitz	0.9999938011169434
15741:15749	freiberg	0.9999929666519165
15782:15790	freiberg	0.9999922513961792
17352:17365	mittelsachsen	0.9999663829803467
17379:17392	mittelsachsen	0.999987006187439
17648:17653	lohsa	0.9999872446060181
17661:17672	oberlausitz	0.9998857975006104
17922:17929	sachsen	0.9999881982803345
17980:17987	sachsen	0.9999744892120361
18042:18054	lebuser_land	0.9999621510505676
18111:18118	sachsen	0.9999834299087524
18123:18134	brandenburg	0.9999895095825195
