text	types	tokens	types/tokens
20:15	71	88	1.2254
19:57	90	112	1.2333
19:33	54	67	1.2222
18:22	84	103	1.2143
17:12	63	83	1.3016
16:23	59	76	1.2712
15:58	52	64	1.2115
14:33	91	109	1.1868
13:47	55	62	1.1091
13:20	106	138	1.2925
12:54	88	108	1.2159
12:13	70	81	1.1429
11:52	61	75	1.2131
11:02	95	111	1.1579
09:49	69	88	1.2609
08:32	57	67	1.1579
07:40	54	72	1.3148
07:01	60	69	1.1333
06:08	105	139	1.3143
05:39	85	100	1.1647
05:19	52	60	1.1346
05:07	58	70	1.1897
