1225:1230	spahn	0.9999865293502808
1702:1708	wieler	0.9999123811721802
3279:3294	lorenz_hofbauer	0.9999967217445374
4266:4284	michael_kretschmer	0.9999960064888
4488:4498	kretschmer	0.9999772310256958
4769:4779	mackenroth	0.9999741315841675
4863:4879	geert_mackenroth	0.9999957084655762
5172:5182	mackenroth	0.999987006187439
5750:5765	barbara_klepsch	0.9999938607215881
7919:7940	heinz-peter_meidinger	0.9999929070472717
8945:8955	tom_buhrow	0.9999950528144836
8982:9003	saruul_krause-jentsch	0.9999873042106628
9770:9785	barbara_klepsch	0.9999964833259583
9817:9832	joachim_klement	0.9999958276748657
9897:9904	klepsch	0.9974610805511475
10207:10228	cristina_marin_campos	0.9999903837839762
10349:10361	marin_campos	0.9999940395355225
12265:12281	matthias_waurick	0.9999934434890747
14127:14137	jan_vogler	0.9999938607215881
17584:17601	wolfgang_triebert	0.9999948740005493
18433:18451	maria_van_kerkhove	0.9999906222025553
18793:18809	winfried_meißner	0.9999960660934448
