413:420	sachsen	0.9997437596321106
598:611	mittelsachsen	0.9999516010284424
640:653	vogtlandkreis	0.9996501207351685
731:738	sachsen	0.9983022212982178
1610:1617	leipzig	0.999990701675415
2688:2695	sachsen	0.9926108717918396
2730:2737	sachsen	0.9998063445091248
2927:2935	sachsens	0.999879002571106
3447:3456	eilenburg	0.9999808073043823
3458:3463	borna	0.9999908208847046
3468:3475	oschatz	0.9999617338180542
3648:3654	weimar	0.9999841451644897
3782:3789	görlitz	0.9999916553497314
3791:3796	pirna	0.9999872446060181
3798:3805	dresden	0.9999949932098389
3810:3818	chemnitz	0.9999939203262329
4128:4134	erfurt	0.9999904632568359
4299:4309	tschechien	0.9999939203262329
4397:4407	tschechien	0.9999939203262329
4463:4471	sachsens	0.8707885146141052
4625:4635	tschechien	0.9999866485595703
4790:4800	tschechien	0.999993085861206
5009:5020	nordsachsen	0.9999927282333374
5073:5084	nordsachsen	0.9999923706054688
5496:5505	delitzsch	0.999984860420227
5678:5689	nordsachsen	0.9999896287918091
6026:6034	chemnitz	0.999991774559021
6535:6542	sachsen	0.9996685981750488
7215:7222	dresden	0.9999959468841553
7274:7281	sachsen	0.8476194143295288
7821:7828	zwickau	0.9999945163726807
8033:8042	talstraße	0.9999825954437256
8438:8452	dawson_city_am	0.9871969223022461
8453:8458	yukon	0.6921842694282532
8462:8468	kanada	0.9999914169311523
8489:8500	deutschland	0.9937803149223328
8631:8638	dresden	0.9999960660934448
8643:8652	amsterdam	0.9999958276748657
8666:8673	dresden	0.999996542930603
8829:8838	amsterdam	0.9999969005584717
9095:9102	dresden	0.999991774559021
9264:9275	klingenthal	0.9999891519546509
9279:9290	klingenthal	0.9999914169311523
9567:9574	sachsen	0.9972230195999146
9784:9791	sachsen	0.9994142055511475
9857:9864	sachsen	0.9999045133590698
10162:10175	mittelsachsen	0.9999667406082153
10410:10420	marienberg	0.9999949932098389
10490:10500	marienberg	0.9999934434890747
10586:10598	marienkirche	0.9999752044677734
11048:11059	großschönau	0.9999860525131226
11082:11093	großschönau	0.9999903440475464
