text	types	tokens	types/tokens
20:12	44	51	1.1364
20:04	45	54	1.1778
19:41	76	95	1.2368
19:06	67	85	1.2537
18:00	51	57	1.098
17:22	68	84	1.2206
15:40	92	116	1.25
14:10	67	79	1.1642
13:50	65	89	1.3538
13:15	67	76	1.1194
12:39	67	86	1.2687
11:51	71	79	1.0986
11:15	62	75	1.1935
10:56	31	34	1.0645
10:17	61	70	1.1311
09:25	30	33	1.0667
08:48	27	29	1.037
08:19	72	85	1.1667
07:21	63	69	1.0794
07:00	43	50	1.1395
