2021-04-07	8794:8810	alexander_kekulé	0.9999964237213135
2021-04-27	1865:1881	alexander_kekulé	0.9999942779541016
2021-05-04	4138:4154	alexander_kekulé	0.9999951124191284
2021-05-25	1560:1576	alexander_kekulé	0.999996542930603
2021-06-04	14911:14927	alexander_kekulé	0.9999958276748657
2021-06-12	5588:5604	alexander_kekulé	0.9999958872795105
2021-06-29	1085:1101	alexander_kekulé	0.9999960660934448
2021-07-08	354:370	alexander_kekulé	0.9999960064888
2021-07-15	4291:4307	alexander_kekulé	0.9999960064888
2021-11-16	375:391	alexander_kekulé	0.9999948740005493
2021-11-23	1342:1358	alexander_kekulé	0.9999961853027344
2022-01-12	5508:5524	alexander_kekulé	0.9999960064888
2022-01-13	4280:4296	alexander_kekulé	0.9999956488609314
2022-01-28	12639:12655	alexander_kekulé	0.9999952912330627
2022-02-22	1094:1110	alexander_kekulé	0.9999958276748657
