2021-02-09	17454:17468	astrid_münster	0.9999936819076538
2021-02-11	6891:6905	astrid_münster	0.9999945759773254
2021-02-12	24462:24476	astrid_münster	0.9999956488609314
2021-02-19	2604:2618	astrid_münster	0.9999926090240479
2021-02-19	2925:2939	astrid_münster	0.9999924898147583
2021-02-23	21917:21931	astrid_münster	0.9999934434890747
2021-03-25	20048:20062	astrid_münster	0.9999955892562866
