2021-01-12	7741:7752	bernd_lange	0.9999962449073792
2021-01-17	3287:3298	bernd_lange	0.9999958276748657
2021-02-15	7580:7591	bernd_lange	0.9999959468841553
2021-02-17	5125:5136	bernd_lange	0.9999960064888
2021-03-10	3507:3518	bernd_lange	0.9999957084655762
2021-03-11	6265:6276	bernd_lange	0.9999940991401672
2021-03-16	4744:4755	bernd_lange	0.9999960660934448
2021-04-16	21887:21898	bernd_lange	0.9999963641166687
2021-11-10	8946:8957	bernd_lange	0.9999963641166687
2021-12-02	1173:1184	bernd_lange	0.9999964237213135
2021-12-17	4897:4908	bernd_lange	0.9999960064888
2021-12-21	8647:8658	bernd_lange	0.9999969601631165
2022-02-04	1094:1105	bernd_lange	0.9999960660934448
