2021-03-25	9068:9072	bilz	0.9999716281890869
2021-04-01	8443:8447	bilz	0.999879002571106
2021-05-24	7194:7198	bilz	0.9999836683273315
2021-07-21	2979:2983	bilz	0.999942421913147
2021-07-21	3111:3115	bilz	0.9998990297317505
2021-12-23	1395:1399	bilz	0.9999880790710449
