2021-02-01	14457:14475	christoph_scheurer	0.9999960660934448
2021-02-02	13184:13202	christoph_scheurer	0.9999915957450867
2021-04-20	9932:9950	christoph_scheurer	0.9999951124191284
2021-04-23	3776:3794	christoph_scheurer	0.9999947547912598
2021-06-11	2322:2340	christoph_scheurer	0.9999947547912598
2021-11-11	11228:11246	christoph_scheurer	0.9999963045120239
2021-11-12	8931:8949	christoph_scheurer	0.999995768070221
2021-11-24	6241:6259	christoph_scheurer	0.9999956488609314
2021-12-07	12666:12684	christoph_scheurer	0.9999955892562866
