2021-01-31	1277:1281	dedy	0.9999408721923828
2021-02-22	18311:18315	dedy	0.999935507774353
2021-05-20	16036:16040	dedy	0.9997593760490417
2021-06-12	5870:5874	dedy	0.9999644756317139
2021-06-12	6141:6145	dedy	0.9999581575393677
