2021-01-08	1022:1027	dulig	0.999534010887146
2021-01-08	1279:1284	dulig	0.999669075012207
2021-01-09	9297:9302	dulig	0.9972946047782898
2021-01-09	9798:9803	dulig	0.9966874718666077
2021-01-11	17915:17920	dulig	0.9995300769805908
2021-01-11	18379:18384	dulig	0.9999457597732544
2021-01-14	16381:16386	dulig	0.9999399185180664
2021-01-18	9004:9009	dulig	0.9999674558639526
2021-01-19	19470:19475	dulig	0.9998899698257446
2021-01-20	1200:1205	dulig	0.9998558759689331
2021-01-20	1361:1366	dulig	0.9999949932098389
2021-01-20	6952:6957	dulig	0.9997881054878235
2021-01-20	7446:7451	dulig	0.999907374382019
2021-02-02	7337:7342	dulig	0.9999964237213135
2021-02-05	13830:13835	dulig	0.9999970197677612
2021-02-26	1958:1963	dulig	0.9995575547218323
2021-02-26	2181:2186	dulig	0.9986231327056885
2021-02-26	2506:2511	dulig	0.9954437017440796
2021-02-27	11833:11838	dulig	0.9862646460533142
2021-02-27	12106:12111	dulig	0.9992902278900146
2021-03-01	13827:13832	dulig	0.9961799383163452
2021-03-01	13912:13917	dulig	0.9999966621398926
2021-03-01	14185:14190	dulig	0.9997369647026062
2021-03-05	2900:2905	dulig	0.9790520668029785
2021-03-06	6397:6402	dulig	0.9999034404754639
2021-03-06	6791:6796	dulig	0.9962254762649536
2021-03-07	4317:4322	dulig	0.9992576241493225
2021-03-07	4643:4648	dulig	0.9996762275695801
2021-03-07	4987:4992	dulig	0.9995099306106567
2021-03-08	1139:1144	dulig	0.9996801614761353
2021-04-09	686:691	dulig	0.9998669624328613
2021-04-20	6662:6667	dulig	0.9095333814620972
2021-04-28	2854:2859	dulig	0.9999086856842041
2021-05-05	8403:8408	dulig	0.9238260984420776
2021-05-20	1348:1353	dulig	0.9999347925186157
2021-06-11	11091:11096	dulig	0.9998890161514282
2021-06-11	11413:11418	dulig	0.9999967813491821
2021-06-13	4833:4838	dulig	0.9997475743293762
2021-06-13	4925:4930	dulig	0.9999973773956299
2021-06-26	5202:5207	dulig	0.985996663570404
2021-06-28	11883:11888	dulig	0.9996751546859741
2021-06-28	12405:12410	dulig	0.9528058767318726
2021-07-19	3257:3262	dulig	0.9998401403427124
2021-07-21	4719:4724	dulig	0.9973201155662537
2021-07-21	5048:5053	dulig	0.8824840784072876
2021-07-21	5199:5204	dulig	0.9984671473503113
2021-11-22	17214:17219	dulig	0.9991236329078674
2021-11-22	17518:17523	dulig	0.99989914894104
2021-12-08	11068:11073	dulig	0.9998769760131836
2021-12-15	13188:13193	dulig	0.9999499320983887
2021-12-15	13361:13366	dulig	0.9986827969551086
2022-01-25	11582:11587	dulig	0.9936124682426453
