2021-02-12	2066:2089	frank-walter_steinmeier	0.9999937415122986
2021-02-12	19584:19607	frank-walter_steinmeier	0.9999948143959045
2021-02-18	9144:9167	frank-walter_steinmeier	0.9999951720237732
2021-02-25	11108:11131	frank-walter_steinmeier	0.9999952912330627
2021-03-31	2864:2887	frank-walter_steinmeier	0.9999953508377075
2021-04-04	2298:2321	frank-walter_steinmeier	0.9999959468841553
2021-04-18	6467:6490	frank-walter_steinmeier	0.9999931454658508
2021-05-16	3215:3238	frank-walter_steinmeier	0.9999944567680359
