2021-01-14	3775:3786	frank_vogel	0.9999959468841553
2021-02-10	5612:5623	frank_vogel	0.9999943971633911
2021-02-10	5675:5686	frank_vogel	0.9999956488609314
2021-02-11	10750:10761	frank_vogel	0.9999964833259583
2021-02-23	21503:21514	frank_vogel	0.9999960660934448
2021-03-10	5269:5280	frank_vogel	0.9999955892562866
2021-03-11	17685:17696	frank_vogel	0.999995768070221
2021-03-17	4807:4818	frank_vogel	0.9999950528144836
2021-03-22	9663:9674	frank_vogel	0.999994158744812
2021-03-31	25652:25663	frank_vogel	0.9999954104423523
2021-04-14	4678:4689	frank_vogel	0.9999957084655762
2021-04-29	6431:6442	frank_vogel	0.999995768070221
2021-05-19	16234:16245	frank_vogel	0.9999949336051941
2022-01-06	4976:4987	frank_vogel	0.9999933242797852
2022-02-03	890:901	frank_vogel	0.9999933838844299
