2021-01-26	14830:14848	franziska_schubert	0.9999934434890747
2021-02-25	20284:20302	franziska_schubert	0.9999945759773254
2021-02-26	14095:14113	franziska_schubert	0.9999958276748657
2022-01-27	13863:13881	franziska_schubert	0.9999931454658508
