2021-01-10	10009:10029	gottfried_silbermann	0.9999954700469971
2021-01-14	2677:2697	gottfried_silbermann	0.9999887347221375
2021-01-14	2778:2798	gottfried_silbermann	0.999992311000824
2021-04-22	11589:11609	gottfried_silbermann	0.9999940395355225
2021-04-30	13486:13506	gottfried_silbermann	0.9999935030937195
