2021-01-19	13241:13262	heinz-peter_meidinger	0.9999929070472717
2021-02-10	13984:14005	heinz-peter_meidinger	0.9999936819076538
2021-02-23	24685:24706	heinz-peter_meidinger	0.9999931454658508
2021-03-15	18772:18793	heinz-peter_meidinger	0.9999936819076538
2021-04-05	9126:9147	heinz-peter_meidinger	0.9999926686286926
2021-04-08	16395:16416	heinz-peter_meidinger	0.999992847442627
2021-05-15	7096:7117	heinz-peter_meidinger	0.9999931454658508
2021-06-01	7919:7940	heinz-peter_meidinger	0.9999929070472717
2021-06-23	10435:10456	heinz-peter_meidinger	0.9999929666519165
2021-07-23	6585:6606	heinz-peter_meidinger	0.9999918341636658
