2021-03-07	11099:11119	heinrich_timmerevers	0.9999960064888
2021-03-25	5469:5489	heinrich_timmerevers	0.9999964237213135
2021-04-04	2960:2980	heinrich_timmerevers	0.9999961256980896
2021-05-21	20513:20533	heinrich_timmerevers	0.9999947547912598
2021-11-08	2096:2116	heinrich_timmerevers	0.9999957084655762
2021-11-22	13164:13184	heinrich_timmerevers	0.9999944567680359
2021-11-26	7254:7274	heinrich_timmerevers	0.9999942183494568
2022-03-02	8636:8656	heinrich_timmerevers	0.9999955892562866
