2021-01-25	16030:16041	helge_braun	0.9999945759773254
2021-03-06	7009:7020	helge_braun	0.9999957084655762
2021-03-21	5599:5610	helge_braun	0.9999957084655762
2021-03-28	6182:6193	helge_braun	0.9999958872795105
2021-07-02	15286:15297	helge_braun	0.9999960660934448
