2021-03-02	2009:2024	hermann_winkler	0.9999946355819702
2021-03-24	1266:1281	hermann_winkler	0.9999938607215881
2021-04-06	9671:9686	hermann_winkler	0.9999944567680359
2021-04-17	3400:3415	hermann_winkler	0.9995352327823639
2021-11-11	12063:12078	hermann_winkler	0.9999645352363586
2021-11-22	20907:20922	hermann_winkler	0.9999945163726807
