2021-01-20	11539:11553	joanna_kesicka	0.9999961256980896
2021-04-20	18063:18077	joanna_kesicka	0.9999958276748657
2021-04-27	15352:15366	joanna_kesicka	0.9999942183494568
2021-05-03	20315:20329	joanna_kesicka	0.9999961853027344
2021-05-15	1961:1975	joanna_kesicka	0.9999961256980896
2021-07-21	6223:6237	joanna_kesicka	0.9999948143959045
