2021-02-18	21843:21857	kerstin_köditz	0.9999963045120239
2021-04-17	5198:5212	kerstin_köditz	0.9999962449073792
2021-12-07	7930:7944	kerstin_köditz	0.9999958872795105
2021-12-22	7680:7694	kerstin_köditz	0.9999966025352478
2021-12-28	6586:6600	kerstin_köditz	0.9999956488609314
