2021-03-02	18463:18481	klaus-peter_hansen	0.9999951720237732
2021-03-31	9462:9480	klaus-peter_hansen	0.9999955892562866
2021-05-13	1074:1092	klaus-peter_hansen	0.9999954700469971
2021-06-30	7864:7882	klaus-peter_hansen	0.9999951720237732
2021-12-29	3271:3289	klaus-peter_hansen	0.9999954700469971
2022-01-04	13823:13841	klaus-peter_hansen	0.999995768070221
