2021-05-04	13075:13090	klaus_reinhardt	0.9999943375587463
2021-05-28	13458:13473	klaus_reinhardt	0.9999959468841553
2021-06-22	9667:9682	klaus_reinhardt	0.999995231628418
2021-07-13	12839:12854	klaus_reinhardt	0.9999963641166687
2021-07-23	6422:6437	klaus_reinhardt	0.9999951124191284
2022-02-03	9363:9378	klaus_reinhardt	0.9999966025352478
2022-02-17	2503:2518	klaus_reinhardt	0.9999953508377075
