2021-03-31	18716:18721	klein	0.9998464584350586
2021-03-31	19128:19133	klein	0.9996107220649719
2021-04-28	818:823	klein	0.9797154664993286
2021-07-15	8789:8794	klein	0.9948762059211731
2021-12-09	15875:15880	klein	0.8429808020591736
2021-12-09	16079:16084	klein	0.7269633412361145
