2021-01-12	18001:18012	kretzschmar	0.9999473094940186
2021-12-20	7651:7662	kretzschmar	0.9998884201049805
2021-12-20	7970:7981	kretzschmar	0.9999803304672241
2021-12-23	2777:2788	kretzschmar	0.9999110698699951
