2021-03-02	2371:2384	manfred_wilde	0.9999964833259583
2021-03-11	15654:15667	manfred_wilde	0.9999967813491821
2021-03-23	19482:19495	manfred_wilde	0.9999963641166687
2021-04-06	12044:12057	manfred_wilde	0.9999961256980896
2021-04-14	2768:2781	manfred_wilde	0.9999958872795105
2021-04-14	17372:17385	manfred_wilde	0.9999955892562866
2021-04-15	18391:18404	manfred_wilde	0.9999961853027344
2021-04-16	21069:21082	manfred_wilde	0.9999967217445374
2021-11-25	18364:18377	manfred_wilde	0.999996542930603
