2021-01-12	886:898	markus_söder	0.9999945759773254
2021-01-12	3526:3538	markus_söder	0.9999945163726807
2021-01-12	10824:10836	markus_söder	0.9999954104423523
2021-01-13	8259:8271	markus_söder	0.9999954700469971
2021-03-01	10511:10523	markus_söder	0.9999960064888
2021-03-01	11331:11343	markus_söder	0.9999963641166687
2021-03-01	18171:18183	markus_söder	0.9999962449073792
2021-04-07	8044:8056	markus_söder	0.9999961853027344
2021-04-26	17585:17597	markus_söder	0.9999960660934448
2021-05-04	7004:7016	markus_söder	0.9999956488609314
2021-05-10	12992:13004	markus_söder	0.9999943971633911
2021-11-23	22473:22485	markus_söder	0.9999951720237732
2021-12-14	16584:16596	markus_söder	0.999996542930603
