2021-01-13	4032:4049	markus_kauczinski	0.9999959468841553
2021-01-14	8633:8650	markus_kauczinski	0.9999963045120239
2021-01-18	7350:7367	markus_kauczinski	0.9999945163726807
2021-01-19	12159:12176	markus_kauczinski	0.9999940991401672
2021-01-25	2673:2690	markus_kauczinski	0.9999952912330627
2021-01-26	4227:4244	markus_kauczinski	0.9999964833259583
2021-01-27	4657:4674	markus_kauczinski	0.9999960064888
2021-04-23	16775:16792	markus_kauczinski	0.9999940991401672
