2021-01-29	3828:3841	martina_weber	0.9999943375587463
2021-02-17	2961:2974	martina_weber	0.9999945759773254
2021-11-10	8656:8669	martina_weber	0.9999949932098389
2021-11-25	2790:2803	martina_weber	0.9999914169311523
