2021-02-18	23520:23533	michael_borte	0.9999962449073792
2021-02-24	12640:12653	michael_borte	0.9999957084655762
2021-03-15	3629:3642	michael_borte	0.9999932646751404
2021-03-15	3702:3715	michael_borte	0.9999943971633911
2021-03-17	4076:4089	michael_borte	0.9999958872795105
