2021-02-24	6503:6516	michael_harig	0.9999954104423523
2021-02-24	14002:14015	michael_harig	0.9999951720237732
2021-03-25	6777:6790	michael_harig	0.9999945163726807
2021-03-25	17884:17897	michael_harig	0.999995231628418
2021-03-26	9735:9748	michael_harig	0.9999960064888
2021-06-03	13209:13222	michael_harig	0.9999954700469971
2021-12-03	13816:13829	michael_harig	0.9999956488609314
2022-02-01	5456:5469	michael_harig	0.9999966025352478
2022-02-11	15303:15316	michael_harig	0.9999964833259583
