2021-03-02	11178:11186	neubauer	0.9730386734008789
2021-03-02	11305:11313	neubauer	0.9497866630554199
2021-03-16	6444:6452	neubauer	0.9988332390785217
2021-04-13	13101:13109	neubauer	0.99998939037323
2021-04-19	7429:7437	neubauer	0.9998613595962524
2021-11-10	15103:15111	neubauer	0.9999120235443115
2021-11-10	15497:15505	neubauer	0.9999817609786987
