2021-01-29	11891:11903	oliver_zille	0.9999962449073792
2021-03-10	11668:11680	oliver_zille	0.9999964833259583
2022-01-18	1497:1509	oliver_zille	0.9999964237213135
2022-01-19	13922:13934	oliver_zille	0.9999963641166687
2022-01-25	16838:16850	oliver_zille	0.9999958872795105
