2021-02-22	4360:4375	richard_strauss	0.999996542930603
2021-04-30	17057:17072	richard_strauss	0.9999963045120239
2021-05-10	1006:1021	richard_strauss	0.9999963641166687
2021-05-10	1221:1236	richard_strauss	0.999996542930603
2021-05-10	1510:1525	richard_strauss	0.9999964237213135
2021-05-22	5199:5214	richard_strauss	0.9999958872795105
