2021-01-18	6615:6628	roland_wöller	0.9999962449073792
2021-02-16	23997:24010	roland_wöller	0.9999960660934448
2021-02-18	24209:24222	roland_wöller	0.9999963641166687
2021-02-28	2502:2515	roland_wöller	0.9999964237213135
2021-03-09	10470:10483	roland_wöller	0.999995768070221
2021-03-14	4250:4263	roland_wöller	0.9999959468841553
2021-03-16	4351:4364	roland_wöller	0.9999969601631165
2021-03-18	9572:9585	roland_wöller	0.9999963045120239
2021-03-18	21608:21621	roland_wöller	0.9999964833259583
2021-03-27	4701:4714	roland_wöller	0.9999964833259583
2021-06-10	16877:16890	roland_wöller	0.9999963641166687
2021-07-14	9477:9490	roland_wöller	0.9999960660934448
2021-11-09	3563:3576	roland_wöller	0.9999963641166687
2021-11-23	5434:5447	roland_wöller	0.999996542930603
2021-11-23	8247:8260	roland_wöller	0.9999962449073792
2021-11-23	9096:9109	roland_wöller	0.9999960660934448
2021-12-06	11494:11507	roland_wöller	0.9999961256980896
2021-12-07	8596:8609	roland_wöller	0.9999966025352478
2021-12-10	1890:1903	roland_wöller	0.9999967813491821
2021-12-13	274:287	roland_wöller	0.999996542930603
2021-12-21	1652:1665	roland_wöller	0.9999958276748657
2021-12-23	12534:12547	roland_wöller	0.9999961256980896
2021-12-28	2219:2232	roland_wöller	0.9999966621398926
2021-12-28	6707:6720	roland_wöller	0.9999963045120239
2021-12-29	5354:5367	roland_wöller	0.9999961853027344
2022-01-06	2739:2752	roland_wöller	0.9999966025352478
2022-01-20	2590:2603	roland_wöller	0.9999966025352478
2022-01-20	9172:9185	roland_wöller	0.9999970197677612
2022-01-27	10654:10667	roland_wöller	0.9999963045120239
2022-01-31	269:282	roland_wöller	0.9999967813491821
2022-02-01	723:736	roland_wöller	0.9999958872795105
2022-02-01	5099:5112	roland_wöller	0.9999967813491821
2022-02-02	2763:2776	roland_wöller	0.9999964833259583
2022-02-11	9113:9126	roland_wöller	0.9999962449073792
