2021-02-10	4712:4724	roland_ermer	0.9999959468841553
2021-02-15	11943:11955	roland_ermer	0.9999954700469971
2021-02-18	22727:22739	roland_ermer	0.9999960064888
2021-03-04	7958:7970	roland_ermer	0.9999964237213135
2021-03-24	6672:6684	roland_ermer	0.9999960064888
