2021-01-18	14869:14875	scholz	0.9999803304672241
2021-01-23	3644:3650	scholz	0.9999935626983643
2021-02-28	9767:9773	scholz	0.999964714050293
2021-05-03	18350:18356	scholz	0.9999151229858398
2021-11-24	3024:3030	scholz	0.9999834299087524
2021-11-24	3402:3408	scholz	0.9999847412109375
2021-12-21	2352:2358	scholz	0.9999884366989136
2022-02-15	192:198	scholz	0.9999567270278931
