2021-02-12	15571:15578	schulze	0.9999849796295166
2021-03-02	4250:4257	schulze	0.9999847412109375
2021-03-10	22417:22424	schulze	0.9999923706054688
2021-04-10	18457:18464	schulze	0.9999909400939941
2021-04-21	11027:11034	schulze	0.99998939037323
2021-11-12	8459:8466	schulze	0.9999891519546509
2021-12-14	3281:3288	schulze	0.999956488609314
2021-12-14	3557:3564	schulze	0.9999104738235474
