2021-03-07	5602:5611	schwanitz	0.9998593330383301
2021-03-07	5879:5888	schwanitz	0.9999340772628784
2021-03-07	6053:6062	schwanitz	0.9999122619628906
2021-03-07	6118:6127	schwanitz	0.9995276927947998
2021-03-07	6481:6490	schwanitz	0.9999854564666748
2021-05-25	4127:4136	schwanitz	0.9999748468399048
