2021-01-30	7972:7980	seehofer	0.9999247789382935
2021-02-13	9774:9782	seehofer	0.9998750686645508
2021-02-13	10011:10019	seehofer	0.9998970031738281
2021-02-18	4876:4884	seehofer	0.9996132254600525
2021-02-18	5118:5126	seehofer	0.9998757839202881
2021-02-18	5635:5643	seehofer	0.9996362924575806
2021-02-21	2433:2441	seehofer	0.999887228012085
2021-02-21	2630:2638	seehofer	0.9999676942825317
2021-03-17	2410:2418	seehofer	0.9999740123748779
2021-03-30	8765:8773	seehofer	0.9999358654022217
2021-03-30	10459:10467	seehofer	0.9998836517333984
