2021-01-25	4663:4679	silvio_lindemann	0.9999953508377075
2021-01-27	2609:2625	silvio_lindemann	0.9999922513961792
2021-03-04	11860:11876	silvio_lindemann	0.9999909996986389
2021-06-02	11078:11094	silvio_lindemann	0.9999956488609314
2021-11-08	9314:9330	silvio_lindemann	0.9999959468841553
2021-11-23	15960:15976	silvio_lindemann	0.9999914169311523
2022-01-20	12376:12392	silvio_lindemann	0.9999956488609314
