2021-01-13	23484:23497	thomas_zenker	0.9999962449073792
2021-12-03	2441:2454	thomas_zenker	0.9999961256980896
2021-12-13	4168:4181	thomas_zenker	0.9999953508377075
2021-12-15	12289:12302	thomas_zenker	0.9999939799308777
