2021-01-21	3528:3544	thomas_grünewald	0.9999938011169434
2021-01-21	17994:18010	thomas_grünewald	0.999995768070221
2021-01-25	9888:9904	thomas_grünewald	0.9999960660934448
2021-01-25	17782:17798	thomas_grünewald	0.9999943971633911
2021-02-25	12684:12700	thomas_grünewald	0.9999954104423523
2021-03-05	17150:17166	thomas_grünewald	0.999996542930603
2021-03-12	22610:22626	thomas_grünewald	0.9999958276748657
2021-03-16	13090:13106	thomas_grünewald	0.9999960064888
2021-04-16	7932:7948	thomas_grünewald	0.9999958872795105
2021-04-17	3966:3982	thomas_grünewald	0.9999962449073792
2021-04-29	12176:12192	thomas_grünewald	0.9999966621398926
2021-06-03	9074:9090	thomas_grünewald	0.9999970197677612
2021-07-16	4637:4653	thomas_grünewald	0.9999963045120239
2021-11-26	6221:6237	thomas_grünewald	0.9999964833259583
2021-12-22	1738:1754	thomas_grünewald	0.9999959468841553
2022-01-07	4296:4312	thomas_grünewald	0.999996542930603
2022-01-13	7030:7046	thomas_grünewald	0.9999956488609314
2022-01-19	1097:1113	thomas_grünewald	0.9999958276748657
2022-01-19	1614:1630	thomas_grünewald	0.9999959468841553
2022-01-19	2749:2765	thomas_grünewald	0.9999961853027344
2022-01-19	3907:3923	thomas_grünewald	0.9999963641166687
2022-01-20	16091:16107	thomas_grünewald	0.9999962449073792
2022-02-02	1458:1474	thomas_grünewald	0.9999942779541016
2022-02-04	11318:11334	thomas_grünewald	0.9999955892562866
