2021-02-16	21615:21629	thomas_mertens	0.9999963045120239
2021-02-21	8572:8586	thomas_mertens	0.9999956488609314
2021-02-23	16432:16446	thomas_mertens	0.9999960660934448
2021-03-09	17004:17018	thomas_mertens	0.9999958276748657
2021-03-10	15322:15336	thomas_mertens	0.9999963045120239
2021-04-08	11734:11748	thomas_mertens	0.9999961256980896
2021-04-15	4428:4442	thomas_mertens	0.9999966621398926
2021-05-16	6951:6965	thomas_mertens	0.9999958276748657
2021-06-04	7130:7144	thomas_mertens	0.9999949336051941
2021-06-25	2187:2201	thomas_mertens	0.9999963045120239
2021-06-27	7291:7305	thomas_mertens	0.9999958276748657
2021-07-02	7112:7126	thomas_mertens	0.9999951124191284
2021-07-06	5383:5397	thomas_mertens	0.9999959468841553
2021-11-17	9887:9901	thomas_mertens	0.9999961853027344
2021-12-23	463:477	thomas_mertens	0.9999967813491821
2022-02-03	10223:10237	thomas_mertens	0.9999964833259583
