2021-03-23	11945:11956	tobias_bilz	0.9999961853027344
2021-03-26	24115:24126	tobias_bilz	0.9999953508377075
2021-04-01	8604:8615	tobias_bilz	0.9999951124191284
2021-04-04	3055:3066	tobias_bilz	0.9999934434890747
2021-04-16	11383:11394	tobias_bilz	0.9999942183494568
2021-04-18	3005:3016	tobias_bilz	0.9999966025352478
2021-05-02	10548:10559	tobias_bilz	0.999994158744812
2021-05-12	9639:9650	tobias_bilz	0.9999959468841553
2021-05-24	6986:6997	tobias_bilz	0.9999963045120239
2021-06-28	1304:1315	tobias_bilz	0.9999960064888
2021-07-21	2686:2697	tobias_bilz	0.9999964237213135
2021-11-15	5962:5973	tobias_bilz	0.9999964833259583
2021-11-26	7217:7228	tobias_bilz	0.9999956488609314
2021-12-20	3627:3638	tobias_bilz	0.9999963641166687
2021-12-23	1094:1105	tobias_bilz	0.9999969005584717
2021-12-23	16243:16254	tobias_bilz	0.9999968409538269
2021-12-30	8519:8530	tobias_bilz	0.9999951720237732
