2021-01-09	2979:2994	ulrich_weigeldt	0.9999942183494568
2021-01-21	16430:16445	ulrich_weigeldt	0.9999957084655762
2021-03-04	18314:18329	ulrich_weigeldt	0.9999958872795105
2021-03-05	19334:19349	ulrich_weigeldt	0.9999949932098389
2021-03-07	4075:4090	ulrich_weigeldt	0.999995768070221
2021-03-12	22917:22932	ulrich_weigeldt	0.9999957084655762
2021-05-03	15897:15912	ulrich_weigeldt	0.9999960660934448
2021-05-17	2900:2915	ulrich_weigeldt	0.9999956488609314
2021-06-24	11982:11997	ulrich_weigeldt	0.999994695186615
