2021-02-24	12588:12599	uwe_liebert	0.9999868273735046
2021-02-25	536:547	uwe_liebert	0.9999903440475464
2021-03-24	19306:19317	uwe_liebert	0.9999908208847046
2021-06-16	15174:15185	uwe_liebert	0.9995592534542084
