2021-03-03	2828:2842	veronika_hiebl	0.9999959468841553
2021-03-03	12229:12243	veronika_hiebl	0.9999958276748657
2021-06-07	16570:16584	veronika_hiebl	0.999995768070221
2022-02-11	11968:11982	veronika_hiebl	0.9999957084655762
