2021-03-14	4054:4060	wöller	0.999836802482605
2021-03-27	4624:4630	wöller	0.9999667406082153
2021-03-27	4996:5002	wöller	0.9999346733093262
2021-05-21	6429:6435	wöller	0.9998786449432373
2021-06-10	17094:17100	wöller	0.9998823404312134
2021-06-10	17394:17400	wöller	0.9999620914459229
2021-11-09	3512:3518	wöller	0.9999434947967529
2021-11-23	5740:5746	wöller	0.9994497895240784
2021-11-23	6010:6016	wöller	0.9999663829803467
2021-11-23	6206:6212	wöller	0.9994970560073853
2021-11-23	8347:8353	wöller	0.9997594952583313
2021-12-06	11316:11322	wöller	0.9997468590736389
2021-12-10	2151:2157	wöller	0.9999262094497681
2021-12-21	1072:1078	wöller	0.9999589920043945
2021-12-23	12457:12463	wöller	0.9999749660491943
2021-12-23	13009:13015	wöller	0.9999732971191406
2021-12-28	2135:2141	wöller	0.9999148845672607
2021-12-28	2556:2562	wöller	0.9999020099639893
2022-01-06	2668:2674	wöller	0.9996594190597534
2022-01-20	9107:9113	wöller	0.9999792575836182
