11:17	merkel	0.9999806880950928
286:292	merkel	0.9999713897705078
1629:1643	matthias_pohle	0.9999940395355225
1886:1904	michael_kretschmer	0.9999957084655762
2000:2017	wolfgang_triebert	0.9999873042106628
2884:2898	kerstin_eckart	0.9999961256980896
4231:4246	barbara_brähler	0.9999952912330627
5790:5804	michael_becker	0.9999952912330627
6262:6275	burkhard_jung	0.9999958276748657
6429:6435	wöller	0.9998786449432373
13333:13341	wolfgang	0.9999914169311523
13566:13584	michael_kretschmer	0.9999961853027344
14549:14565	maria_saegebarth	0.9999951720237732
14814:14827	stefanie_jürß	0.9999945759773254
18239:18252	matthes_nagel	0.9999963641166687
20513:20533	heinrich_timmerevers	0.9999947547912598
