541:561	robert_koch-institut	0.9994313716888428
1066:1088	paul-ehrlich-instituts	0.9998273253440857
1963:2016	verbandes_der_leitenden_krankenhausärzte_deutschlands	0.9996567964553833
2018:2021	vlk	0.999984860420227
2717:2729	dresdner_zoo	0.971435159444809
2767:2779	dresdner_zoo	0.9655850231647491
3258:3266	klinikum	0.9819329380989075
3290:3307	klinikum_chemnitz	0.9816401898860931
4647:4650	ihk	0.9999828338623047
4697:4736	sächsische_industrie_-_und_handelskammer	0.9996349930763244
4738:4741	ihk	0.9999874830245972
5280:5287	ihk.ein	0.9999511241912842
6051:6066	biontech_pfizer	0.9999614357948303
6226:6229	drk	0.9997907280921936
8680:8685	karlo	0.9998106360435486
9665:9688	handwerkskammer_dresden	0.9999696612358093
11227:11229	eu	0.994102418422699
11445:11448	swr	0.999987006187439
13031:13052	netzwerks_deutschland	0.9781880080699921
13176:13199	corona_rebellen_sachsen	0.9984465837478638
13217:13225	telegram	0.9848020672798157
14608:14619	lka_sachsen	0.9999604821205139
14783:14786	mdr	0.999961256980896
14866:14872	ig_bau	0.9999615550041199
14928:14949	ig_bauen-agrar-umwelt	0.999841719865799
14951:14957	ig_bau	0.9993455410003662
15492:15498	ig_bau	0.9998174607753754
15519:15522	dgb	0.9999915361404419
15570:15596	deutsche_gewerkschaftsbund	0.9999713897705078
15706:15731	neuen_osnabrücker_zeitung	0.9999431371688843
16456:16486	redaktionsnetzwerk_deutschland	0.8832013607025146
17856:17871	biontech_pfizer	0.999926745891571
18257:18274	klinikum_chemnitz	0.9912373423576355
18856:18860	bund	0.8570268750190735
19459:19473	dak_gesundheit	0.9996388852596283
19587:19608	robert_koch-instituts	0.9997576773166656
20290:20322	landesamt_für_schule_und_bildung	0.9999433994293213
21859:21877	johanniter_dresden	0.9382569193840027
23467:23470	lka	0.9999855756759644
23521:23528	sachsen	0.3970392048358917
23606:23609	lka	0.9999866485595703
