82:89	sachsen	0.9999591112136841
292:300	sachsens	0.6758085489273071
1534:1541	sachsen	0.9996434450149536
1769:1781	deutschlands	0.9996699094772339
2252:2259	england	0.9999895095825195
2640:2649	südafrika	0.9999915361404419
3267:3275	chemnitz	0.646525502204895
3960:3969	magdeburg	0.9999921321868896
3974:3981	dresden	0.9999923706054688
4099:4110	saigerhütte	0.9999198913574219
4152:4163	saigerhütte	0.9997753500938416
4283:4292	olbernhau	0.9999551773071289
4576:4587	saigerhütte	0.9996800422668457
5675:5682	sachsen	0.9997887015342712
5960:5965	löbau	0.9999598264694214
6093:6100	sachsen	0.999886155128479
6188:6193	löbau	0.9999685287475586
6243:6248	löbau	0.9998037219047546
7809:7820	nordsachsen	0.999967098236084
8007:8014	leipzig	0.9999927282333374
8025:8032	leipzig	0.9999940395355225
8714:8727	mittelsachsen	0.9998106360435486
8921:8953	sächsische_schweiz-osterzgebirge	0.9990406632423401
9023:9055	sächsische_schweiz-osterzgebirge	0.9996136426925659
10225:10235	ostsachsen	0.999987006187439
10362:10368	plauen	0.9988736510276794
11493:11504	deutschland	0.9999903440475464
11633:11643	tschechien	0.9999412298202515
11649:11656	sachsen	0.9998339414596558
11661:11667	bayern	0.9967104196548462
11743:11753	tschechien	0.9999390840530396
11758:11763	polen	0.9997667670249939
11900:11909	südafrika	0.9999922513961792
11913:11920	sachsen	0.9997853636741638
11985:11992	leipzig	0.9999879598617554
12010:12019	südafrika	0.9999934434890747
12056:12065	südafrika	0.9999822378158569
12097:12104	leipzig	0.9999902248382568
13385:13392	sachsen	0.9999483823776245
14492:14499	sachsen	0.9410967230796814
14662:14669	zwönitz	0.9998922348022461
15005:15012	dresden	0.9999945163726807
15499:15506	dresden	0.9999520778656006
16913:16917	prag	0.9997778534889221
17051:17055	prag	0.9996545314788818
18962:18969	sachsen	0.9293730854988098
19251:19258	sachsen	0.9983111619949341
19489:19496	sachsen	0.9997486472129822
20033:20040	sachsen	0.9999603033065796
20079:20090	oberlausitz	0.9998922348022461
20157:20168	oberlausitz	0.9999055862426758
20482:20489	bautzen	0.9999759197235107
20605:20612	görlitz	0.999988317489624
20687:20694	dresden	0.9999935626983643
20726:20733	dresden	0.9999933242797852
21580:21587	dresden	0.9999940395355225
21761:21769	heidenau	0.9999945163726807
21902:21910	heidenau	0.9999949932098389
21915:21922	dresden	0.9999953508377075
22015:22023	heidenau	0.9999935626983643
22186:22202	dresden_hellerau	0.9979906678199768
22269:22276	dresden	0.9999915361404419
23564:23571	zwönitz	0.9999401569366455
24334:24352	japanischen_palais	0.9969986379146576
25146:25155	südafrika	0.9999911785125732
25238:25247	südafrika	0.9999905824661255
