234:244	kretschmer	0.9999736547470093
319:337	michael_kretschmer	0.9999964237213135
647:664	andreas_michalsen	0.9999968409538269
829:838	michalsen	0.9999885559082031
2024:2037	michael_weber	0.999995768070221
2555:2571	torben_schiffner	0.9999952912330627
3528:3544	thomas_grünewald	0.9999938011169434
4294:4306	udo_brückner	0.9997135102748871
5251:5264	andreas_sperl	0.9999957084655762
6250:6264	silke_seeliger	0.9999918341636658
6722:6734	britta_ernst	0.9999925494194031
10020:10033	jörg_dittrich	0.9999938607215881
10346:10358	petra_scholz	0.9999939799308777
11328:11333	spahn	0.9999783039093018
12551:12569	michael_kretschmer	0.9999959468841553
12837:12850	rico_gebhardt	0.9999967813491821
14727:14737	kretschmer	0.999984860420227
14758:14764	merkel	0.9999449253082275
15453:15466	jörg_borowski	0.9999912977218628
15680:15695	reiner_hoffmann	0.9999966025352478
16430:16445	ulrich_weigeldt	0.9999957084655762
16552:16560	weigeldt	0.9976634979248047
16656:16669	angela_merkel	0.9999933242797852
17994:18010	thomas_grünewald	0.999995768070221
18499:18508	grünewald	0.9999731779098511
19977:19994	christine_enenkel	0.9999939799308777
21928:21940	roy-udo_heim	0.9999396204948425
22357:22370	carsten_herde	0.9999951720237732
22809:22823	felix_wisotzki	0.999995768070221
23084:23092	wisotzki	0.9999520778656006
23670:23680	kretschmer	0.9999698400497437
23886:23892	merkel	0.9999070167541504
25079:25100	beatrice_kade-günther	0.9999953508377075
25322:25328	torben	0.9999942779541016
25717:25726	schiffner	0.9998784065246582
