209:216	sachsen	0.9994148015975952
689:696	sachsen	0.9797788858413696
1473:1484	frankenberg	0.999993085861206
1802:1813	frankenberg	0.9999938011169434
1877:1884	sachsen	0.9999390840530396
2073:2081	chemnitz	0.9999953508377075
2694:2701	sachsen	0.9995929598808289
3438:3445	sachsen	0.9999746084213257
3536:3543	dresden	0.9999954700469971
3570:3578	chemnitz	0.9999943971633911
3693:3700	sachsen	0.9999649524688721
3863:3870	sachsen	0.9999659061431885
4102:4109	sachsen	0.9999456405639648
4122:4129	sachsen	0.9999749660491943
4284:4291	sachsen	0.9999507665634155
4879:4886	dresden	0.9999624490737915
5226:5238	margon-arena	0.9999387264251709
5493:5501	chemnitz	0.9999934434890747
5725:5733	küchwald	0.999974250793457
6116:6123	sachsen	0.9999700784683228
6167:6174	sachsen	0.9999692440032959
6247:6254	dresden	0.999995231628418
6484:6491	sachsen	0.9999926090240479
6515:6528	kleeblatt_ost	0.999451071023941
6543:6549	berlin	0.9999927282333374
6551:6562	brandenburg	0.9999912977218628
6564:6578	sachsen-anhalt	0.9999884366989136
6583:6592	thüringen	0.9999897480010986
6807:6814	sachsen	0.99997878074646
6865:6880	norddeutschland	0.9999903440475464
6885:6904	nordrhein-westfalen	0.9999822378158569
7329:7336	sachsen	0.9999845027923584
9026:9033	dresden	0.9999803304672241
9068:9075	sachsen	0.9725899696350098
9324:9331	leipzig	0.9921276569366455
10024:10031	dresden	0.9989929795265198
10813:10820	sachsen	0.9999779462814331
10872:10879	sachsen	0.9999353885650635
11531:11538	sachsen	0.9995110034942627
12939:12946	dresden	0.9999949932098389
13052:13068	dreikönigskirche	0.9999799728393555
13145:13152	dresden	0.9999916553497314
13572:13588	dreikönigskirche	0.9999713897705078
13659:13667	chemnitz	0.9999927282333374
13672:13678	taucha	0.9999740123748779
13682:13690	chemnitz	0.9999943971633911
13698:13704	taucha	0.9999836683273315
13708:13719	nordsachsen	0.99998939037323
13966:13974	chemnitz	0.9999936819076538
14094:14102	chemnitz	0.9999929666519165
14349:14356	sachsen	0.9521902799606323
14733:14741	pulsnitz	0.9999557733535767
15830:15837	oschatz	0.999572217464447
15839:15845	mügeln	0.9998289346694946
15850:15857	glossen	0.9999699592590332
16321:16329	jöhstadt	0.9999332427978516
16334:16343	steinbach	0.999903678894043
16520:16527	sachsen	0.9999097585678101
16652:16659	leipzig	0.9999895095825195
16675:16682	leipzig	0.9999877214431763
17243:17250	dresden	0.9999936819076538
17275:17284	liebstadt	0.9997265934944153
17362:17369	dresden	0.9999899864196777
