1125:1135	rosenstolz	0.9908011555671692
1386:1401	tag_der_sachsen	0.7160586714744568
4183:4189	corona	0.9988172650337219
5090:5096	corona	0.9993938207626343
5794:5800	corona	0.9992043375968933
11325:11329	euro	0.9999338388442993
15707:15713	corona	0.8955655097961426
16729:16735	corona	0.9995043277740479
