660:670	rosenstolz	0.9982132911682129
930:940	rosenstolz	0.9999845027923584
989:992	mdr	0.9999884366989136
1184:1197	ard-mediathek	0.9343302845954895
1436:1451	tag_der_sachsen	0.8994519114494324
1554:1561	sachsen	0.8168708086013794
1774:1777	spd	0.9999732971191406
2086:2108	chemnitzer_verkehrs_ag	0.9999808867772421
2606:2609	drk	0.999990701675415
2671:2690	deutsche_rote_kreuz	0.9999793767929077
2826:2837	mdr_sachsen	0.8326264321804047
3145:3148	drk	0.9999915361404419
3905:3925	robert-koch-institut	0.9999496936798096
4344:4351	sachsen	0.8464647531509399
4856:4874	team_sport_sachsen	0.9999882380167643
5048:5064	dresden_monarchs	0.9999735355377197
5204:5218	dresden_titans	0.9999839067459106
5268:5285	dresdner_eislöwen	0.9999836087226868
5291:5313	dresdner_sc_volleyball	0.9999862909317017
5322:5335	hc_elbflorenz	0.999984622001648
5426:5444	team_sport_sachsen	0.9999887545903524
5517:5539	hausärzte_für_chemnitz	0.9999725421269735
6925:6929	siko	0.9999648332595825
7447:7451	siko	0.9999854564666748
7741:7749	biontech	0.9999481439590454
7834:7837	asb	0.999990701675415
7842:7852	johanniter	0.9999810457229614
7979:8002	johanniter_unfall_hilfe	0.9999850591023763
8007:8027	malteser_hilfsdienst	0.9999871253967285
8393:8416	deutschen_roten_kreuzes	0.9995908538500468
8583:8590	sachsen	0.6264829039573669
8786:8794	telegram	0.6273974180221558
8906:8931	dresden_offlinevernetzung	0.9991744160652161
9042:9067	zentralstelle_extremismus	0.908889889717102
9259:9270	uni_leipzig	0.6321722716093063
9983:10023	nationalen_centrum_für_tumorerkrankungen	0.8579670712351799
10987:10990	cdu	0.9999897480010986
11937:11940	drk	0.9999901056289673
12021:12042	deutschen_roten_kreuz	0.9999866485595703
12044:12047	drk	0.99998939037323
12155:12158	drk	0.9999896287918091
12385:12388	drk	0.9999902248382568
12655:12674	johnson_und_johnson	0.9999704758326212
12907:12914	zeitung	0.790257453918457
13088:13107	dresdner_morgenpost	0.9999390244483948
14086:14089	mdr	0.9999698400497437
14897:14900	ddr	0.9886504411697388
15216:15231	telegram-dienst	0.6686428785324097
15335:15343	telegram	0.8305637240409851
15414:15417	cdu	0.9999896287918091
15658:15671	wilder_robert	0.9996733665466309
15676:15692	pressnitztalbahn	0.9986580610275269
15747:15760	wilder_robert	0.9991921186447144
15762:15774	döllnitzbahn	0.9998456239700317
16234:16267	mitteldeutschen_verkehrsverbundes	0.9999411702156067
17022:17030	biontech	0.9997932314872742
17714:17738	s-bahn_mitteldeutschland	0.9998804032802582
17790:17805	db_regio_südost	0.991689920425415
17871:17895	s-bahn_mitteldeutschland	0.9999432563781738
18198:18208	spreadshop	0.9999573230743408
18283:18307	s-bahn_mitteldeutschland	0.9999762177467346
19000:19015	biontech_pfizer	0.9998623728752136
19020:19027	moderna	0.9998836517333984
