89:96	sachsen	0.9997381567955017
354:360	bayern	0.999983549118042
365:382	baden-württemberg	0.9999905824661255
1931:1938	sachsen	0.9935815334320068
1958:1965	sachsen	0.999101996421814
2312:2325	vogtlandkreis	0.9999310970306396
2380:2388	chemnitz	0.9999929666519165
2558:2568	tschechien	0.999988317489624
2573:2578	tirol	0.9999412298202515
2678:2689	deutschland	0.9999629259109497
3348:3359	deutschland	0.9810187816619873
5368:5375	freital	0.9999817609786987
6236:6246	tschechien	0.9999890327453613
6251:6256	tirol	0.9999523162841797
6662:6672	tschechien	0.9999862909317017
6677:6682	tirol	0.999940037727356
6834:6842	slowakei	0.9999523162841797
6850:6858	slowakei	0.9999634027481079
7116:7131	seifhennersdorf	0.9999828338623047
10498:10505	grimmas	0.9999899864196777
10510:10518	nerchaus	0.9999808073043823
10570:10576	grimma	0.9999897480010986
10581:10588	nerchau	0.9999843835830688
