1047:1054	sachsen	0.9998888969421387
1059:1069	tschechien	0.9998641014099121
2689:2696	sachsen	0.9995254278182983
2954:2961	sachsen	0.9998830556869507
3532:3543	deutschland	0.9991900324821472
3645:3652	sachsen	0.9999785423278809
3944:3951	sachsen	0.9999440908432007
4318:4329	nordsachsen	0.9999932050704956
4394:4405	nordsachsen	0.9999936819076538
4473:4479	torgau	0.9999759197235107
4620:4631	nordsachsen	0.9999910593032837
5101:5118	annaberg-buchholz	0.9999834299087524
5966:5986	kulturpalast_dresden	0.8633180856704712
6421:6428	sachsen	0.9999071359634399
6662:6669	leipzig	0.9997149109840393
7001:7008	sachsen	0.9995494484901428
7068:7075	sachsen	0.9998074173927307
7817:7824	sachsen	0.9982047080993652
7946:7953	sachsen	0.9988963603973389
8721:8728	bautzen	0.9820073246955872
8749:8756	dresden	0.999992847442627
9188:9195	dresden	0.9999951124191284
9796:9811	seifhennersdorf	0.9999881982803345
9930:9945	seifhennersdorf	0.9916097521781921
10514:10519	flöha	0.9991402626037598
10523:10528	flöha	0.9996763467788696
10927:10934	sachsen	0.999961256980896
11012:11020	leipzigs	0.9999598264694214
11060:11067	leipzig	0.99998939037323
11772:11779	bautzen	0.9999788999557495
11814:11821	bautzen	0.9999852180480957
12241:12248	leipzig	0.9999936819076538
12299:12306	leipzig	0.999994158744812
12369:12376	sachsen	0.9999686479568481
12913:12920	leipzig	0.9999903440475464
13063:13070	sachsen	0.999984622001648
13255:13262	görlitz	0.9999891519546509
13264:13277	mittelsachsen	0.9999829530715942
13279:13311	sächsische_schweiz-osterzgebirge	0.9998936057090759
13316:13323	bautzen	0.9999592304229736
13376:13389	vogtlandkreis	0.9999566078186035
13465:13472	breslau	0.9999960660934448
13494:13499	polen	0.9999853372573853
13572:13577	polen	0.9999748468399048
13622:13629	breslau	0.9999935626983643
13754:13773	sächsischer_schweiz	0.7570899426937103
13787:13819	sächsische_schweiz-osterzgebirge	0.9999588131904602
14282:14289	zwönitz	0.9999692440032959
14293:14300	zwönitz	0.9999836683273315
15841:15848	sachsen	0.9999833106994629
15913:15920	sachsen	0.9999806880950928
