2084:2095	uschi_kruse	0.9999945163726807
2352:2357	kruse	0.999909520149231
5984:5996	thomas_frese	0.9999967217445374
6005:6026	maximilian_heitzinger	0.9999955892562866
7425:7436	sven_georgi	0.9999964237213135
7520:7526	georgi	0.9999865293502808
7610:7622	jenz_heinzig	0.9999958276748657
7649:7664	constance_arndt	0.9999945759773254
7724:7730	georgi	0.9999850988388062
8519:8530	tobias_bilz	0.9999951720237732
