10537:10557	regionalliga_nordost	0.7021339237689972
10781:10801	regionalliga_nordost	0.6114911735057831
19249:19253	euro	0.9999756813049316
19669:19673	euro	0.9999707937240601
20546:20550	euro	0.9999279975891113
20586:20590	euro	0.999962329864502
21938:21949	astrazeneca	0.9999117851257324
22432:22453	astrazeneca-impfstoff	0.9986225366592407
22890:22902	corona-virus	0.9999679327011108
