text	types	tokens	types/tokens
21:29	23	27	1.1304
21:14	61	75	1.2131
21:07	54	63	1.1481
19:45	39	51	1.2821
19:39	73	90	1.2192
18:49	74	100	1.3378
17:50	63	70	1.0952
17:38	46	51	1.087
17:26	60	79	1.3
16:24	56	65	1.1429
16:17	69	80	1.1449
16:06	55	70	1.2545
15:50	90	115	1.2667
15:18	53	65	1.2075
15:03	68	81	1.1765
14:49	51	67	1.2941
14:27	60	73	1.2
14:04	40	45	1.1
13:45	107	150	1.3925
13:35	59	69	1.1525
13:25	114	154	1.3421
12:59	92	109	1.1739
12:14	101	135	1.3267
12:02	73	87	1.1781
11:23	78	94	1.1923
09:40	112	146	1.2946
09:13	53	65	1.2075
08:37	82	102	1.2317
0 8:20	75	98	1.2933
07:55	37	41	1.0811
07:50	53	63	1.1698
07:32	39	46	1.1538
07:20	90	114	1.2556
07:00	80	102	1.2625
06:56	81	91	1.1111
