105:112	sachsen	0.9999504089355469
358:365	sachsen	0.9999663829803467
514:527	mittelsachsen	0.9999822378158569
878:884	zittau	0.9999525547027588
889:898	bogatynia	0.9999909400939941
909:924	hrádek_n._nisou	0.9999750057856241
930:936	zittau	0.9999711513519287
938:947	bogatynia	0.9999904632568359
952:960	frýdlant	0.9999912977218628
966:981	świeradów-zdrój	0.9999910593032837
1222:1233	deutschland	0.9999736547470093
1235:1245	tschechien	0.9999494552612305
1250:1255	polen	0.9999523162841797
1525:1532	görlitz	0.9999840259552002
1538:1552	liberecký_kraj	0.9998574554920197
1571:1580	bogatynia	0.9999936819076538
1585:1600	świeradów-zdrój	0.9999908208847046
1843:1850	bayerns	0.9995301961898804
2119:2125	bayern	0.9974199533462524
2235:2243	portugal	0.9999954700469971
2262:2268	indien	0.9999949932098389
2315:2323	lissabon	0.9999971389770508
2463:2471	russland	0.9999946355819702
2619:2633	großbritannien	0.9999896287918091
2664:2671	leipzig	0.9999837875366211
2688:2701	augustusplatz	0.9997896552085876
2705:2712	leipzig	0.9999827146530151
2875:2886	deutschland	0.9997273087501526
3038:3045	leipzig	0.9999959468841553
3185:3200	ariowitsch-haus	0.9999140501022339
4004:4015	reichenbach	0.9999884366989136
4085:4096	reichenbach	0.9999890327453613
4100:4108	vogtland	0.999943733215332
4667:4674	sachsen	0.9999274015426636
5181:5187	grimma	0.9999784231185913
5192:5198	wurzen	0.9997419714927673
5716:5729	vogtlandkreis	0.9999434947967529
5762:5769	sachsen	0.9999408721923828
5902:5909	dresden	0.9999935626983643
5943:5956	vogtlandkreis	0.9999850988388062
6003:6010	dresden	0.9999871253967285
6111:6118	grimmas	0.999983549118042
6154:6161	grimmas	0.9999488592147827
6617:6629	an_der_mulde	0.9754476944605509
6637:6654	schwanenteichpark	0.9999818801879883
6737:6747	großbothen	0.998883068561554
7953:7963	semperoper	0.9992031455039978
8213:8220	spanien	0.9999903440475464
