184:191	sachsen	0.9997548460960388
216:223	sachsen	0.9998830556869507
414:427	mittelsachsen	0.9999865293502808
472:485	vogtlandkreis	0.999975323677063
504:510	meißen	0.9999791383743286
576:584	sachsens	0.9992086291313171
980:987	sachsen	0.9996134638786316
1390:1396	zittau	0.9999743700027466
1401:1422	ebersbach-neugersdorf	0.9999871253967285
1910:1917	sachsen	0.9998101592063904
2522:2529	leipzig	0.9999232292175293
3025:3036	deutschland	0.9999738931655884
3038:3048	österreich	0.9991973042488098
3057:3064	schweiz	0.9999668598175049
3189:3196	zwickau	0.9999831914901733
3238:3251	vogtlandkreis	0.9999426603317261
3275:3282	zwickau	0.9999910593032837
3759:3766	sachsen	0.9998435974121094
4507:4520	leipzig_halle	0.9964963495731354
4559:4572	leipzig_halle	0.9997414946556091
4698:4705	leipzig	0.999963641166687
4732:4741	teneriffa	0.9999833106994629
4743:4756	fuerteventura	0.9999735355377197
4758:4770	gran_canaria	0.9999510645866394
4782:4790	hurghada	0.9999561309814453
4794:4801	ägypten	0.9998799562454224
5032:5045	leipzig_halle	0.9999303817749023
5156:5162	nobitz	0.9999862909317017
5249:5261	ostthüringen	0.999981164932251
5287:5303	altenburg_nobitz	0.9983703196048737
5319:5328	thüringen	0.9999899864196777
5330:5337	sachsen	0.999945878982544
5499:5506	leipzig	0.9999954700469971
5508:5516	chemnitz	0.9999923706054688
5518:5525	zwickau	0.9999929666519165
5527:5531	jena	0.9999920129776001
5536:5540	gera	0.999988317489624
5601:5607	nobitz	0.9999923706054688
5707:5718	sachsen.wir	0.9999195337295532
5729:5745	altenburg_nobitz	0.9929733872413635
5985:5991	grimma	0.9972123503684998
6201:6207	grimma	0.9995124340057373
6433:6439	zittau	0.9999731779098511
6458:6464	zittau	0.9999743700027466
6513:6532	lisa-tetzner-straße	0.9999209642410278
7062:7084	tschechischen_republik	0.9998520910739899
7089:7094	polen	0.9999853372573853
7151:7161	tschechien	0.9999916553497314
7202:7208	europa	0.9999892711639404
7282:7289	sachsen	0.9999207258224487
8793:8799	meißen	0.7833314538002014
8977:8984	sachsen	0.9999727010726929
9144:9151	sachsen	0.9998425245285034
9357:9364	sachsen	0.9996702671051025
9524:9549	deutschen_hygiene_museums	0.9981475472450256
9550:9557	dresden	0.9999890327453613
9593:9599	berlin	0.9999853372573853
9756:9766	hirschfeld	0.9999752044677734
9843:9853	hirschfeld	0.9999916553497314
10299:10310	ludwigsdorf	0.9997106194496155
10710:10718	freiberg	0.9999884366989136
10722:10730	freiberg	0.999991774559021
12080:12087	dresden	0.9999821186065674
12531:12538	sachsen	0.9999191761016846
12686:12691	borna	0.9999655485153198
13951:13957	werdau	0.9999758005142212
14797:14804	sachsen	0.9991034865379333
15796:15804	vogtland	0.9998674392700195
15823:15834	reichenbach	0.9999674558639526
15913:15921	vogtland	0.9998635053634644
16080:16099	cunersdorfer_straße	0.999973714351654
16457:16465	vogtland	0.9972333312034607
18151:18158	dresden	0.9999924898147583
18232:18239	dresden	0.9999933242797852
18910:18921	berlin-buch	0.9988786578178406
19002:19009	sachsen	0.9997673630714417
19436:19446	großenhain	0.9999715089797974
19502:19512	großenhain	0.9999788999557495
20082:20092	großenhain	0.9996153116226196
20122:20128	niesky	0.9999823570251465
20154:20160	niesky	0.9999909400939941
20196:20203	sachsen	0.9999738931655884
20949:20956	dresden	0.9999924898147583
21254:21264	kodersdorf	0.9999610185623169
21307:21314	sachsen	0.9984037280082703
21411:21421	kodersdorf	0.9999668598175049
21584:21590	meißen	0.9999847412109375
22726:22733	sachsen	0.9997677206993103
23466:23473	dresden	0.9999923706054688
