10205:10216	sars-co_v-2	0.9728111922740936
10984:10990	corona	0.9844608902931213
13632:13636	euro	0.9999769926071167
13838:13842	euro	0.9999716281890869
13892:13896	euro	0.9999783039093018
14223:14227	euro	0.9999853372573853
14319:14323	euro	0.9999855756759644
