583:603	robert_koch-institut	0.9999651312828064
1739:1775	carl_maria_von_weber_musikhochschule	0.99975665807724
5374:5382	dresdner	0.9608156085014343
5397:5407	semperoper	0.9934324026107788
6095:6098	dpa	0.9999904632568359
6255:6265	tu_dresden	0.999965488910675
6381:6392	uni_leipzig	0.9974183142185211
6564:6588	tu_bergakademie_freiberg	0.9999789794286092
6975:6998	evangelische_hochschule	0.9634702801704407
7767:7784	verfassungsschutz	0.5268330574035645
7930:7933	cdu	0.9999847412109375
8051:8073	handelsverband_sachsen	0.8059694170951843
8466:8496	paritätische_wohlfahrtsverband	0.7673627436161041
9262:9282	robert-koch-institut	0.9999711513519287
10561:10584	deutschen_roten_kreuzes	0.999982476234436
10586:10589	drk	0.9999908208847046
10801:10804	drk	0.9999912977218628
11631:11634	drk	0.9999895095825195
11669:11688	deutsche_rote_kreuz	0.9545907974243164
11997:12000	drk	0.9999911785125732
12845:12849	bund	0.9999592304229736
13151:13157	bundes	0.9982938170433044
13519:13523	öpnv	0.9972832202911377
15108:15129	robert_koch-instituts	0.9998883008956909
15402:15421	deutsche_rote_kreuz	0.9999775489171346
