455:458	cdu	0.9999886751174927
1582:1589	charité	0.9993770718574524
1780:1787	charité	0.9999539852142334
2076:2086	rb_leipzig	0.9999734163284302
2125:2135	rb_leipzig	0.9999814629554749
2186:2199	san_sebastian	0.9998615682125092
2292:2309	bundesärztekammer	0.7931227087974548
4089:4109	robert-koch-institut	0.9999803304672241
4111:4114	rki	0.9999902248382568
4407:4411	bund	0.8858357667922974
4465:4468	rki	0.9999774694442749
5454:5477	statistischen_landesamt	0.9945894181728363
5989:6024	tourismusverband_sächsische_schweiz	0.9999426603317261
6542:6545	ihk	0.9999849796295166
6593:6621	industrie_-_und_handelskammer	0.9947910457849503
6623:6626	ihk	0.9999876022338867
6794:6805	mdr_sachsen	0.9995913207530975
6813:6816	ihk	0.9999802112579346
7172:7175	cdu	0.9999881982803345
