438:453	barbara_klepsch	0.9999964833259583
814:826	thekla_nowak	0.9999919533729553
1023:1030	drosten	0.9998377561569214
1112:1129	christian_drosten	0.9999967813491821
1812:1824	adolf_hitler	0.9999936819076538
1841:1854	josef_mengele	0.9999955892562866
1914:1921	drosten	0.9990704655647278
2503:2518	klaus_reinhardt	0.9999953508377075
4913:4920	torreck	0.9999967813491821
6954:6966	lars_fiehler	0.9999958276748657
7152:7170	michael_kretschmer	0.9999955296516418
