text	types	tokens	types/tokens
21:21	27	30	1.0741
21:02	31	35	1.0968
20:18	52	62	1.1731
19:30	105	136	1.2857
18:58	23	25	1.0435
18:20	68	79	1.1471
17:02	69	89	1.2754
16:27	78	91	1.1538
13:58	77	93	1.1948
12:51	46	59	1.2609
10:51	35	40	1.1143
05:44	49	55	1.102
05:31	52	57	1.0769
05:15	50	60	1.18
05:06	31	33	1.0323
