886:898	markus_söder	0.9999945759773254
1045:1060	barbara_klepsch	0.9999963045120239
1679:1686	klepsch	0.999977707862854
2035:2048	rüdiger_unger	0.9999929070472717
3203:3216	oliver_schenk	0.999996542930603
3451:3457	schenk	0.9999006986618042
3526:3538	markus_söder	0.9999945163726807
4383:4392	uwe_heinl	0.999980628490448
4516:4526	kretschmer	0.9999510049819946
4598:4616	michael_kretschmer	0.9999947547912598
5093:5103	kretschmer	0.9999628067016602
6658:6672	mandy_uhlemann	0.999992311000824
6897:6909	stephan_swat	0.9999971389770508
7223:7236	rüdiger_jurke	0.9999962449073792
7238:7242	swat	0.9980344176292419
7416:7421	jurke	0.99997878074646
7481:7494	olaf_schubert	0.999994158744812
7741:7752	bernd_lange	0.9999962449073792
8270:8283	rüdiger_unger	0.9999942183494568
9157:9169	andreas_görg	0.9999958276748657
9805:9818	marco_wendler	0.999994158744812
10224:10237	petra_köpping	0.9999961256980896
10717:10724	köpping	0.9999526739120483
10824:10836	markus_söder	0.9999954104423523
11278:11291	tobias_wenzel	0.9999959468841553
11540:11546	wenzel	0.9999771118164062
11910:11927	markus_schlimbach	0.9999961256980896
12947:12960	detlef_hamamm	0.9999955892562866
13661:13674	coretta_storz	0.9999942183494568
17003:17021	michael_kretschmer	0.9999937415122986
17041:17057	christian_piwarz	0.9999956488609314
17679:17696	horst_kretzschmar	0.999996542930603
18001:18012	kretzschmar	0.9999473094940186
18368:18381	rüdiger_unger	0.9999896883964539
18937:18950	andrea_jedzig	0.9999940395355225
20682:20687	spahn	0.9999814033508301
