198:209	mdr_sachsen	0.9999571442604065
384:391	novavax	0.9999880790710449
430:437	twitter	0.998489499092102
449:452	ema	0.9999747276306152
534:541	novavax	0.9999895095825195
736:745	leipziger	0.6763436794281006
785:800	leipziger_messe	0.9963985681533813
1294:1312	landeskriminalamts	0.9661750197410583
1314:1317	lka	0.9999901056289673
1387:1390	lka	0.9999892711639404
1881:1884	spd	0.9999891519546509
1932:1935	cdu	0.9999887943267822
2082:2118	kassenärztlichen_vereinigung_sachsen	0.9999732971191406
2224:2247	landratsamt_nordsachsen	0.8608044981956482
2610:2663	fraunhofer-instituts_für_zelltherapie_und_immunologie	0.9999572277069092
2665:2668	izi	0.9999427795410156
3339:3342	zdf	0.9441716074943542
3562:3583	dresdner_frauenkirche	0.9991536438465118
4221:4224	afd	0.9999902248382568
4323:4326	afd	0.9999897480010986
4688:4697	bundestag	0.6482879519462585
4878:4881	wsf	0.8842310309410095
5004:5007	spd	0.9999898672103882
5009:5014	grüne	0.9999810457229614
5019:5022	fdp	0.9999874830245972
5033:5038	union	0.9999823570251465
5040:5043	afd	0.9999868869781494
5048:5053	linke	0.9138533473014832
5372:5395	marburger_bunds_sachsen	0.9999639193216959
6459:6490	internationalen_tourismus_börse	0.999981164932251
6492:6495	itb	0.9999610185623169
6534:6546	messe_berlin	0.9999323487281799
8662:8665	cdu	0.9999874830245972
10929:10932	mdr	0.999985933303833
11140:11176	netzwerk_für_kultur_und_jugendarbeit	0.9999839067459106
11592:11604	pro_chemnitz	0.9999538064002991
11610:11624	freien_sachsen	0.998600959777832
12498:12501	sek	0.9811602234840393
12901:12904	zdf	0.9999725818634033
13330:13343	für_statistik	0.9564414322376251
14024:14044	robert-koch-institut	0.9999816417694092
14046:14049	rki	0.9999904632568359
14182:14185	rki	0.9999527931213379
14552:14587	sorbischen_nationalensemble_bautzen	0.9999651511510214
15880:15912	erzgebirgischen_philharmonie_aue	0.9999746084213257
