959:965	corona	0.9307315349578857
2086:2090	euro	0.9999785423278809
4496:4511	semperopernball	0.9999665021896362
4596:4612	semperopernballs	0.9999872446060181
4947:4962	semperopernball	0.9999862909317017
