2090:2105	dagmar_neukirch	0.999996542930603
2420:2428	neukirch	0.9999864101409912
2905:2923	michael_kretschmer	0.9999963641166687
3276:3284	krawczyk	0.9999856948852539
3370:3386	torsten_krawczyk	0.9999962449073792
3800:3812	tino_günther	0.9998830258846283
4135:4143	günthers	0.999990701675415
4196:4213	christian_drosten	0.9999969601631165
7136:7145	heckemann	0.9999469518661499
7400:7415	klaus_heckemann	0.9999967217445374
7532:7541	heckemann	0.9999692440032959
8163:8186	frank_ulrich_montgomery	0.999989906946818
8323:8333	montgomery	0.9999860525131226
8661:8676	erik_bodendieck	0.9999949932098389
9342:9359	markus_schlimbach	0.9999945163726807
10182:10195	roland_kaiser	0.999995768070221
11907:11917	kretschmer	0.9999755620956421
11991:12009	michael_kretschmer	0.9999964833259583
