289:295	müller	0.9999896287918091
309:319	kretschmer	0.9999884366989136
354:368	michael_müller	0.9999955296516418
416:426	kretschmer	0.9999890327453613
495:501	müller	0.9996466636657715
602:608	müller	0.999984860420227
1426:1440	sabine_richter	0.999994158744812
2268:2278	kretschmer	0.9999514818191528
2450:2468	michael_kretschmer	0.9999953508377075
3601:3613	andrej_babis	0.9999952912330627
7884:7902	christian_meinhold	0.9999963641166687
8226:8234	gebhardt	0.9999732971191406
8246:8257	kretschmers	0.9999786615371704
8324:8337	rico_gebhardt	0.9999968409538269
8361:8379	michael_kretschmer	0.9999955296516418
8690:8698	gebhardt	0.9999895095825195
10629:10647	hans_walter_hütter	0.9999877214431763
12862:12872	kretschmer	0.9999551773071289
12954:12972	michael_kretschmer	0.9999954700469971
14157:14167	kretschmer	0.999855637550354
14236:14254	michael_kretschmer	0.9999961853027344
