505:508	drk	0.9999902248382568
794:798	bund	0.7374889850616455
2455:2466	vogt_reisen	0.9999223351478577
2514:2517	drk	0.9999897480010986
2573:2579	corona	0.6999261379241943
3076:3087	astrazeneca	0.9988033771514893
3226:3237	astrazeneca	0.9999628067016602
4240:4244	adfc	0.9999792575836182
4314:4345	allgemeine_deutsche_fahrradclub	0.9836523532867432
4347:4351	adfc	0.9998908042907715
4353:4360	sachsen	0.9129840731620789
4468:4472	adfc	0.9999904632568359
5286:5289	cdu	0.9999821186065674
5290:5293	csu	0.9999604225158691
5298:5301	spd	0.9999865293502808
5427:5453	kreissportbund_nordsachsen	0.9999713897705078
5529:5543	kreissportbund	0.5809521675109863
6249:6302	fraunhofer_instituts_für_zelltherapie_und_immunologie	0.9986590246359507
7071:7081	mdr_wissen	0.9971359372138977
7315:7325	musikarche	0.5567019581794739
7352:7370	aktivsport_saxonia	0.999979555606842
7737:7748	mdr_sachsen	0.9986587762832642
8732:8748	diakonie_sachsen	0.9629249274730682
9180:9185	verdi	0.9999700784683228
9573:9606	diakonische_landesverband_sachsen	0.9999665021896362
10017:10020	drk	0.9999923706054688
10126:10157	klinikum_oberlausitzer_bergland	0.9999767939249674
10223:10227	bund	0.9994262456893921
10501:10520	carolus-krankenhaus	0.9994869232177734
10704:10724	robert-koch-institut	0.9999397993087769
12063:12068	pirna	0.9996578693389893
12944:12958	dehoga_sachsen	0.9999402165412903
14468:14474	grünen	0.5234594345092773
