608:615	sachsen	0.9998441934585571
1301:1308	sachsen	0.9997943043708801
1720:1727	sachsen	0.9999734163284302
2226:2239	mittelsachsen	0.9999834299087524
2275:2288	mittelsachsen	0.999981164932251
3100:3107	sachsen	0.9993857145309448
3419:3432	prager_straße	0.9999750256538391
3440:3453	prager_straße	0.9999825358390808
3470:3483	student_hotel	0.9997629523277283
3501:3515	centrumgalerie	0.9969995617866516
4245:4252	sachsen	0.4951212704181671
4533:4540	sachsen	0.9997259974479675
6229:6240	sankt_georg	0.729344516992569
7112:7132	brandiser_musikarche	0.9260731935501099
7161:7168	brandis	0.999980092048645
7213:7223	musikarche	0.9971420168876648
7572:7578	kamenz	0.9999755620956421
7702:7717	lessing_museums	0.9987227022647858
8085:8092	sachsen	0.9990824460983276
8868:8875	leipzig	0.9999957084655762
8877:8884	dresden	0.9999936819076538
8889:8898	stuttgart	0.9999938011169434
9554:9572	ostdeutschland.der	0.9999821186065674
10059:10064	borna	0.9999818801879883
10111:10121	ostsachsen	0.9999842643737793
10190:10196	zittau	0.9999828338623047
10201:10210	ebersbach	0.9999897480010986
10340:10351	oberlausitz	0.9997654557228088
10380:10387	görlitz	0.9999862909317017
10473:10483	weißwasser	0.9999619722366333
10524:10531	görlitz	0.9999896287918091
10556:10562	kamenz	0.9999613761901855
10632:10639	sachsen	0.9965208768844604
10862:10869	sachsen	0.9998176693916321
11022:11029	sachsen	0.999932050704956
12014:12031	pirna-zuschendorf	0.9999792575836182
12578:12586	sachsens	0.9950195550918579
12643:12650	dresden	0.9999961853027344
12655:12662	leipzig	0.9999959468841553
13243:13250	sachsen	0.9998940229415894
13903:13914	deutschland	0.9999905824661255
14110:14117	sachsen	0.999984622001648
14171:14178	sachsen	0.9999659061431885
