1500:1517	siegfried_wilhelm	0.9998750984668732
1635:1646	ilka_hunger	0.9999936819076538
2264:2275	dirk_hentze	0.9999960660934448
2395:2408	erich_kästner	0.9999926686286926
2721:2739	michael_kretschmer	0.9999935030937195
2886:2904	gerlinde_schneider	0.9999845623970032
3356:3365	schneider	0.9999852180480957
3748:3761	petra_köpping	0.9999937415122986
4576:4588	mandy_hennig	0.999995231628418
4851:4857	hennig	0.9999744892120361
5602:5612	jens_spahn	0.9999955296516418
5744:5749	spahn	0.9999668598175049
5888:5902	andreas_gassen	0.9999967217445374
6107:6113	gassen	0.9999582767486572
7439:7451	wolfram_henn	0.9999943375587463
7565:7569	henn	0.9950645565986633
9020:9035	monika_grütters	0.9999936819076538
9074:9092	michael_kretschmer	0.9999942183494568
9681:9694	petra_köpping	0.9999953508377075
9721:9739	gerlinde_schneider	0.9999925494194031
10425:10439	helfried_böhme	0.999995768070221
