2606:2628	tonlagen-musikfestival	0.999934196472168
2646:2652	corona	0.9977384805679321
2686:2694	tonlagen	0.9998862743377686
6664:6680	leipzig-marathon	0.9999880790710449
6726:6742	leipzig-marathon	0.9999855756759644
7293:7309	leipzig_marathon	0.9961457550525665
7677:7688	astrazeneca	0.9999853372573853
