1513:1525	brit_richter	0.99998939037323
2881:2891	kretschmer	0.9999855756759644
2969:2979	kretschmer	0.9999886751174927
3713:3722	andy_feig	0.9999942183494568
4741:4745	heil	0.9992096424102783
4833:4846	hubertus_heil	0.9999970197677612
5180:5195	ralph_brinkhaus	0.9999880790710449
6627:6649	marlen_gabriele_arnold	0.9999868869781494
8436:8444	scherzer	0.9999399185180664
8536:8552	landolf_scherzer	0.9999934434890747
8620:8628	scherzer	0.9823945164680481
8870:8878	scherzer	0.9999569654464722
8932:8937	storl	0.9999716281890869
9106:9117	david_storl	0.9999962449073792
9657:9674	wilhelm_bernstein	0.9999964237213135
9950:9959	bernstein	0.9999822378158569
