text	types	tokens	types/tokens
21:12	28	32	1.1071
20:17	66	78	1.1667
19:49	35	40	1.1143
19:02	32	34	1.0312
18:41	84	109	1.2857
18:05	48	52	1.0625
17:33	41	48	1.1463
17:02	69	88	1.2609
16:34	75	94	1.24
16:06	78	91	1.1538
15:57	29	30	1.0
15:36	57	67	1.1579
14:59	76	92	1.1974
14:35	61	79	1.2787
13:46	55	63	1.1273
13:14	77	94	1.2078
12:03	61	74	1.1967
11:04	69	79	1.1304
10:51	94	119	1.2553
09:48	46	50	1.0652
09:23	45	51	1.1111
09:02	63	77	1.2063
08:32	46	54	1.1522
08:13	82	100	1.2073
07:00	66	87	1.303
06:00	29	33	1.1034
05:48	68	76	1.1029
05:31	69	87	1.2464
05:14	74	106	1.4189
