708:711	spd	0.9999909400939941
818:821	spd	0.9999898672103882
1082:1085	cdu	0.99998939037323
1320:1351	frankfurter_allgemeinen_zeitung	0.9999419450759888
2198:2235	aktionsbündnisses_leipzig_nimmt_platz	0.9996439665555954
4343:4353	rb_leipzig	0.9999846816062927
4650:4660	rb_leipzig	0.9999837875366211
6341:6346	grüne	0.9999351501464844
6390:6393	fdp	0.9999802112579346
6598:6604	grünen	0.9999555349349976
9800:9817	freiberg_für_alle	0.7568363547325134
12719:12742	paul_ehrlich_institutes	0.9999433358510336
13539:13545	corona	0.9999711513519287
13554:13569	lra-nordsachsen	0.9999243021011353
13571:13573	de	0.7226108312606812
13986:14008	deutsche_flugsicherung	0.9999831318855286
14010:14013	dfs	0.9999921321868896
14320:14326	corona	0.9999501705169678
14818:14825	bautzen	0.6324028968811035
15778:15801	technischen_universität	0.9692651331424713
15826:15847	deutschen_roten_kreuz	0.9999853769938151
16206:16227	deutschen_roten_kreuz	0.9999855359395345
16229:16232	drk	0.999988317489624
17242:17253	uni_leipzig	0.8274924755096436
17295:17302	leipzig	0.8833946585655212
18790:18793	ard	0.999104917049408
18892:18913	paul-ehrlich-institut	0.9999653100967407
