269:280	rod_stewart	0.9999957084655762
691:706	karl_lauterbach	0.9999961853027344
799:816	petra_grimm-benne	0.9999951124191284
974:984	kretschmer	0.9999772310256958
1062:1080	michael_kretschmer	0.9999961256980896
4278:4287	dani_olmo	0.9999961853027344
4289:4306	benjamin_henrichs	0.9999964237213135
4311:4325	solomon_bonnah	0.9999964237213135
4628:4641	nordi_mukiele	0.999994158744812
4872:4889	klaus-peter_hanke	0.9999964833259583
5226:5231	hanke	0.9999521970748901
6702:6717	kathleen_kuhfuß	0.999992847442627
7066:7081	claudia_maicher	0.9999955296516418
7638:7654	kristin_kaufmann	0.9999962449073792
8019:8027	kaufmann	0.9999134540557861
11625:11640	christian_wolff	0.9999948143959045
12023:12040	thorsten_vom_wege	0.9999826749165853
12744:12758	klaus_cichutek	0.9999954700469971
12950:12984	cichutek.bundesgesundheitsminister	0.999932050704956
12985:12995	lauterbach	0.9999760389328003
14879:14897	peter-paul_straube	0.9999957084655762
15224:15234	jens_spahn	0.9999954104423523
18678:18693	karl_lauterbach	0.9999964237213135
19102:19112	lauterbach	0.9999237060546875
19774:19788	roland_richter	0.9999961853027344
