200:207	sachsen	0.9993114471435547
342:349	dresden	0.9999949932098389
630:637	sachsen	0.9998903274536133
1397:1404	sachsen	0.9999788999557495
1569:1577	vogtland	0.9999148845672607
1690:1697	sachsen	0.9999434947967529
1750:1757	sachsen	0.9999566078186035
2377:2384	sachsen	0.9999345541000366
3105:3112	zwickau	0.9974023699760437
3774:3784	semperoper	0.9337892532348633
3977:3986	magdeburg	0.9999176263809204
4234:4243	magdeburg	0.999985933303833
5060:5069	rodewisch	0.9999682903289795
5085:5098	vogtlandkreis	0.9999830722808838
5392:5398	berlin	0.999996542930603
5403:5407	prag	0.9999926090240479
7274:7281	dresden	0.9961916208267212
8446:8451	kober	0.992618978023529
8472:8490	koberbachtalsperre	0.9999792575836182
8494:8506	langenhessen	0.9999843835830688
8511:8517	werdau	0.9999529123306274
8883:8888	kober	0.9970377683639526
9670:9677	sachsen	0.9999700784683228
9824:9831	sachsen	0.9999408721923828
9969:9976	sachsen	0.9999772310256958
10214:10221	sachsen	0.9999549388885498
11072:11082	tschechien	0.9999910593032837
11212:11219	dresden	0.9999927282333374
11224:11230	böhmen	0.9999829530715942
11581:11591	litoměřice	0.9999724626541138
11672:11677	pirna	0.9999316930770874
11679:11691	bad_schandau	0.999981164932251
11693:11698	děčín	0.9999573230743408
11703:11717	ústí_nad_labem	0.9999727408091227
11850:11864	ústí_nad_labem	0.9999750057856241
11870:11877	dresden	0.9999909400939941
11918:11933	aue-bad_schlema	0.9999399185180664
11938:11954	annaberg-bucholz	0.9999879598617554
12073:12090	annaberg-buchholz	0.999985933303833
12161:12177	frohnauer_hammer	0.9998992383480072
12186:12200	adam-ries_haus	0.999933660030365
12211:12225	manufaktur_der	0.5306975543498993
12312:12327	aue-bad_schlema	0.9998987317085266
12414:12432	museum_uranbergbau	0.9142113924026489
12470:12477	kurpark	0.9995394945144653
12478:12489	bad_schlema	0.9957307577133179
12560:12567	schlema	0.999893069267273
12788:12795	bautzen	0.9999799728393555
13192:13200	bautzens	0.9960082769393921
13269:13276	bautzen	0.9999750852584839
13848:13855	bautzen	0.9999767541885376
13916:13937	ebersbach-neugersdorf	0.9999852180480957
13980:14001	ebersbach-neugersdorf	0.9999920129776001
14363:14385	ebersbach-neugersdorf.	0.9889636039733887
14489:14494	plohn	0.9999629259109497
14530:14544	vogtländischen	0.9792369604110718
14545:14550	plohn	0.9998877048492432
15056:15073	forellenhof_plohn	0.9999194145202637
15260:15265	löbau	0.9999024868011475
15843:15850	leipzig	0.9999932050704956
15882:15889	leipzig	0.9999889135360718
16189:16200	deutschland	0.9999610185623169
16202:16212	österreich	0.9997296929359436
16221:16228	schweiz	0.9999710321426392
16415:16424	zschadraß	0.9999709129333496
16433:16446	dental-museum	0.9927277565002441
16875:16884	zschadraß	0.9999836683273315
16963:16970	bautzen	0.9999922513961792
16975:16988	bischofswerda	0.9999936819076538
17056:17063	bautzen	0.9999948740005493
17068:17081	bischofswerda	0.9999958276748657
17194:17207	bischofswerda	0.9999778270721436
17283:17296	bischofswerda	0.9999923706054688
17319:17326	bautzen	0.9999885559082031
17462:17470	chemnitz	0.9998582601547241
17531:17539	chemnitz	0.9988452196121216
17638:17646	küchwald	0.9999727010726929
17880:17887	stausee	0.9463557600975037
17888:17898	cossebaude	0.8963137865066528
17939:17962	cossebaude_niederwartha	0.9999500513076782
18292:18299	stausee	0.9968664050102234
18362:18375	mittelsachsen	0.9999023675918579
18402:18409	sachsen	0.9996405839920044
18421:18428	sachsen	0.9999486207962036
18565:18578	vogtlandkreis	0.9997016787528992
18717:18730	mittelsachsen	0.9999586343765259
18739:18754	erzgebirgskreis	0.849151074886322
18812:18818	meißen	0.9999803304672241
18840:18846	meißen	0.999987006187439
19241:19247	meißen	0.9999727010726929
19425:19432	sachsen	0.9999343156814575
20110:20121	oberlausitz	0.9999477863311768
20304:20311	bautzen	0.9998918771743774
20397:20403	friese	0.9995566010475159
20567:20579	kulturkirche	0.9990541338920593
20587:20604	gartenstadt_lauta	0.6716850697994232
20610:20621	krabatmühle	0.9999654293060303
20625:20637	schwarzkollm	0.9999668598175049
20646:20666	zuse-computer-museum	0.999964714050293
20670:20681	hoyerswerda	0.9999855756759644
20745:20752	sachsen	0.9999326467514038
20770:20777	sachsen	0.9999887943267822
20935:20946	deutschland	0.9999815225601196
