2572:2580	la_chine	0.9982244372367859
4415:4423	telegram	0.5468841791152954
6397:6409	euro.dennoch	0.9999412298202515
6624:6631	novavax	0.9999125003814697
6636:6652	corona-impfstoff	0.6793969869613647
6672:6679	novavax	0.8438816666603088
6871:6878	novavax	0.9999563694000244
6911:6919	biontech	0.9999735355377197
6924:6931	moderna	0.9999747276306152
9628:9639	coronavirus	0.9970391988754272
9829:9835	corona	0.9792875051498413
12513:12519	corona	0.9875208139419556
