6757:6769	corona-virus	0.9999160766601562
8149:8157	covid-19	0.5314890742301941
10398:10410	corona-virus	0.9970717430114746
14664:14671	omikron	0.5081577301025391
14853:14861	covid-19	0.9978336691856384
15113:15130	moderna-impfstoff	0.9998261332511902
16980:16986	corona	0.8282889127731323
