353:369	christoph_josten	0.9999969601631165
657:675	michael_kretschmer	0.9999967217445374
870:880	kretschmer	0.999988317489624
1179:1190	marcel_koch	0.9999969005584717
1531:1535	koch	0.9794207811355591
3037:3055	michael_kretschmer	0.9999968409538269
3186:3209	frank_ulrich_montgomery	0.9999901056289673
3249:3265	wolfgang_preiser	0.9999954700469971
3458:3476	michael_kretschmer	0.9999947547912598
3498:3513	barbara_klepsch	0.9999955296516418
3810:3820	roland_may	0.999997079372406
6983:6996	richard_neher	0.9999964833259583
7063:7078	eric_feigl-ding	0.9999925494194031
7296:7308	dirk_hilbert	0.9999966025352478
8396:8412	christian_piwarz	0.9999961853027344
9091:9097	piwarz	0.9999867677688599
9708:9721	petra_köpping	0.9999961256980896
11057:11072	renè_stoffregen	0.9999951720237732
12177:12194	kerstin_schöniger	0.9999945163726807
12539:12557	michael_kretschmer	0.9999951124191284
12623:12633	roland_may	0.999996542930603
12843:12858	constanze_arndt	0.9999778270721436
13087:13092	arndt	0.9999580383300781
13505:13517	jens_heinzig	0.9999963641166687
13823:13841	klaus-peter_hansen	0.999995768070221
17959:17974	barbara_klepsch	0.9999952912330627
18505:18516	kai_kranich	0.999992311000824
