1156:1170	reinhard_sager	0.9999956488609314
2071:2082	halstenberg	0.9999867677688599
2129:2147	marcel_halstenberg	0.9999966025352478
2458:2471	jonas_hofmann	0.9999954104423523
2597:2608	halstenberg	0.9999675750732422
3005:3016	tobias_bilz	0.9999966025352478
3039:3057	michael_kretschmer	0.9999962449073792
3131:3147	andreas_kutschke	0.9999963641166687
3176:3188	dirk_hilbert	0.9999963641166687
3260:3272	joachim_hoof	0.9999959468841553
6134:6155	heinz-pater_meidinger	0.9969820380210876
6467:6490	frank-walter_steinmeier	0.9999931454658508
6667:6677	steinmeier	0.9999512434005737
7391:7403	ralf_brehmer	0.9999958276748657
