text	types	tokens	types/tokens
18:43	30	32	1.0333
18:15	73	89	1.2055
17:45	64	80	1.2344
17:25	54	62	1.1296
16:59	70	89	1.2571
16:00	76	90	1.1711
14:33	44	49	1.0909
13:45	72	82	1.125
13:35	41	44	1.0488
9:00	52	58	1.0962
8:58	69	97	1.3913
8:45	79	97	1.2152
8:20	60	69	1.1333
05:41	46	50	1.0652
05:15	62	71	1.129
