text	types	tokens	types/tokens
20:15	105	131	1.2381
19:35	80	97	1.2
18:51	74	88	1.1757
18:21	86	107	1.2326
17:58	66	84	1.2576
17:19	76	93	1.2105
17:02	81	100	1.2222
16:28	100	117	1.16
15:33	90	111	1.2222
15:07	72	85	1.1667
14:46	79	96	1.2025
14:20	85	105	1.2235
13:5013:00	97	114	1.1649
12:00	43	51	1.1628
11:44	108	130	1.1944
11:04	87	110	1.2529
10:37	41	45	1.0732
10:05	100	128	1.27
08:19	45	55	1.2
07:24	59	66	1.1017
06:00	53	66	1.2264
05:00	59	71	1.1864
