498:501	drk	0.9999922513961792
578:589	astrazeneca	0.9998883008956909
1501:1521	robert-koch-institut	0.9999680519104004
1969:1980	astrazeneca	0.999920129776001
2018:2021	ema	0.9999822378158569
2081:2092	astrazeneca	0.9999589920043945
2688:2691	ema	0.9999816417694092
4813:4831	europäischen_union	0.999322921037674
4882:4885	ema	0.9999624490737915
7229:7235	bundes	0.9958683252334595
7294:7297	drk	0.9999885559082031
10525:10536	astrazeneca	0.9999558925628662
11302:11313	astrazeneca	0.9999785423278809
11424:11446	paul-ehrlich-instituts	0.9997870326042175
11843:11854	astrazeneca	0.999982476234436
12616:12622	condor	0.999987006187439
12731:12737	condor	0.9999877214431763
13003:13023	robert-koch-institut	0.9999548196792603
14336:14356	robert-koch-institut	0.9999572038650513
15019:15022	spd	0.9999903440475464
15928:15931	cdu	0.9999881982803345
16256:16262	plauen	0.9999827146530151
16309:16315	plauen	0.9999843835830688
16608:16614	plauen	0.9999784231185913
18155:18178	deutschen_roten_kreuzes	0.9999783039093018
18256:18278	deutsche_lehrerverband	0.9578489661216736
18746:18770	deutschen_lehrerverbands	0.965302973985672
18807:18822	rheinische_post	0.9999839067459106
18963:19035	bundesverbands_informationswirtschaft_,_telekommunikation_und_neue_medien	0.9999665192195347
19037:19043	bitkom	0.9999885559082031
20008:20027	deutsche_rote_kreuz	0.9999824364980062
20029:20032	drk	0.9999892711639404
20488:20501	drk_delitzsch	0.9996940493583679
22378:22385	sachsen	0.99814772605896
