1242:1256	klaus_lorenzen	0.9999954700469971
5708:5713	spahn	0.9996069073677063
6633:6646	jörg_dittrich	0.9999704360961914
11734:11748	thomas_mertens	0.9999961256980896
12059:12066	mertens	0.9999898672103882
12427:12441	jürgen_wehlend	0.9999951124191284
12598:12609	wehlend.der	0.9999451637268066
16395:16416	heinz-peter_meidinger	0.999992847442627
17402:17413	ralf_rother	0.9999962449073792
