335:346	klickwinkel	0.9999830722808838
544:555	klickwinkel	0.9999750852584839
1683:1714	robert-schumann-videowettbewerb	0.9993464350700378
1735:1762	robert-schumann-wettbewerbs	0.9736749529838562
3947:3955	covid-19	0.9999033212661743
7789:7797	tomorrow	0.8693709373474121
7800:7803	die	0.664686918258667
8188:8194	corona	0.7010558247566223
8586:8590	euro	0.9999779462814331
9497:9501	euro	0.9998739957809448
9709:9713	euro	0.99996018409729
12064:12070	corona	0.9995972514152527
12480:12501	astrazeneca-impfstoff	0.6101500391960144
13864:13868	euro	0.9999845027923584
17055:17073	politik_in_sachsen	0.9995522896448771
18315:18330	corona-warn-app	0.991821825504303
