78:85	sachsen	0.9998131394386292
288:295	görlitz	0.9999903440475464
451:460	zgorzelec	0.9999866485595703
1606:1613	sachsen	0.999580442905426
1655:1662	zwickau	0.999993085861206
1803:1810	zwickau	0.9999856948852539
2069:2077	südkorea	0.9999911785125732
2082:2090	russland	0.9999885559082031
2126:2133	sachsen	0.9999784231185913
2816:2823	dresden	0.999994158744812
2842:2853	arnhold-bad	0.9999773502349854
2862:2869	dresden	0.9999929666519165
2976:2993	georg-arnhold-bad	0.9999849796295166
3043:3049	bühlau	0.999981164932251
3206:3213	prohlis	0.9999630451202393
3218:3226	kotzsche	0.9999366998672485
4284:4291	görlitz	0.9999902248382568
5462:5470	chemnitz	0.9999935626983643
5514:5522	chemnitz	0.9999933242797852
5647:5654	gablenz	0.9999486207962036
5659:5666	südring	0.9998168349266052
5671:5681	sportforum	0.9941596984863281
5689:5697	stadtbad	0.9145060181617737
6849:6855	plauen	0.9998534917831421
6884:6899	vogtlandkreises	0.9999748468399048
7490:7496	plauen	0.9999438524246216
7549:7560	bad_lausick	0.9999849796295166
7591:7602	bad_lausick	0.9999883770942688
7604:7620	glastener_straße	0.9999766945838928
7724:7731	leipzig	0.9997386336326599
8220:8227	sachsen	0.9999397993087769
8770:8777	dresden	0.9999966621398926
8782:8789	leipzig	0.9999960660934448
8830:8836	döbeln	0.9999939203262329
8838:8850	markranstädt	0.9999796152114868
8852:8860	freiberg	0.999992847442627
8865:8872	bautzen	0.9999896287918091
8885:8892	dresden	0.9999967813491821
8929:8936	dresden	0.999996542930603
9402:9409	dresden	0.9999901056289673
9437:9444	sachsen	0.9999805688858032
9930:9937	sachsen	0.9999257326126099
11555:11562	oschatz	0.9998062252998352
11583:11590	oschatz	0.9999023675918579
11907:11914	leipzig	0.9999905824661255
12654:12662	chemnitz	0.999995231628418
12742:12750	chemnitz	0.9999942779541016
13482:13493	knappenrode	0.9987194538116455
13542:13549	lausitz	0.7159191370010376
13620:13631	knappenrode	0.9999775886535645
13776:13783	bautzen	0.9999490976333618
13934:13941	bautzen	0.9999250173568726
14151:14164	lausitz-blick	0.9999464750289917
14240:14243	bad	0.9945329427719116
14294:14305	herrmannbad	0.6428934335708618
14309:14314	löbau	0.9999432563781738
14646:14654	radeburg	0.9999914169311523
14959:14967	radeburg	0.9999938011169434
15406:15416	ostsachsen	0.9999880790710449
15746:15753	bautzen	0.9999678134918213
15778:15791	bischofswerda	0.9999912977218628
15793:15804	hoyerswerda	0.9999927282333374
15809:15815	kamenz	0.9999829530715942
16302:16309	görlitz	0.9999797344207764
16605:16612	görlitz	0.9999920129776001
16639:16652	vogtlandkreis	0.9999462366104126
16692:16700	vogtland	0.9999548196792603
17567:17573	döbeln	0.9999765157699585
17633:17641	chemnitz	0.9999892711639404
18122:18133	deutschland	0.9999738931655884
