text	types	tokens	types/tokens
20:02	22	25	1.0909
19:59	62	75	1.1935
19:32	49	60	1.2041
18:53	43	47	1.0698
18:40	52	57	1.0769
17:50	69	79	1.1304
17:09	73	88	1.1918
16:46	68	78	1.1324
16:34	69	80	1.1449
16:07	63	75	1.1746
15:45	65	79	1.2
15:12	86	111	1.2791
14:52	71	83	1.1549
14:38	78	90	1.141
13:53	76	86	1.1184
13:10	57	71	1.2281
12:50	55	68	1.2182
12:30	73	84	1.137
12:00	66	82	1.2273
11:44	43	49	1.1163
10:54	80	92	1.1375
08:06	76	88	1.1447
07:30	70	85	1.2
06:30	41	48	1.1463
06:00	76	87	1.1316
05:55	91	109	1.1868
05:50	47	57	1.1915
05:40	72	85	1.1667
05:10	59	69	1.1525
05:05	46	56	1.1957
