1227:1233	merkel	0.999984622001648
1349:1362	angela_merkel	0.9999921917915344
1558:1564	merkel	0.9999899864196777
5290:5295	spahn	0.9999874830245972
5383:5388	spahn	0.9999887943267822
5488:5493	spahn	0.9999910593032837
6503:6516	michael_harig	0.9999954104423523
7333:7343	jörg_urban	0.9999930262565613
8741:8754	jens_leistner	0.9999949932098389
10235:10248	sandro_müller	0.9999953508377075
10673:10691	ute_hartwig-schulz	0.9999804496765137
11813:11819	schenk	0.9999755620956421
12195:12207	beate_hertes	0.9999747276306152
12588:12599	uwe_liebert	0.9999868273735046
12640:12653	michael_borte	0.9999957084655762
13903:13908	harig	0.9999829530715942
14002:14015	michael_harig	0.9999951720237732
15148:15153	spahn	0.9999853372573853
16022:16032	jens_spahn	0.999996542930603
16722:16738	matthias_hasberg	0.9999959468841553
16825:16832	porsche	0.9999499320983887
17578:17591	frank_schwarz	0.9999959468841553
19254:19272	michael_kretschmer	0.9999919533729553
19294:19307	petra_köpping	0.999994158744812
