6118:6122	euro	0.999943733215332
6345:6349	euro	0.9999778270721436
9375:9390	corona-pandemie	0.8960604667663574
9999:10010	coronavirus	0.9962663054466248
11228:11238	semperoper	0.988010585308075
15913:15924	coronavirus	0.8095066547393799
17647:17651	euro	0.999984860420227
17724:17730	corona	0.9980944991111755
18227:18231	euro	0.9999861717224121
18622:18626	euro	0.9999864101409912
