838:851	florian_kunze	0.9999960660934448
3362:3374	marco_müller	0.999993622303009
5942:5960	michael_kretschmer	0.9999960660934448
5988:6001	petra_köpping	0.9999951720237732
6557:6567	kretschmer	0.9999874830245972
8416:8430	rené_glaser.im	0.9999951720237732
8563:8577	thomas_stroyke	0.9999958872795105
8713:8725	gordon_knabe	0.999996542930603
8916:8921	knabe	0.9999333620071411
