text	types	tokens	types/tokens
20:21	117	144	1.2222
19:55	24	25	1.0
19:02	57	68	1.1754
18:45	61	75	1.2131
17:15	57	69	1.193
16:48	63	73	1.1429
15:23	39	46	1.1538
15:05	62	72	1.1452
12:51	88	115	1.2955
11:18	32	39	1.1875
10:40	85	101	1.1765
09:54	87	98	1.1149
07:31	69	87	1.2464
06:47	102	127	1.2353
05:38	72	88	1.2083
05:15	58	66	1.1207
