text	types	tokens	types/tokens
21:38	21	26	1.1905
21:19	37	43	1.1351
20:15	83	101	1.2048
19:32	74	98	1.3108
18:56	60	78	1.2833
18:35	49	58	1.1633
18:10	84	92	1.0833
17:23	59	75	1.2542
17:03	83	99	1.1807
16:03	55	63	1.1273
15:33	88	103	1.1591
15:08	74	86	1.1486
14:40	54	64	1.1667
14:29	66	87	1.303
14:13	53	67	1.2453
14:04	84	98	1.1548
13:00	103	129	1.2427
12:5012:46	69	82	1.1739
12:22	57	70	1.2105
11:18	60	72	1.1833
10:13	53	60	1.1132
08:49	60	79	1.3
08:00	73	93	1.2603
06:43	65	81	1.2308
06:14	26	29	1.0769
06:00	79	92	1.1519
05:32	58	70	1.1897
05:12	68	85	1.2353
