5556:5575	elisabeth_köstinger	0.9999961853027344
5766:5775	köstinger	0.9999256134033203
7838:7854	katrin_leonhardt	0.9999949932098389
8304:8317	petra_köpping	0.999996542930603
8714:8721	köpping	0.9999488592147827
9620:9633	lutz_auerbach	0.999994695186615
10721:10731	nora_imlau	0.9999836683273315
15843:15853	jens_spahn	0.9999958872795105
16580:16596	thomas_käfer.mir	0.9999951124191284
