308:315	sachsen	0.9999401569366455
858:882	sachsen-polen-tschechien	0.9999693632125854
1268:1277	leipziger	0.9897825717926025
1278:1290	scheibenholz	0.9978699684143066
1795:1802	sachsen	0.9984089732170105
2532:2539	sachsen	0.9998459815979004
2934:2942	chemnitz	0.999977707862854
3057:3064	sachsen	0.9997053742408752
3266:3273	leipzig	0.9999904632568359
3429:3436	leipzig	0.927993655204773
4046:4053	dresden	0.999996542930603
4080:4087	dresden	0.9999963045120239
4850:4856	grimma	0.9999899864196777
4906:4912	grimma	0.9999899864196777
5063:5070	sachsen	0.9996858835220337
5102:5108	plauen	0.9999164342880249
5423:5433	österreich	0.9999781847000122
5434:5444	österreich	0.9999886751174927
6183:6194	deutschland	0.9999873638153076
7864:7871	dresden	0.9999940395355225
8150:8157	sachsen	0.999964714050293
8183:8190	sachsen	0.9971489310264587
8875:8882	bautzen	0.9999896287918091
8884:8891	görlitz	0.9999898672103882
8893:8899	meißen	0.9999889135360718
8904:8936	sächsische_schweiz-osterzgebirge	0.9992577731609344
9488:9506	sächsische_schweiz	0.9991744756698608
9722:9729	leipzig	0.9991451501846313
9735:9742	dresden	0.999980092048645
9754:9760	schöna	0.9999825954437256
9869:9883	müglitztalbahn	0.9927518367767334
9935:9942	bautzen	0.9999247789382935
9960:9967	bautzen	0.9999693632125854
10104:10114	westberlin	0.9999903440475464
10224:10231	bautzen	0.9999570846557617
11014:11022	chemnitz	0.9999911785125732
11373:11378	china	0.9999772310256958
11387:11390	usa	0.999974250793457
11572:11579	leipzig	0.9999912977218628
11598:11605	leipzig	0.9999921321868896
11926:11941	schleußiger_weg	0.9999825358390808
12069:12072	usa	0.9999728202819824
12175:12178	usa	0.9999756813049316
12753:12761	freiberg	0.9999796152114868
14044:14055	deutschland	0.9999932050704956
14336:14343	dresden	0.9999929666519165
14364:14371	dresden	0.9999929666519165
14697:14704	dresden	0.9999926090240479
14822:14833	nordsachsen	0.9999815225601196
14841:14854	vogtlandkreis	0.999967098236084
14954:14961	bautzen	0.9999688863754272
15015:15022	bautzen	0.9999769926071167
15246:15253	bautzen	0.9999746084213257
15361:15368	bautzen	0.9999390840530396
15376:15389	taucherstraße	0.9999912977218628
15940:15951	deutschland	0.999981164932251
16019:16026	sachsen	0.9999727010726929
16322:16329	freital	0.9999877214431763
16873:16881	oelsnitz	0.9999901056289673
16931:16939	oelsnitz	0.9999816417694092
17066:17074	oelsnitz	0.999992847442627
17077:17082	lugau	0.9999898672103882
17085:17093	hohndorf	0.9999914169311523
17098:17114	niederwürschnitz	0.9999879598617554
