text	types	tokens	types/tokens
21:11	53	66	1.2264
20:39	51	57	1.098
20:16	68	81	1.1765
19:03	78	101	1.2821
18:00	97	124	1.268
17:32	66	76	1.1364
16:41	80	99	1.225
15:52	60	68	1.1167
15:31	79	97	1.2152
14:55	71	85	1.1831
14:11	66	77	1.1515
13:16	63	73	1.1429
12:40	71	87	1.2113
12:04	49	61	1.2245
11:36	62	71	1.129
11:24	51	66	1.2745
10:59	47	56	1.1702
10:14	60	75	1.2333
09:33	53	63	1.1698
09:09	28	33	1.1429
08:45	58	67	1.1379
08:21	40	48	1.175
07:50	59	73	1.2203
07:04	44	49	1.0909
06:31	59	76	1.2712
06:22	64	89	1.375
05:45	59	70	1.1695
05:32	63	79	1.2381
05:05	75	90	1.1867
