98:104	ostsee	0.9998966455459595
135:142	sachsen	0.9992485642433167
252:259	sachsen	0.9997151494026184
655:662	sachsen	0.9999326467514038
1288:1310	leipziger_felsenkeller	0.9614042639732361
1314:1326	felsenkeller	0.9999681711196899
1330:1337	leipzig	0.9999938011169434
1885:1896	deutschland	0.9999779462814331
2237:2244	naunhof	0.9999904632568359
2321:2328	naunhof	0.9999945163726807
2402:2417	parthelandhalle	0.9999558925628662
2487:2498	belgershain	0.9999892711639404
2503:2515	parthenstein	0.999964714050293
3141:3152	nordsachsen	0.9999932050704956
3305:3313	sachsens	0.9999902248382568
3562:3570	saarland	0.999987006187439
3639:3646	leipzig	0.9999922513961792
3715:3722	leipzig	0.9999926090240479
4653:4655	eu	0.9623386859893799
4951:4964	albrechtsburg	0.9997212290763855
4965:4971	meißen	0.9994632601737976
5016:5029	albrechtsburg	0.9999866485595703
5033:5039	meißen	0.9999852180480957
5462:5467	polen	0.999993085861206
5531:5536	polen	0.9999921321868896
5814:5821	sachsen	0.9999315738677979
5827:5832	polen	0.9999840259552002
5943:5948	polen	0.9999853372573853
5986:5992	ungarn	0.9999775886535645
5994:6003	bulgarien	0.9999885559082031
6005:6018	liechtenstein	0.9999904632568359
6023:6029	monaco	0.9999898672103882
6885:6892	sachsen	0.9997612833976746
7465:7472	sachsen	0.9999585151672363
8406:8413	dresden	0.9999953508377075
8807:8812	paris	0.9999902248382568
8840:8847	dresden	0.9999926090240479
8885:8895	tschechien	0.9999936819076538
8920:8930	tschechien	0.9999890327453613
8977:8988	deutschland	0.9999727010726929
9151:9161	tschechien	0.9999936819076538
9563:9571	küchwald	0.9999352693557739
9607:9615	deutsche	0.40282654762268066
9687:9695	küchwald	0.9999507665634155
9760:9765	herne	0.9983510971069336
9778:9796	kosmonautenzentrum	0.9984315037727356
10099:10107	küchwald	0.9999549388885498
10819:10826	sachsen	0.999935507774353
11074:11081	dresden	0.9999933242797852
11161:11174	vogtlandkreis	0.999964714050293
11182:11189	leipzig	0.9999924898147583
11258:11271	vogtlandkreis	0.9999639987945557
11286:11293	leipzig	0.999994158744812
11631:11646	erzgebirgskreis	0.9995231628417969
11740:11753	mittelsachsen	0.9999278783798218
11758:11790	sächsische_schweiz-osterzgebirge	0.9977624714374542
12723:12730	sachsen	0.9998841285705566
12755:12762	sachsen	0.9998884201049805
12913:12928	erzgebirgskreis	0.9993863105773926
12953:12985	sächsische_schweiz-osterzgebirge	0.9994230270385742
12997:13004	görlitz	0.9999924898147583
13061:13074	vogtlandkreis	0.9999169111251831
13089:13096	leipzig	0.9999963045120239
13311:13318	sachsen	0.999980092048645
14246:14259	dreiländereck	0.9985392093658447
14785:14807	mecklenburg-vorpommern	0.9999949932098389
14825:14847	mecklenburg-vorpommern	0.9999957084655762
15138:15149	deutschland	0.9999477863311768
15875:15888	mittelsachsen	0.9999748468399048
15890:15897	bautzen	0.9999555349349976
15913:15945	sächsische_schweiz-osterzgebirge	0.9997716248035431
15953:15961	chemnitz	0.9999918937683105
16090:16096	muskau	0.9999697208404541
16144:16150	muskau	0.9999405145645142
16375:16382	sachsen	0.9996821880340576
16939:16946	sachsen	0.9999915361404419
17256:17259	usa	0.9999927282333374
17264:17270	kanada	0.9999902248382568
17343:17354	deutschland	0.9997450709342957
17806:17814	sachsens	0.9992759823799133
18264:18272	vogtland	0.999903678894043
18368:18375	leipzig	0.9999876022338867
19041:19048	dresden	0.9999947547912598
