text	types	tokens	types/tokens
21:53	36	38	1.0278
21:22	26	28	1.0385
20:52	53	56	1.0377
20:22	60	77	1.2667
20:04	29	31	1.0345
18:45	113	161	1.4159
17:58	71	85	1.1831
16:40	52	62	1.1731
16:13	55	68	1.2182
16:09	75	97	1.28
15:03	49	60	1.2041
14:37	50	57	1.12
13:19	17	22	1.2353
12:43	74	89	1.1892
12:02	60	63	1.0333
11:41	65	80	1.2154
11:06	26	27	1.0
10:35	55	68	1.2182
09:57	31	34	1.0645
09:30	42	46	1.0714
08:58	24	27	1.0833
08:10	39	42	1.0513
07:52	41	53	1.2683
07:04	55	63	1.1273
06:43	29	32	1.069
06:25	87	105	1.1954
05:36	53	60	1.1132
05:28	37	40	1.0541
05:05	53	64	1.1887
