62:69	sachsen	0.9999339580535889
459:467	mannheim	0.9999871253967285
500:508	nürnberg	0.9898730516433716
584:591	sachsen	0.9999426603317261
596:610	sachsen-anhalt	0.993123471736908
714:721	sachsen	0.9999330043792725
859:866	dresden	0.9999927282333374
894:901	görlitz	0.9999853372573853
914:927	vogtlandkreis	0.9999656677246094
1118:1125	dresden	0.9999946355819702
1147:1154	dresden	0.9999954700469971
1285:1293	altmarkt	0.9936757683753967
1632:1639	leipzig	0.9999892711639404
1733:1740	leipzig	0.999992847442627
1785:1790	borna	0.9999738931655884
2730:2737	leipzig	0.9999793767929077
3147:3154	leipzig	0.9999902248382568
3178:3198	leipziger_distillery	0.9999447464942932
3591:3598	leipzig	0.9994138479232788
3626:3633	leipzig	0.9993597865104675
3814:3821	leipzig	0.9999866485595703
3874:3881	leipzig	0.9999872446060181
4320:4328	sachsens	0.72468101978302
4718:4725	sachsen	0.9944114089012146
4816:4823	sachsen	0.9999582767486572
5058:5068	tschechien	0.9999663829803467
5149:5156	sachsen	0.99996018409729
5533:5541	vogtland	0.9997572302818298
5978:5989	knappenrode	0.9999895095825195
6010:6021	hoyerswerda	0.9999901056289673
6497:6507	schneeberg	0.9999872446060181
6513:6533	freiberg.mdr_klassik	0.9999538660049438
6776:6783	sachsen	0.9993482232093811
6918:6924	kamenz	0.9998844861984253
7336:7343	leipzig	0.9998934268951416
7833:7840	sachsen	0.9941943287849426
7910:7920	erzgebirge	0.9490290284156799
7925:7942	auerbach_vogtland	0.9615448415279388
7955:7970	dresden-prohlis	0.999982476234436
8102:8120	burg_scharfenstein	0.9999805092811584
8133:8144	lichtenberg	0.9998877048492432
8169:8189	schloss_augustusburg	0.9747456312179565
8191:8209	burg_scharfenstein	0.9999774694442749
8228:8245	park_lichtenwalde	0.9966636002063751
8416:8434	burg_scharfenstein	0.9998833537101746
8484:8489	japan	0.9999748468399048
8493:8513	schloss_lichtenwalde	0.8782632350921631
8656:8665	trixipark	0.8053284287452698
8673:8684	oberlausitz	0.9996850490570068
8799:8806	sachsen	0.9995313882827759
8926:8937	großschönau	0.9999681711196899
8952:8963	oberlausitz	0.9994291663169861
