1973:1988	brigitte_laux	0.9999944567680359
2679:2692	mike_pfützner	0.9999858140945435
4261:4268	köpping	0.9990895986557007
4351:4364	petra_köpping	0.9999956488609314
5093:5100	köpping	0.9999675750732422
6203:6220	oliver_jueterbock	0.999996542930603
7377:7391	thomas_griebel	0.9999958276748657
7789:7800	ulrike_novy	0.9999929070472717
