4800:4812	thomas_adler	0.9999932050704956
4875:4893	michael_kretschmer	0.9999919533729553
5729:5742	andrea_jedzig	0.9999946355819702
5862:5877	barbara_klepsch	0.9999961256980896
7385:7403	oliver_hildebrandt	0.9999964237213135
7560:7567	klepsch	0.9696279168128967
7632:7647	barbara_klepsch	0.9999961853027344
8095:8102	klepsch	0.9823158383369446
8785:8791	giffey	0.9999841451644897
8860:8876	franziska_giffey	0.999993622303009
9079:9085	giffey	0.9999771118164062
9283:9289	giffey	0.9999833106994629
12429:12434	spahn	0.9999432563781738
12533:12539	piwarz	0.999976396560669
12917:12933	christian_piwarz	0.9999962449073792
13830:13835	dulig	0.9999970197677612
15311:15324	bert_wendsche	0.9999951720237732
15349:15363	manuel_schöbel	0.999996542930603
15390:15405	christof_heinze	0.9999962449073792
15601:15616	stephan_liebich	0.9999933242797852
15680:15688	wendsche	0.9999449253082275
15690:15697	schöbel	0.9999855756759644
15702:15708	heinze	0.9999842643737793
