85:92	sachsen	0.9999656677246094
225:232	leipzig	0.9990078806877136
272:279	leipzig	0.9579153060913086
1153:1160	görlitz	0.9999912977218628
1230:1237	görlitz	0.9999912977218628
1598:1606	vogtland	0.9999008178710938
1636:1643	zwickau	0.9999885559082031
1692:1699	sachsen	0.9788975715637207
2019:2033	leipziger_land	0.9997698068618774
2065:2097	sächsische_schweiz-osterzgebirge	0.9998656809329987
2124:2137	mittelsachsen	0.9999758005142212
2181:2188	sachsen	0.9999374151229858
2416:2423	sachsen	0.9999102354049683
3269:3276	sachsen	0.9999343156814575
3852:3865	vogtlandkreis	0.999977707862854
4386:4393	dresden	0.9999940395355225
5022:5028	treuen	0.9944707155227661
5356:5369	schreiersgrün	0.9999195337295532
6124:6130	berlin	0.9999940395355225
6155:6162	sachsen	0.9999940395355225
6198:6220	mecklenburg-vorpommern	0.999995231628418
6499:6510	tschechiens	0.999977707862854
6541:6551	tschechien	0.999983549118042
6597:6604	sachsen	0.9999294281005859
6609:6615	bayern	0.9998788833618164
6993:6997	cheb	0.9999760389328003
6999:7003	eger	0.9999860525131226
7009:7016	sokolov	0.9999922513961792
7018:7038	falkenau_an_der_eger	0.9999619424343109
7154:7172	limbach-oberfrohna	0.9999932050704956
7186:7193	zwickau	0.9999918937683105
7277:7295	limbach-oberfrohna	0.9999878406524658
9562:9570	budapest	0.9999897480010986
9761:9767	ungarn	0.9999755620956421
9951:9965	großbritannien	0.9999939203262329
10033:10042	liverpool	0.9999855756759644
10352:10357	polen	0.999976396560669
10374:10381	sachsen	0.9998780488967896
10777:10784	sachsen	0.9999550580978394
11455:11462	bautzen	0.9999456405639648
11470:11483	vogtlandkreis	0.9999179840087891
11707:11713	kamenz	0.9999884366989136
11774:11780	kamenz	0.9999898672103882
12591:12598	sachsen	0.9998190999031067
13771:13781	ostsachsen	0.9999779462814331
13990:13997	dresden	0.9999942779541016
13999:14006	görlitz	0.9999922513961792
14008:14018	südsachsen	0.9999934434890747
14023:14030	bautzen	0.9999904632568359
14668:14675	leipzig	0.9999874830245972
14756:14769	leipzig_halle	0.9986568093299866
14982:14990	hurghada	0.9999676942825317
14994:15001	ägypten	0.9998936653137207
15114:15127	leipzig_halle	0.9976652264595032
15283:15292	radebeuls	0.9999920129776001
15452:15460	radebeul	0.9949254989624023
