773:776	spd	0.9999837875366211
1677:1699	jugendstiftung_sachsen	0.9999701380729675
1872:1898	dresdner_kinderhilfeverein	0.9999626278877258
1904:1931	lukas_stern_verein_chemnitz	0.999968558549881
2015:2025	wolfsträne	0.9998939037322998
2096:2111	für_knochenmark	0.9959571361541748
2113:2134	und_stammzellenspende	0.9990187585353851
2155:2189	asb-regionalverband_zittau_görlitz	0.999586264292399
3037:3046	karussell	0.9998869895935059
4080:4083	cdu	0.9999854564666748
6185:6205	robert_koch-institut	0.9998776614665985
6283:6317	kultusministerkonferenz_der_länder	0.9999828338623047
6319:6322	kmk	0.9999853372573853
7216:7221	lotte	0.9966225624084473
7223:7230	campino	0.9402129054069519
7235:7240	joris	0.9212061166763306
7396:7401	meute	0.9999353885650635
8063:8088	dresdner_verkehrsbetriebe	0.7850002646446228
8090:8093	dvb	0.9999679327011108
8378:8381	dvb	0.9997839331626892
10170:10185	sogehtsaechisch	0.5535622239112854
10186:10197	sk._sachsen	0.9998084604740143
10199:10201	de	0.5674939751625061
10395:10408	mittelsachsen	0.9999845027923584
10410:10413	vms	0.9999885559082031
10904:10913	regiobahn	0.9999591112136841
10971:10974	vms	0.9999715089797974
14521:14542	robert_koch-instituts	0.9999384880065918
15184:15195	ton_koopman	0.9999465346336365
15204:15231	amsterdam_baroque_orchestra	0.9999816020329794
16605:16615	tu_dresden	0.9999465346336365
16670:16676	verein	0.7271636724472046
16677:16696	aktion_zivilcourage	0.8995299935340881
