1521:1527	corona	0.9430820345878601
1633:1645	genialsozial	0.9339288473129272
2209:2229	wünschewagen_sachsen	0.9972458779811859
2748:2761	frankenberger	0.38640472292900085
9698:9715	so_geht_sächsisch	0.9989497661590576
10297:10312	corona-pandemie	0.6154170036315918
10936:10942	corona	0.9963854551315308
12339:12345	corona	0.9921433925628662
12677:12681	euro	0.9999825954437256
13006:13010	euro	0.9999850988388062
14870:14878	bachfest	0.9999758005142212
14959:14967	bachfest	0.9999688863754272
15028:15034	corona	0.9864208698272705
15311:15318	messias	0.9999186992645264
