62:69	sachsen	0.9999499320983887
237:242	polen	0.9999904632568359
253:258	polen	0.9999881982803345
1002:1009	sachsen	0.9999531507492065
1379:1386	sachsen	0.9999699592590332
1468:1475	sachsen	0.9999735355377197
1682:1695	vogtlandkreis	0.9999507665634155
1750:1757	leipzig	0.9999947547912598
1839:1847	sachsens	0.9418789148330688
3293:3300	dresden	0.9999945163726807
3425:3432	dresden	0.9999949932098389
3518:3529	deutschland	0.9999772310256958
3871:3878	leipzig	0.9999892711639404
4034:4041	leipzig	0.9999953508377075
4052:4059	leipzig	0.9999943971633911
4708:4715	dresden	0.9999940395355225
4748:4755	dresden	0.9999936819076538
5203:5208	messe	0.9998570680618286
5216:5224	heidenau	0.9999929666519165
5260:5276	dresden_hellerau	0.9998739063739777
5565:5572	sachsen	0.9999586343765259
5596:5603	sachsen	0.9993261098861694
5970:5977	sachsen	0.9999892711639404
6182:6190	sachsens	0.9815017580986023
6433:6444	oberlausitz	0.9999724626541138
6504:6511	görlitz	0.9999858140945435
6802:6825	zittau.forschungsgelder	0.9999121427536011
7117:7124	sachsen	0.9999831914901733
7541:7552	nordsachsen	0.9999850988388062
7682:7691	delitzsch	0.9999909400939941
7693:7702	eilenburg	0.9999740123748779
7704:7710	torgau	0.999970555305481
7712:7719	oschatz	0.9999597072601318
7721:7731	schkeuditz	0.9999731779098511
7736:7742	taucha	0.9999717473983765
7795:7806	spatzennest	0.5902886390686035
7845:7854	oschatzer	0.8367516994476318
7855:7871	kita_spatzennest	0.9333726167678833
8006:8013	sachsen	0.9911884069442749
8286:8296	tschechien	0.999987006187439
8318:8325	sachsen	0.9999169111251831
8453:8460	sohland	0.999966025352478
8474:8481	bautzen	0.9999872446060181
8960:8967	bautzen	0.99998939037323
9737:9742	pirna	0.9999814033508301
9793:9825	sächsische_schweiz_osterzgebirge	0.9992475509643555
10034:10041	sachsen	0.9999053478240967
10220:10227	dresden	0.9999946355819702
11169:11180	hoyerswerda	0.9980621933937073
11194:11206	lausitzhalle	0.999962329864502
11233:11244	hoyerswerda	0.9983086585998535
12017:12024	dresden	0.9999810457229614
12238:12248	tschechien	0.9999862909317017
12269:12276	sachsen	0.9986143112182617
12299:12309	tschechien	0.9999854564666748
12594:12601	oschatz	0.999453604221344
13141:13148	sachsen	0.9973912239074707
13311:13324	vogtlandkreis	0.9999812841415405
13339:13352	vogtlandkreis	0.999982476234436
13562:13573	treuen_eich	0.9999560713768005
14124:14131	sachsen	0.9999067783355713
14443:14451	chemnitz	0.9999902248382568
14453:14460	dresden	0.9999951124191284
14462:14472	sächsische	0.9999552965164185
14499:14506	görlitz	0.9999849796295166
