208:213	spahn	0.999988317489624
290:295	spahn	0.9999868869781494
458:463	spahn	0.9999924898147583
635:640	spahn	0.9999915361404419
2961:2974	martina_weber	0.9999945759773254
3061:3071	bruno_most	0.9999957084655762
3609:3616	sachsen	0.9921159148216248
4749:4767	michael_kretschmer	0.9999948740005493
5125:5136	bernd_lange	0.9999960064888
6426:6439	von_der_leyen	0.9999473889668783
7683:7693	dirk_vogel	0.9999961853027344
7872:7883	jan_kammerl	0.9999948143959045
8505:8516	hugo_zeberg	0.9999959468841553
8521:8533	svante_pääbo	0.9999935626983643
9653:9663	jan_blatny	0.9999958872795105
12206:12221	carla_hentschel	0.9999960064888
12395:12404	hentschel	0.9999810457229614
15570:15586	christian_piwarz	0.9999949336051941
15990:16005	eva_warmschmidt	0.9999948143959045
16281:16292	warmschmidt	0.999988317489624
17048:17063	marko_schiemann	0.9999951124191284
17168:17177	schiemann	0.5164257287979126
