text	types	tokens	types/tokens
21 :02	25	27	1.04
20 :59	64	79	1.2188
19:22	43	54	1.2326
18:55	52	66	1.25
18:42	97	110	1.1237
17:49	66	82	1.2273
17:49	88	97	1.0909
15:38	75	89	1.1733
14:36	70	85	1.2
14:04	66	77	1.1515
13:48	65	77	1.1692
13:30	72	80	1.0972
13:16	73	86	1.1644
12:50	96	116	1.1979
12:34	46	61	1.3043
12:17	89	113	1.2584
12:07	60	72	1.1833
11:56	39	44	1.1026
11:38	48	60	1.2292
11:10	90	115	1.2667
10:51	68	80	1.1618
08:22	58	67	1.1379
06:57	64	81	1.25
06:32	54	74	1.3519
05:49	65	74	1.1231
05:42	72	80	1.0972
05:31	29	34	1.1379
05:00	57	65	1.1228
