73:80	sachsen	0.9999085664749146
206:217	nordsachsen	0.9999921321868896
264:275	nordsachsen	0.9999940395355225
453:464	nordsachsen	0.9999940395355225
561:569	vogtland	0.9999837875366211
574:585	nordsachsen	0.9999905824661255
613:626	vogtlandkreis	0.999969482421875
847:855	vogtland	0.9999337196350098
881:892	nordsachsen	0.999990701675415
1056:1063	sachsen	0.9999760389328003
2360:2369	delitzsch	0.9999951124191284
2420:2429	delitzsch	0.9999943971633911
2709:2720	nordsachsen	0.9999624490737915
3200:3207	leipzig	0.9999936819076538
4645:4653	vogtland	0.9999303817749023
4709:4716	sachsen	0.9999651908874512
4954:4961	bautzen	0.9999713897705078
4963:4974	nordsachsen	0.9999837875366211
4990:5011	schweiz-osterzgebirge	0.6199897527694702
5055:5068	vogtlandkreis	0.9999836683273315
5124:5131	leipzig	0.9999935626983643
5151:5157	grimma	0.999993085861206
5213:5219	grimma	0.9999943971633911
5281:5295	muldentalhalle	0.9999828338623047
5661:5667	grimma	0.9999895095825195
5790:5798	vogtland	0.9999700784683228
5802:5808	plauen	0.9971407651901245
5900:5913	vogtlandkreis	0.9999756813049316
6263:6276	vogtlandkreis	0.9999114274978638
6496:6529	senckenberg-museum_für_naturkunde	0.9997174938519796
6533:6540	görlitz	0.9999887943267822
7031:7038	dresden	0.9999924898147583
7487:7494	sachsen	0.9936848282814026
7941:7948	bautzen	0.9999481439590454
8036:8043	bautzen	0.9999668598175049
9445:9452	dresden	0.9999938011169434
9486:9493	dresden	0.9999940395355225
9628:9636	altmarkt	0.9994139671325684
9973:9980	dresden	0.9999897480010986
10731:10740	karlsruhe	0.999983549118042
10990:11002	augustusburg	0.9999938011169434
11003:11015	augustusburg	0.999994158744812
11893:11901	sachsens	0.9689809679985046
12577:12584	sachsen	0.9999382495880127
13085:13092	sachsen	0.999951958656311
14491:14498	sachsen	0.9996010661125183
14673:14681	budapest	0.9999947547912598
14824:14845	ferenc-puskas-stadion	0.9999834299087524
15025:15032	england	0.99998939037323
15059:15065	grimma	0.9999871253967285
15093:15099	grimma	0.9999904632568359
15161:15175	muldentalhalle	0.9999812841415405
15526:15532	grimma	0.9999858140945435
17033:17040	dresden	0.999993085861206
17362:17370	radeberg	0.9999822378158569
17419:17427	radeberg	0.9999867677688599
17441:17448	bautzen	0.9999518394470215
18224:18231	sachsen	0.9999340772628784
18548:18555	leipzig	0.9999946355819702
19261:19268	bautzen	0.9999550580978394
19897:19904	dresden	0.9999946355819702
20087:20097	tschechien	0.999985933303833
20743:20754	deutschland	0.9999903440475464
20888:20901	mittelsachsen	0.9995005130767822
21155:21164	mittweida	0.9999852180480957
21166:21172	döbeln	0.9999819993972778
21177:21185	freiberg	0.9999904632568359
21530:21538	freiberg	0.9999871253967285
21631:21637	meißen	0.9999834299087524
21641:21647	meißen	0.9999899864196777
21784:21800	st._urbanskirche	0.9998478591442108
22018:22025	sachsen	0.9993133544921875
22137:22169	sächsische_schweiz-osterzgebirge	0.9997822642326355
22209:22216	sachsen	0.9780608415603638
22291:22297	meißen	0.9999681711196899
22820:22826	europa	0.9999912977218628
22828:22832	nord	0.9999470710754395
22838:22848	südamerika	0.9998387098312378
22850:22862	südost-asien	0.9999723434448242
22882:22896	mittelmeerraum	0.9978333115577698
23104:23109	pirna	0.9999793767929077
23191:23196	pirna	0.9999834299087524
23552:23560	radeberg	0.9999892711639404
23596:23603	bautzen	0.9999861717224121
23649:23657	radeberg	0.999991774559021
23705:23713	radeberg	0.9999910593032837
23715:23728	großröhrsdorf	0.9999796152114868
23730:23741	lichtenberg	0.9999929666519165
23743:23760	ottendorf-okrilla	0.9999839067459106
23762:23768	wachau	0.9999897480010986
23773:23781	arnsdorf	0.9999885559082031
23924:23932	radeberg	0.9999845027923584
23968:23975	bautzen	0.9999696016311646
24202:24209	bautzen	0.9996597766876221
24347:24357	ullersdorf	0.9999605417251587
24378:24386	radeberg	0.9999878406524658
