text	types	tokens	types/tokens
21:49	25	30	1.16
21:41	33	36	1.0606
21:31	40	41	1.0
21:01	85	101	1.1765
20:13	65	72	1.0923
19:58	64	78	1.2031
19:24	86	109	1.2558
19:09	89	112	1.2472
18:51	53	70	1.3019
18:38	60	74	1.2167
18:25	70	86	1.2143
18:10	36	44	1.1944
17:24	55	75	1.3455
17:03	55	67	1.2
16:46	46	52	1.1087
16:17	95	125	1.3053
15:54	42	53	1.2381
15:19	112	138	1.2232
14:58	81	107	1.3086
14:31	91	119	1.2967
14:02	80	96	1.1875
13:51	99	128	1.2828
13:28	55	66	1.1818
13:07	57	71	1.2281
12:54	43	52	1.186
12:22	68	78	1.1324
11:41	64	78	1.2031
11:12	30	32	1.0333
10:58	59	67	1.1186
10:50	39	47	1.1795
09:48	59	70	1.1695
09:04	55	60	1.0727
08:28	41	45	1.0732
08:17	76	86	1.1184
07:31	85	100	1.1647
07:04	47	58	1.2128
06:38	36	42	1.1389
06:14	67	78	1.1493
05:55	44	50	1.1136
05:34	84	106	1.25
05:21	58	69	1.1724
05:03	62	74	1.1774
