86:93	sachsen	0.7640628814697266
411:418	zwickau	0.999647855758667
750:760	tschechien	0.9999737739562988
1188:1195	sachsen	0.9997264742851257
1574:1581	leipzig	0.9999853372573853
1711:1718	sachsen	0.9996910095214844
1793:1800	sachsen	0.9998761415481567
2086:2118	sächsische_schweiz-osterzgebirge	0.9998745024204254
2145:2152	leipzig	0.9999951124191284
2893:2901	chemnitz	0.9999940395355225
3444:3451	leipzig	0.9999920129776001
3493:3500	leipzig	0.9999703168869019
3806:3815	mockrehna	0.9999575614929199
4377:4399	willmar-schwabe-straße	0.9999940395355225
4529:4536	sachsen	0.9999028444290161
4749:4756	leipzig	0.999995231628418
4761:4769	chemnitz	0.9999934434890747
4788:4799	nordsachsen	0.9999911785125732
5028:5035	görlitz	0.9999936819076538
5204:5211	görlitz	0.9999898672103882
5398:5405	sachsen	0.9998527765274048
5541:5548	sachsen	0.9995296001434326
5590:5597	sachsen	0.9997655749320984
5709:5716	sachsen	0.9999262094497681
6511:6521	tschechien	0.999977707862854
6673:6687	scharftenstein	0.9999749660491943
7125:7135	tschechien	0.999975323677063
7372:7379	görlitz	0.9999884366989136
7439:7446	görlitz	0.9999915361404419
8382:8392	tschechien	0.9999867677688599
8644:8651	zwickau	0.9999799728393555
9534:9543	stollberg	0.9999805688858032
10366:10376	marienberg	0.9999785423278809
11273:11280	sachsen	0.9985621571540833
11744:11757	mittelsachsen	0.9998507499694824
11766:11777	oberlausitz	0.9987313151359558
12028:12035	sachsen	0.9990468621253967
12301:12314	leipzig-halle	0.9999946355819702
12442:12449	leipzig	0.9276033043861389
13039:13044	borna	0.9999864101409912
13205:13212	dresden	0.998001754283905
13628:13636	leipzigs	0.9999874830245972
14509:14522	mittelsachsen	0.9998083710670471
14526:14534	freiberg	0.9999936819076538
14539:14548	mittweida	0.999990701675415
14900:14909	mittweida	0.9999910593032837
15210:15217	sachsen	0.9998248219490051
16372:16379	sachsen	0.9997879862785339
16568:16575	leipzig	0.9999938011169434
16577:16588	probstheida	0.9999889135360718
16623:16635	deutschlands	0.9999228715896606
17173:17183	marienberg	0.9999911785125732
17185:17200	erzgebirgskreis	0.5555701851844788
17765:17773	radeburg	0.9999940395355225
17778:17785	dresden	0.9999936819076538
19097:19114	annaberg-buchholz	0.9999908208847046
19144:19161	annaberg-buchholz	0.9999929666519165
20189:20196	sachsen	0.9998049139976501
