text	types	tokens	types/tokens
20:35	26	30	1.1154
19:58	52	66	1.25
19:32	40	49	1.2
19:21	65	81	1.2308
18:59	52	61	1.1538
17:41	63	80	1.254
17:23	53	66	1.2264
17:03	50	66	1.3
16:35	46	54	1.1522
16:27	85	105	1.2235
16:06	107	145	1.3458
15:56	90	113	1.2444
15:35	48	60	1.2292
14:23	45	54	1.1778
14:09	52	65	1.2308
14:01	60	70	1.15
13:47	80	102	1.2625
12:56	62	74	1.1774
12:14	33	39	1.1515
11:56	105	126	1.1905
11:37	48	58	1.1875
11:04	55	66	1.1818
10:36	43	50	1.1395
10:09	89	121	1.3483
08:50	71	85	1.1831
07:35	45	53	1.1556
07:21	63	65	1.0159
06:48	40	48	1.175
06:37	64	80	1.2344
06:10	101	134	1.3168
06:00	97	116	1.1856
05:51	41	47	1.122
05:33	64	72	1.1094
05:00	62	74	1.1774
