113:120	sachsen	0.9999072551727295
533:540	sachsen	0.9993126392364502
655:662	leipzig	0.9999918937683105
709:716	dresden	0.9999867677688599
735:742	bautzen	0.999977707862854
761:768	görlitz	0.9999878406524658
790:797	leipzig	0.9999936819076538
1010:1018	sachsens	0.9957782030105591
1769:1780	oberlausitz	0.9998199343681335
1854:1865	oberlausitz	0.9996494054794312
2084:2091	bautzen	0.9999197721481323
2949:2963	vogtland_arena	0.9998609721660614
3419:3426	sachsen	0.9202631115913391
3607:3616	rodewisch	0.9999854564666748
3809:3818	kirchberg	0.9999874830245972
3889:3898	kirchberg	0.9999854564666748
3912:3919	zwickau	0.9999822378158569
4848:4851	süd	0.6430542469024658
4875:4881	elster	0.9989402890205383
5721:5728	sachsen	0.9996423721313477
6054:6061	sachsen	0.9988319277763367
7557:7564	spanien	0.9999887943267822
7638:7645	spanien	0.9999880790710449
8231:8238	leipzig	0.9999927282333374
8357:8364	sachsen	0.999937891960144
8366:8380	sachsen-anhalt	0.999922513961792
8385:8394	thüringen	0.9999580383300781
8636:8644	jonsdorf	0.9999872446060181
8666:8674	jonsdorf	0.9999895095825195
9546:9551	spree	0.7933194041252136
9629:9639	tschechien	0.9999678134918213
9643:9653	tschechien	0.9999712705612183
10076:10083	sachsen	0.9998657703399658
10112:10119	sachsen	0.9999454021453857
10391:10398	zwickau	0.999968409538269
11660:11671	deutschland	0.9998654127120972
11944:11951	leipzig	0.9999879598617554
12197:12204	sachsen	0.99006187915802
