1461:1467	corona	0.8955315351486206
5583:5599	eu-corona-passes	0.9990178346633911
7838:7852	corona-podcast	0.9997449517250061
8169:8180	countee-app	0.9774647355079651
8854:8865	coronavirus	0.9857997894287109
9960:9966	corona	0.8767919540405273
10874:10896	sachsenring-grand-prix	0.9999916553497314
11326:11333	moto_gp	0.9996928870677948
