139:146	sachsen	0.9986479878425598
284:291	zwickau	0.999992847442627
1056:1063	bautzen	0.9999890327453613
1355:1363	freiberg	0.9999915361404419
1367:1375	freiberg	0.9999901056289673
1520:1530	albertpark	0.9998542070388794
2979:2991	margon-arena	0.9999793767929077
3056:3076	energieverbund-arena	0.9999712705612183
3150:3178	quarterback-immobilien-arena	0.9999794960021973
3483:3490	sachsen	0.9999678134918213
3530:3537	bergamo	0.9999783039093018
3546:3554	sachsens	0.6447165608406067
3689:3700	leipzig.das	0.99998939037323
3785:3790	turin	0.9997754693031311
4404:4411	sachsen	0.999945878982544
4589:4596	sachsen	0.9495332837104797
5840:5847	sachsen	0.9989116191864014
6069:6077	sachsens	0.9991472959518433
6371:6378	leipzig	0.5904750823974609
6382:6390	paulinum	0.999904990196228
6683:6691	vogtland	0.9999476671218872
6723:6736	vogtlandkreis	0.9999016523361206
7935:7953	limbach-oberfrohna	0.999994158744812
8000:8018	limbach-oberfrohna	0.9999896287918091
8647:8658	hoyerswerda	0.9999858140945435
9224:9231	sachsen	0.9998612403869629
9334:9341	sachsen	0.9997209906578064
9794:9799	pausa	0.9851904511451721
9937:9952	pausa-mühltroff	0.9999696016311646
10759:10770	leipzig.vor	0.9999815225601196
10991:11019	quarterback-immobilien-arena	0.9999700784683228
11061:11067	minden	0.9989988207817078
11962:11968	zittau	0.999974250793457
11977:11988	oberlausitz	0.9994631409645081
12263:12270	zittaus	0.9987956285476685
12464:12470	zittau	0.9999399185180664
12479:12490	oberlausitz	0.9994545578956604
12593:12599	meißen	0.99998939037323
12678:12684	meißen	0.9999904632568359
13742:13753	oberlausitz	0.9999325275421143
13955:13966	oberlausitz	0.999946117401123
14024:14031	görlitz	0.9999821186065674
14533:14544	deutschland	0.9999825954437256
15624:15631	leipzig	0.9999912977218628
15795:15802	leipzig	0.9999889135360718
16272:16279	sachsen	0.9999606609344482
16436:16443	sachsen	0.9887703657150269
17000:17014	südwestsachsen	0.9999845027923584
17468:17476	freiberg	0.9999769926071167
17718:17725	sachsen	0.9999314546585083
17902:17908	meißen	0.999974250793457
17910:17942	sächsische_schweiz-osterzgebirge	0.9992115795612335
17951:17959	vogtland	0.9999470710754395
18030:18041	deutschland	0.9999842643737793
