text	types	tokens	types/tokens
21:29	26	29	1.0769
21:13	46	53	1.1304
20:30	70	84	1.1857
20:04	79	106	1.3291
19:30	61	79	1.2787
19:02	61	83	1.3443
18:38	79	91	1.1392
17:39	42	49	1.1429
16:56	81	91	1.1111
16:38	52	64	1.2115
16:17	36	41	1.1111
15:39	72	82	1.125
15:15	50	58	1.14
14:35	54	60	1.0926
14:13	29	35	1.1724
13:46	74	91	1.2162
13:24	53	66	1.2264
12:50	49	59	1.1837
12:02	45	50	1.0889
11:36	36	41	1.1111
11:15	62	76	1.2097
10:31	66	79	1.1818
10:08	74	98	1.3108
09:12	62	72	1.1452
08:49	23	26	1.087
08:27	26	30	1.1154
07:36	74	92	1.2297
07:17	79	98	1.2278
06:51	27	30	1.0741
06:27	68	89	1.2941
05:52	86	99	1.1395
05:29	65	83	1.2615
05:10	51	63	1.2157
