194:212	mdr_sachsenspiegel	0.9999597668647766
1414:1436	leipziger_volkszeitung	0.9999750256538391
1438:1441	lvz	0.9999912977218628
2390:2410	robert_koch-institut	0.9998359382152557
2656:2659	rki	0.9999322891235352
2963:2976	chemnitzer_fc	0.9999853372573853
3014:3027	chemnitzer_fc	0.9999883770942688
3578:3581	cdu	0.9999866485595703
4120:4123	spd	0.9999858140945435
4368:4371	drk	0.9999904632568359
5198:5227	soziokulturelle_zentrum_telux	0.9969327052434286
6264:6278	kurt_schlosser	0.9994912445545197
6385:6396	mdr_sachsen	0.698946937918663
6969:6972	spd	0.9999828338623047
7470:7474	kita	0.9846402406692505
8579:8582	mdr	0.9650258421897888
9016:9031	aue-bad_schlema	0.6433522254228592
9814:9829	zwickauer_tafel	0.9976392984390259
