2158:2173	dagmar_neukirch	0.9999966621398926
3512:3518	wöller	0.9999434947967529
3563:3576	roland_wöller	0.9999963641166687
3738:3754	thomas_rechentin	0.9999962449073792
4103:4118	dagmar_neukirch	0.9999959468841553
6364:6378	holger_günzler	0.999996542930603
6545:6552	günzler	0.9999105930328369
6727:6734	günzler	0.9999738931655884
6952:6967	dagmar_neukirch	0.9999963641166687
7014:7030	thomas_rechentin	0.9999959468841553
7913:7920	geisler	0.9999756813049316
8117:8132	michael_geisler	0.9999951720237732
8556:8572	eric_gusenburger	0.9999958872795105
8815:8826	gusenburger	0.9999871253967285
