340:351	nordsachsen	0.9999914169311523
366:377	nordsachsen	0.9999934434890747
838:850	dorfchemnitz	0.9999262094497681
877:889	dorfchemnitz	0.999976634979248
963:972	crostwitz	0.9999927282333374
995:1002	bautzen	0.9999856948852539
1007:1022	großschweidnitz	0.9999929666519165
1045:1052	görlitz	0.9999890327453613
1257:1264	dresden	0.9932671785354614
2069:2076	sachsen	0.9999470710754395
2316:2323	sachsen	0.9999903440475464
2669:2676	sachsen	0.994465172290802
2759:2791	sächsische_schweiz-osterzgebirge	0.9998410046100616
3540:3548	sachsens	0.9992856383323669
3844:3851	sachsen	0.9999890327453613
3898:3905	sachsen	0.9999821186065674
4375:4382	sachsen	0.9997965693473816
4703:4717	südwestsachsen	0.9999803304672241
4807:4814	sachsen	0.9999470710754395
5053:5063	weißwasser	0.999870777130127
5100:5110	weißwasser	0.9999696016311646
5724:5734	weißwasser	0.9958851933479309
5788:5796	chemnitz	0.9999946355819702
5840:5848	chemnitz	0.9999947547912598
6283:6290	dresden	0.9999909400939941
6844:6851	dresden	0.9999932050704956
6902:6909	sachsen	0.9999779462814331
7189:7196	sachsen	0.9997908473014832
7355:7362	sachsen	0.999969482421875
7478:7481	aue	0.9990538954734802
7539:7542	aue	0.9996970891952515
7971:7989	sächsische_schweiz	0.9994736909866333
7992:8005	osterzgebirge	0.584293782711029
8583:8590	sachsen	0.6479188799858093
8614:8621	sachsen	0.9999359846115112
8975:8986	aue-schlema	0.9972555041313171
