87:94	sachsen	0.8621207475662231
244:251	boxdorf	0.9999891519546509
348:355	boxdorf	0.9999908208847046
360:370	moritzburg	0.9999934434890747
2195:2202	sachsen	0.9999350309371948
2303:2310	sachsen	0.9999668598175049
2517:2530	vogtlandkreis	0.9999467134475708
2574:2582	chemnitz	0.9999905824661255
2639:2646	dresden	0.9999918937683105
2674:2681	dresden	0.9999921321868896
3293:3300	leipzig	0.999994158744812
3480:3488	mannheim	0.999970555305481
4315:4331	dresden-chemnitz	0.9999926090240479
4506:4513	dresden	0.999994158744812
4989:4996	sachsen	0.9998767375946045
5036:5044	mannheim	0.9999654293060303
5078:5095	baden-württemberg	0.9999890327453613
5575:5582	sachsen	0.9999256134033203
5770:5777	görlitz	0.9999942779541016
5782:5789	bautzen	0.9999808073043823
5811:5818	görlitz	0.9999932050704956
5982:5989	bautzen	0.9999823570251465
6257:6264	görlitz	0.9999949932098389
6412:6425	mittelsachsen	0.999984860420227
6459:6472	mittelsachsen	0.994171679019928
7398:7405	dresden	0.9999936819076538
7491:7498	dresden	0.9999943971633911
8233:8240	sachsen	0.9999740123748779
8913:8920	sachsen	0.9999285936355591
9386:9400	hellersiedlung	0.9998588562011719
9466:9480	hellersiedlung	0.9999189376831055
9484:9491	dresden	0.9999918937683105
9524:9538	hellersiedlung	0.999907374382019
9793:9807	hellersiedlung	0.9986338019371033
9991:10000	heller.in	0.9998418092727661
11446:11453	görlitz	0.9999904632568359
11501:11506	polen	0.9999920129776001
12099:12106	leipzig	0.9999954700469971
13249:13260	deutschland	0.9992269277572632
14874:14882	vogtland	0.9999485015869141
14896:14903	görlitz	0.9999831914901733
15738:15745	colditz	0.9999710321426392
15788:15795	colditz	0.9999912977218628
16251:16258	neumark	0.9998898506164551
16262:16270	vogtland	0.9999643564224243
16801:16808	dresden	0.9999943971633911
16863:16870	dresden	0.9999940395355225
17259:17275	kita_märchenland	0.9819742739200592
17279:17288	bad_düben	0.9999726414680481
17292:17301	bad_düben	0.9999727606773376
17332:17348	kita_märchenland	0.8633736371994019
17796:17800	ssoe	0.9997889399528503
17819:17851	sächsische_schweiz-osterzgebirge	0.9998987317085266
18115:18122	sachsen	0.9999843835830688
18211:18218	sachsen	0.9999799728393555
18220:18234	sachsen-anhalt	0.9999785423278809
18239:18248	thüringen	0.9999877214431763
18362:18369	sachsen	0.9999724626541138
18407:18421	sachsen-anhalt	0.9999717473983765
18434:18443	thüringen	0.9999874830245972
19775:19782	sachsen	0.9999628067016602
