text	types	tokens	types/tokens
20:32	26	33	1.2308
20:28	82	102	1.2317
20:01	52	66	1.25
19:42	26	27	1.0
19:00	73	86	1.1644
18:50	46	55	1.1739
18:05	69	87	1.2464
17:47	42	50	1.1667
17:26	41	51	1.2195
17:19	32	35	1.0625
16:55	41	47	1.122
16:18	29	34	1.1379
16:05	42	46	1.0714
15:43	33	37	1.0909
15:35	57	77	1.3333
15:18	45	53	1.1556
14:42	90	117	1.2889
14:22	43	50	1.1395
13:32	43	48	1.093
13:13	73	89	1.2055
12:51	48	54	1.1042
12:27	106	125	1.1698
12:01	45	52	1.1333
11:29	91	111	1.2088
11:24	65	73	1.1077
10:36	75	86	1.1333
10:07	93	116	1.2366
09:41	73	87	1.1781
09:19	54	64	1.1667
08:31	66	79	1.1818
08:05	72	86	1.1806
07:49	66	78	1.1667
07:22	54	60	1.0926
06:50	143	200	1.3916
06:13	94	119	1.2553
05:44	79	96	1.2025
05:28	67	74	1.0896
05:13	26	30	1.1154
05:05	89	102	1.1348
