164:167	drk	0.9999873638153076
793:804	mdr_sachsen	0.9999020099639893
1243:1277	rodewischer_klinikums_obergöltzsch	0.9557992021242777
1988:1995	twitter	0.9969890713691711
3226:3229	mdr	0.7483839392662048
3623:3633	sächsische	0.8594740629196167
3634:3663	hotel_-_und_gaststättenverband	0.9360870718955994
3665:3671	dehoga	0.9999896287918091
3745:3751	dehoga	0.999977707862854
4270:4277	twitter	0.9994789958000183
5560:5571	drk_sachsen	0.9985681474208832
5914:5925	mdr_sachsen	0.7911965847015381
6045:6048	drk	0.9999890327453613
6510:6532	leipziger_volkszeitung	0.9989399313926697
7008:7011	cdu	0.9999865293502808
9190:9193	gew	0.9999716281890869
9268:9294	erziehung_und_wissenschaft	0.9951505859692892
9296:9299	gew	0.9999874830245972
10018:10038	robert-koch-institut	0.9999499320983887
10040:10043	rki	0.9999861717224121
10203:10210	lätzsch	0.999955415725708
10246:10253	lätzsch	0.9999779462814331
10428:10441	lätzsch_gmb_h	0.9995708068211874
10564:10570	corona	0.9999510049819946
10648:10655	lätzsch	0.999524712562561
11020:11039	deutsche_rote_kreuz	0.9999586741129557
11226:11229	drk	0.9999915361404419
11565:11586	robert-koch-instituts	0.9998770952224731
12164:12195	verkehrsverbundes_mittelsachsen	0.9999015927314758
12743:12754	heide_säfte	0.9993032217025757
13831:13834	cdu	0.9999856948852539
15325:15328	cdu	0.999987006187439
15561:15572	zdf.wichtig	0.99996018409729
15755:15759	bund	0.6258450746536255
16516:16536	robert-koch-institut	0.9999680519104004
16657:16660	rki	0.9997084736824036
16898:16902	bund	0.9998395442962646
17233:17247	handelsverband	0.9999375343322754
17308:17310	2g	0.747636616230011
18190:18216	meyer_burger_technology_ag	0.9999820291996002
18840:18843	spd	0.9999876022338867
18845:18850	grüne	0.9999817609786987
18855:18858	fdp	0.9999821186065674
