834:851	dresden_marketing	0.9999797940254211
866:869	dmg	0.9999903440475464
1038:1049	astrazeneca	0.999578058719635
1117:1156	frankfurter_allgemeinen_sonntagszeitung	0.9074537754058838
1189:1200	astrazeneca	0.9954130053520203
1551:1562	biontech.im	0.9995250701904297
3261:3268	spiegel	0.9999487400054932
8918:8941	sachsens_handelsverband	0.9990035593509674
8963:8986	sachsens_handelsverband	0.9990938901901245
11354:11363	kontraste	0.999822199344635
11652:11675	handwerkskammer_dresden	0.9997274875640869
13597:13619	semper_opernball_e._v.	0.9997965097427368
13678:13695	semper_opernballs	0.9998151957988739
13789:13819	bundesamt_für_arzneimittel_und	0.9999276399612427
