73:80	sachsen	0.9972578883171082
592:599	dresden	0.9999921321868896
645:652	dresden	0.9999948740005493
661:668	elbland	0.9997105002403259
757:764	dresden	0.9999926090240479
2076:2084	sachsens	0.9999449253082275
2177:2184	leipzig	0.9999922513961792
2203:2210	zwickau	0.9999854564666748
2319:2351	sächsische_schweiz-osterzgebirge	0.8646551668643951
2367:2378	nordsachsen	0.9999886751174927
2394:2401	bautzen	0.9999673366546631
2410:2423	vogtlandkreis	0.9999635219573975
2465:2472	sachsen	0.9997616410255432
2641:2648	sachsen	0.9997181296348572
2740:2747	leipzig	0.9999618530273438
2917:2924	leipzig	0.9999896287918091
3166:3172	berlin	0.9999936819076538
3370:3377	leipzig	0.9999939203262329
4051:4059	chemnitz	0.9999892711639404
5249:5259	tschechien	0.9999806880950928
5263:5273	tschechien	0.9999876022338867
5370:5374	prag	0.9996604919433594
5654:5664	tschechien	0.9999899864196777
5774:5781	görlitz	0.9999784231185913
5830:5837	görlitz	0.9999891519546509
6045:6052	görlitz	0.9999891519546509
6204:6211	görlitz	0.999990701675415
7297:7305	vogtland	0.9999371767044067
7310:7323	vogtlandkreis	0.9971258044242859
7622:7630	vogtland	0.9999665021896362
8034:8040	plauen	0.9999219179153442
8053:8063	elsterberg	0.9999814033508301
8130:8140	tschechien	0.9999923706054688
8229:8239	tschechien	0.9999921321868896
8432:8442	tschechien	0.9999841451644897
8494:8505	deutschland	0.9998819828033447
8732:8742	tschechien	0.999992847442627
8781:8784	eu.	0.5680460929870605
9338:9345	sachsen	0.9852046966552734
9891:9898	dresden	0.9999946355819702
9950:9957	dresden	0.9999829530715942
10653:10685	sächsische_schweiz-osterzgebirge	0.999347984790802
10702:10734	sächsische_schweiz-osterzgebirge	0.9358906447887421
11003:11017	dippoldiswalde	0.999990701675415
11019:11028	bannewitz	0.999993085861206
11030:11038	neustadt	0.9999938011169434
11043:11051	heidenau	0.9999945163726807
11095:11102	sachsen	0.9998468160629272
11172:11179	sachsen	0.9999449253082275
12786:12793	dresden	0.9999954700469971
12975:12982	sachsen	0.9999852180480957
13987:13994	europas	0.9999512434005737
14149:14157	vogtland	0.999947190284729
14209:14217	vogtland	0.9999504089355469
14313:14324	klingenthal	0.9999837875366211
14444:14448	eich	0.9998414516448975
