1063:1077	matthias_barth	0.9999955892562866
3201:3208	winkler	0.9999628067016602
3400:3415	hermann_winkler	0.9995352327823639
3966:3982	thomas_grünewald	0.9999962449073792
4572:4581	grünewald	0.9999871253967285
5198:5212	kerstin_köditz	0.9999962449073792
7596:7607	lorenz_bahr	0.9999959468841553
7929:7933	bahr	0.9999780654907227
8500:8510	kretschmer	0.999966025352478
8600:8618	michael_kretschmer	0.9999966025352478
9306:9316	jan_vogler	0.9999961256980896
9717:9723	vogler	0.9999674558639526
9725:9731	vogler	0.9967188239097595
11429:11444	thomas_geithner	0.9999963045120239
13400:13413	petra_köpping	0.9999956488609314
13733:13744	kai_kranich	0.9999955892562866
13925:13932	kranich	0.9999099969863892
14165:14183	johannes_schweizer	0.9999936819076538
14575:14595	stefan_hammerschmidt	0.9999951720237732
