430:440	kretschmer	0.9999890327453613
512:530	michael_kretschmer	0.9999960064888
1241:1253	thilo_daniel	0.9999954104423523
1304:1315	tobias_bilz	0.9999960064888
2438:2456	michael_kretschmer	0.9999955296516418
4287:4301	jörg_schneider	0.9999628067016602
6590:6611	karl_schmidt-rottluff	0.9999942779541016
8542:8557	sabine_hartmann	0.9999963045120239
8589:8611	brigitte_steigenberger	0.9999933838844299
11883:11888	dulig	0.9996751546859741
11958:11970	martin_dulig	0.9787348210811615
12405:12410	dulig	0.9528058767318726
12469:12482	hubertus_heil	0.9999960660934448
12645:12662	markus_schlimbach	0.9999946355819702
