text	types	tokens	types/tokens
20:36	19	25	1.2632
20:21	27	31	1.1111
19:17	51	55	1.0588
18:39	70	91	1.2857
18:02	69	85	1.2174
16:40	44	48	1.0682
16:00	35	40	1.1143
15:20	73	90	1.2192
14:28	29	31	1.0345
13:54	62	76	1.2097
13:10	77	104	1.3377
12:10	55	66	1.1818
11:45	82	102	1.2317
11:15	76	90	1.1711
10:55	43	47	1.0698
09:58	53	58	1.0755
08:32	91	112	1.2198
07:00	34	38	1.0882
06:50	54	59	1.0741
06:10	38	42	1.0789
05:40	70	86	1.2143
05:31	57	68	1.1754
05:10	87	111	1.2644
