1921:1927	corona	0.9998216032981873
2176:2180	euro	0.9999746084213257
2227:2238	coronavirus	0.9999309778213501
2427:2432	covax	0.9991427659988403
2465:2469	euro	0.999984860420227
3044:3063	click_&_amp_;_collect	0.9791580557823181
3128:3147	click_&_amp_;_collect	0.9990684866905213
17579:17590	coronavirus	0.8925621509552002
