914:919	stiko	0.9998513460159302
3589:3620	drk-blutspendedienstes_nord-ost	0.9999093413352966
3656:3716	max-planck-instituts_für_molekulare_zellbiologie_und_genetik	0.9999216496944427
3937:3967	ludwig-maximilians-universität	0.9994238615036011
4199:4210	mdr_sachsen	0.9999686479568481
4510:4521	mdr_sachsen	0.9999653100967407
6904:6911	novavax	0.962557852268219
7328:7335	novavax	0.9999649524688721
7703:7706	cdu	0.9999889135360718
