85:92	sachsen	0.9999129772186279
1156:1163	sachsen	0.9999676942825317
1198:1206	sachsens	0.9965221881866455
2247:2254	leipzig	0.99998939037323
2428:2435	leipzig	0.9999927282333374
2481:2488	franken	0.9999563694000244
2550:2557	leipzig	0.999992847442627
2735:2742	leipzig	0.9999924898147583
2774:2781	sachsen	0.9414269924163818
3640:3647	dresden	0.9999833106994629
4803:4808	na_to	0.9999597072601318
4812:4819	leipzig	0.9999926090240479
4926:4935	fockeberg	0.9999711513519287
5100:5111	fockestraße	0.9999845027923584
5774:5781	sachsen	0.9998346567153931
6004:6011	dresden	0.9999943971633911
6279:6287	chemnitz	0.9999940395355225
6347:6355	freiberg	0.9999943971633911
6376:6383	leipzig	0.9999943971633911
6385:6392	bautzen	0.999990701675415
6397:6404	görlitz	0.9999889135360718
6432:6440	vogtland	0.9999223947525024
6458:6464	meißen	0.9999719858169556
6589:6597	pillnitz	0.999972939491272
6672:6680	kamelien	0.9987649917602539
6704:6712	pillnitz	0.9999743700027466
6936:6947	deutschland	0.9996126294136047
