639:655	sebastian_gemkow	0.9999964237213135
996:1009	angela_merkel	0.9999956488609314
1229:1235	merkel	0.9999842643737793
1490:1496	merkel	0.9999915361404419
2493:2504	stefan_fink	0.9999962449073792
2809:2825	fink.hintergrund	0.9999687671661377
3563:3574	stefan_fink	0.9999964237213135
5960:5976	winfried_stöcker	0.9999943375587463
6361:6368	stöcker	0.999923586845398
6640:6655	bettina_belkner	0.9999935626983643
7155:7170	klaus_heckemann	0.9999959468841553
8623:8642	tina_turner.gestern	0.9999860525131226
