280:286	kekulé	0.9996223449707031
354:370	alexander_kekulé	0.9999960064888
459:465	kekulé	0.9996305704116821
4969:4983	ulf_sengebusch	0.9999945163726807
5447:5461	marek_janowski	0.9999958872795105
8432:8445	susanne_johna	0.999995768070221
8645:8659	sabine_dittmar	0.9999940991401672
8811:8822	tobias_hans	0.9999958276748657
10514:10528	steffen_thiele	0.999992311000824
