1957:1968	mdr_sachsen	0.9999456405639648
2827:2830	afd	0.9999864101409912
3844:3847	ovg	0.9075670838356018
4472:4482	mdr_wissen	0.9997148513793945
4708:4711	ovg	0.9997486472129822
6082:6085	rki	0.9998772144317627
6367:6370	gew	0.9999806880950928
6399:6411	gewerkschaft	0.6719849109649658
6412:6438	erziehung_und_wissenschaft	0.999498983224233
6440:6443	gew	0.999988317489624
8203:8214	mdr_sachsen	0.842462420463562
8534:8564	redaktionsnetzwerk_deutschland	0.9997780323028564
9030:9033	ovg	0.9812832474708557
9627:9645	chemnitz_steht_auf	0.9999798933664957
10021:10046	gerhart-hauptmann-theater	0.9545078277587891
10714:10732	bsg_chemie_leipzig	0.9999869267145792
10743:10754	fsv_zwickau	0.9999884366989136
10761:10774	chemnitzer_fc	0.9999865889549255
10781:10794	vf_b_auerbach	0.99998672803243
10799:10802	mdr	0.8095195889472961
10840:10857	sg_dynamo_dresden	0.9999872446060181
10864:10882	bischofswerdaer_fv	0.999987781047821
10967:10971	htwk	0.7949909567832947
10987:11040	hochschule_für_technik_,_wirtschaft_und_kultur_leipzig	0.9999711960554123
11042:11046	htwk	0.9999862909317017
11110:11114	zoom	0.9998131394386292
11402:11414	htwk_leipzig	0.9958491325378418
11703:11707	htwk	0.9999866485595703
11761:11765	bild	0.9999337196350098
11928:11940	bild-zeitung	0.9999526739120483
12044:12064	robert-koch-institut	0.9999581575393677
12630:12651	johnson_&_amp_;_johnson	0.9999532699584961
12704:12725	johnson_&_amp_;_johnson	0.9998965859413147
12900:12921	johnson_&_amp_;_johnson	0.9999280095100402
13321:13332	ihk_dresden	0.7827619016170502
13362:13398	industrie_-_und_handelskammer_dresden	0.9981631636619568
13626:13629	ihk	0.9999557733535767
13790:13793	ihk	0.9999520778656006
15390:15396	bundes	0.6738802790641785
