text	types	tokens	types/tokens
20:50	33	38	1.1212
20:33	75	92	1.2133
20:11	29	34	1.1379
20:00	85	107	1.2471
19:27	69	84	1.2029
18:38	62	72	1.1452
18:11	26	27	1.0
17:21	96	122	1.2604
17:02	81	96	1.1728
16:39	84	109	1.2857
16:08	69	79	1.1304
15:41	68	86	1.25
15:07	61	81	1.3115
14:50	69	83	1.1884
14:29	71	78	1.0845
14:04	77	99	1.2727
13:5013:25	63	81	1.2698
12:46	64	78	1.2031
12:04	95	114	1.1895
11:40	57	73	1.2632
11:12	23	27	1.1304
10:53	75	82	1.08
10:19	43	52	1.186
09:56	64	76	1.1719
09:20	73	89	1.2055
08:41	60	74	1.2167
08:09	56	71	1.25
07:31	42	49	1.1429
07:22	77	92	1.1818
06:47	47	58	1.2128
06:15	56	61	1.0714
05:54	53	63	1.1698
05:28	59	69	1.1525
05:17	55	63	1.1273
05:08	61	69	1.1148
