203:210	sachsen	0.9998012185096741
355:363	chemnitz	0.9999938011169434
384:391	bautzen	0.9999735355377197
393:404	nordsachsen	0.9999837875366211
406:438	sächsische_schweiz-osterzgebirge	0.999920129776001
447:462	erzgebirgskreis	0.9963089823722839
687:695	chemnitz	0.9999923706054688
720:728	chemnitz	0.9999918937683105
1052:1073	museum_für_naturkunde	0.9992780884106954
1214:1222	chemnitz	0.9999936819076538
1282:1289	sachsen	0.9999712705612183
1380:1387	dresden	0.9999945163726807
2209:2220	deutschland	0.9999809265136719
2256:2265	wiesbaden	0.9999945163726807
2851:2858	leipzig	0.9999940395355225
2939:2948	karlsruhe	0.9999947547912598
4396:4403	bautzen	0.9999754428863525
4417:4424	bautzen	0.9999809265136719
4652:4669	steinigtwolmsdorf	0.9999843835830688
4672:4679	radibor	0.999980092048645
4682:4693	elsterheide	0.9999837875366211
4698:4714	schmölln-putzkau	0.9999788999557495
5107:5116	mittweida	0.9999916553497314
5209:5218	mittweida	0.9999920129776001
5220:5228	freiberg	0.9999924898147583
5233:5241	chemnitz	0.9999934434890747
5470:5479	lengefeld	0.9999388456344604
5495:5509	großbritannien	0.9999934434890747
5590:5597	england	0.999990701675415
6277:6284	sachsen	0.9933248162269592
6441:6448	sachsen	0.9988232254981995
7133:7140	sachsen	0.9997268319129944
7406:7419	leipzig_halle	0.9999578595161438
8094:8105	deutschland	0.9993554949760437
8114:8128	frankfurt_main	0.9999101161956787
8133:8139	europa	0.9997935891151428
8187:8194	leipzig	0.999985933303833
8303:8308	tokio	0.9999940395355225
8374:8381	leipzig	0.999990701675415
8766:8773	dresden	0.9999961853027344
8817:8824	sachsen	0.9994078874588013
9035:9042	dresden	0.9999969005584717
9316:9323	sachsen	0.9997610449790955
9643:9650	sachsen	0.7250642776489258
10028:10035	sachsen	0.9999761581420898
10430:10437	dresden	0.9999951124191284
10483:10490	dresden	0.999995231628418
11125:11135	tschechien	0.9999874830245972
11272:11276	prag	0.9999288320541382
