2021-05-03	9527:9530	aok	0.9999772310256958
2021-06-29	6309:6312	aok	0.9998890161514282
2021-07-02	1139:1142	aok	0.9999877214431763
2021-07-05	10492:10495	aok	0.9999862909317017
2022-01-19	5025:5028	aok	0.9999877214431763
2022-01-19	5488:5491	aok	0.9999798536300659
2022-02-23	4824:4827	aok	0.9999778270721436
