2021-02-10	17646:17649	asb	0.999990701675415
2021-03-12	3699:3702	asb	0.999990701675415
2021-03-17	9419:9422	asb	0.9997058510780334
2021-04-08	5316:5319	asb	0.9999898672103882
2021-07-01	5051:5054	asb	0.9999871253967285
2021-12-08	7834:7837	asb	0.999990701675415
2021-12-09	12362:12365	asb	0.9999854564666748
2022-02-24	2822:2825	asb	0.9999834299087524
