2021-01-14	7417:7423	bundes	0.8320692777633667
2021-01-14	8270:8276	bundes	0.9826620817184448
2021-01-20	6978:6984	bundes	0.9324953556060791
2021-01-20	7030:7036	bundes	0.9766022562980652
2021-02-01	522:528	bundes	0.9996473789215088
2021-02-05	2885:2891	bundes	0.9969184398651123
2021-02-09	1918:1924	bundes	0.98630291223526
2021-03-15	7229:7235	bundes	0.9958683252334595
2021-03-29	9329:9335	bundes	0.9998674392700195
2021-04-12	1340:1346	bundes	0.9998972415924072
2021-04-12	14169:14175	bundes	0.9999831914901733
2021-04-15	8883:8889	bundes	0.8737530708312988
2021-04-15	15724:15730	bundes	0.9998775720596313
2021-04-20	4405:4411	bundes	0.9999392032623291
2021-04-20	15498:15504	bundes	0.998306155204773
2021-04-24	15390:15396	bundes	0.6738802790641785
2021-04-27	17987:17993	bundes	0.9999743700027466
2021-05-04	7687:7693	bundes	0.9997856020927429
2021-05-11	8538:8544	bundes	0.9120116829872131
2021-05-11	13593:13599	bundes	0.9999605417251587
2021-05-15	9055:9061	bundes	0.9999717473983765
2021-05-18	6827:6833	bundes	0.538800060749054
2021-05-18	8131:8137	bundes	0.830173134803772
2021-05-19	11811:11817	bundes	0.9964447617530823
2021-05-27	13920:13926	bundes	0.999897837638855
2021-06-01	5432:5438	bundes	0.8799551725387573
2021-06-02	4724:4730	bundes	0.679633378982544
2021-06-18	9961:9967	bundes	0.9965952038764954
2021-11-15	13359:13365	bundes	0.9999821186065674
2021-11-17	12362:12368	bundes	0.9994422793388367
2021-11-29	13151:13157	bundes	0.9982938170433044
2021-12-06	3319:3325	bundes	0.7630655765533447
