2021-02-09	4701:4718	bundesagentur_für	0.9999701976776123
2021-02-22	15439:15456	bundesagentur_für	0.9999796152114868
2021-07-13	7966:7983	bundesagentur_für	0.9999579191207886
2021-07-14	7915:7932	bundesagentur_für	0.999970018863678
2021-12-29	3245:3262	bundesagentur_für	0.9999560713768005
2022-03-02	5019:5036	bundesagentur_für	0.9999762177467346
