2021-03-26	3944:3962	chemnitz_steht_auf	0.8044882814089457
2021-03-27	2356:2374	chemnitz_steht_auf	0.9998762408892313
2021-04-22	9456:9474	chemnitz_steht_auf	0.9999765157699585
2021-04-24	9627:9645	chemnitz_steht_auf	0.9999798933664957
