2021-04-09	21405:21421	das_sachsenradio	0.9964216947555542
2021-04-12	20719:20735	das_sachsenradio	0.6785084009170532
2021-04-13	21231:21247	das_sachsenradio	0.9975410103797913
2021-04-14	20152:20168	das_sachsenradio	0.9983216524124146
