2021-01-13	7006:7020	dehoga_sachsen	0.9629368185997009
2021-01-13	7102:7116	dehoga_sachsen	0.99994957447052
2021-03-02	17078:17092	dehoga_sachsen	0.9994108080863953
2021-04-30	7201:7215	dehoga_sachsen	0.9999228715896606
2021-05-06	12944:12958	dehoga_sachsen	0.9999402165412903
2021-12-09	15652:15666	dehoga_sachsen	0.9999716877937317
