2021-07-22	2884:2909	deutsche_apothekerverband	0.9999447464942932
2021-07-22	3318:3343	deutsche_apothekerverband	0.9994461536407471
2021-07-23	1324:1349	deutsche_apothekerverband	0.9999738931655884
2021-12-15	7524:7549	deutsche_apothekerverband	0.9999741315841675
