2021-02-16	14659:14670	deutschland	0.999981164932251
2021-04-08	16447:16458	deutschland	0.9077104330062866
2021-04-18	5697:5708	deutschland	0.47995612025260925
2021-04-29	15992:16003	deutschland	0.9466549754142761
2021-12-27	4877:4888	deutschland	0.9886576533317566
