2021-05-03	15533:15606	deutschen_interdisziplinären_vereinigung_für_intensiv_-_und_notfallmedizin	0.9999608546495438
2021-12-07	17020:17093	deutschen_interdisziplinären_vereinigung_für_intensiv_-_und_notfallmedizin	0.9999368339776993
2021-12-09	19813:19886	deutschen_interdisziplinären_vereinigung_für_intensiv_-_und_notfallmedizin	0.9999805092811584
