2021-02-22	4816:4850	deutsch-tschechische_zukunftsfonds	0.9980415999889374
2021-02-24	17981:18015	deutsch-tschechische_zukunftsfonds	0.8407352566719055
2021-06-03	5211:5245	deutsch-tschechische_zukunftsfonds	0.9868342578411102
