2021-01-08	13671:13682	dgb_sachsen	0.8721407055854797
2021-01-12	11779:11790	dgb_sachsen	0.9691040515899658
2021-03-24	13399:13410	dgb_sachsen	0.9929086565971375
2021-03-24	13455:13466	dgb_sachsen	0.9823896288871765
