2021-02-20	9303:9307	dlrg	0.9999891519546509
2021-02-20	9400:9404	dlrg	0.9999921321868896
2021-04-23	6139:6143	dlrg	0.9999885559082031
2021-05-16	3883:3887	dlrg	0.999993085861206
2021-05-16	3973:3977	dlrg	0.999990701675415
2021-05-16	4075:4079	dlrg	0.9999918937683105
2022-01-13	12704:12708	dlrg	0.9999904632568359
