2021-01-27	9898:9914	dresden_nazifrei	0.999057412147522
2021-02-03	3824:3840	dresden_nazifrei	0.9998498260974884
2021-02-07	5230:5246	dresden_nazifrei	0.9997011125087738
2021-04-10	14105:14121	dresden_nazifrei	0.9990301132202148
