2021-04-19	14018:14025	envia_m	0.9996041357517242
2021-04-27	13616:13623	envia_m	0.99993896484375
2021-04-28	10637:10644	envia_m	0.9999808073043823
2021-04-28	10736:10743	envia_m	0.9999851584434509
2021-04-28	11028:11035	envia_m	0.9999843239784241
