2021-02-13	9892:9905	eu-kommission	0.904374897480011
2021-02-23	15496:15509	eu-kommission	0.8289397358894348
2021-05-31	3244:3257	eu-kommission	0.8897340893745422
2022-02-03	2102:2115	eu-kommission	0.9925733804702759
2022-02-03	2163:2176	eu-kommission	0.8710840344429016
