2021-03-18	10644:10675	europäische_arzneimittelagentur	0.9999498724937439
2021-03-23	10980:11011	europäische_arzneimittelagentur	0.9981570839881897
2021-11-25	10670:10701	europäische_arzneimittelagentur	0.999965488910675
2021-12-20	8482:8513	europäische_arzneimittelagentur	0.9999663829803467
