2021-03-12	7760:7792	europäischen_arzneimittelbehörde	0.9585905075073242
2021-04-22	12112:12144	europäischen_arzneimittelbehörde	0.9999701380729675
2021-06-07	6994:7026	europäischen_arzneimittelbehörde	0.9700780510902405
