2021-03-17	15548:15555	flixbus	0.9997550845146179
2021-03-17	15600:15607	flixbus	0.9990045428276062
2021-03-25	18715:18722	flixbus	0.9996010661125183
2021-03-25	18792:18799	flixbus	0.9999592304229736
2021-06-16	3061:3068	flixbus	0.9999136924743652
2021-06-25	2440:2447	flixbus	0.7674477100372314
