2021-04-18	7643:7668	hochschule_zittau_görlitz	0.9666203260421753
2021-04-18	7716:7741	hochschule_zittau_görlitz	0.9438621203104655
2021-05-18	13284:13309	hochschule_zittau_görlitz	0.9999627669652303
2021-05-18	13339:13364	hochschule_zittau_görlitz	0.9999765157699585
