2021-12-03	3634:3663	hotel_-_und_gaststättenverband	0.9360870718955994
2021-12-13	8098:8127	hotel_-_und_gaststättenverband	0.9032229632139206
2022-03-02	6397:6426	hotel_-_und_gaststättenverband	0.9987963438034058
