2021-05-18	11236:11273	industrie_-_und_handelskammer_chemnitz	0.9997925877571106
2021-07-02	8568:8605	industrie_-_und_handelskammer_chemnitz	0.9979644060134888
2021-07-05	5791:5828	industrie_-_und_handelskammer_chemnitz	0.9998879671096802
2022-01-13	5043:5080	industrie_-_und_handelskammer_chemnitz	0.999846363067627
2022-01-25	2475:2512	industrie_-_und_handelskammer_chemnitz	0.9934061169624329
2022-01-26	6716:6753	industrie_-_und_handelskammer_chemnitz	0.9998586535453796
2022-02-15	6369:6406	industrie_-_und_handelskammer_chemnitz	0.999533724784851
2022-02-16	7803:7840	industrie_-_und_handelskammer_chemnitz	0.9997979998588562
