2021-01-25	17181:17191	johanniter	0.9948126077651978
2021-01-25	17480:17490	johanniter	0.9936186075210571
2021-01-27	16667:16677	johanniter	0.9802083969116211
2021-03-22	18166:18176	johanniter	0.8174499869346619
2021-03-23	12969:12979	johanniter	0.9999767541885376
2021-03-23	13041:13051	johanniter	0.9998335838317871
2021-04-08	5361:5371	johanniter	0.999966025352478
2021-05-25	14675:14685	johanniter	0.9999092817306519
2021-05-25	14753:14763	johanniter	0.9999223947525024
2021-12-08	7842:7852	johanniter	0.9999810457229614
2021-12-09	12371:12381	johanniter	0.9999175071716309
2022-01-24	7238:7248	johanniter	0.7957506775856018
