2021-02-03	7268:7310	konferenz_sächsischer_studierendenschaften	0.9986919164657593
2021-03-11	8358:8400	konferenz_sächsischer_studierendenschaften	0.9725403785705566
2021-06-15	8497:8539	konferenz_sächsischer_studierendenschaften	0.999973734219869
2021-11-23	10661:10703	konferenz_sächsischer_studierendenschaften	0.9345756570498148
