2021-02-18	11463:11485	kreissparkasse_bautzen	0.9998700618743896
2021-02-18	11490:11512	kreissparkasse_bautzen	0.9999279975891113
2021-03-01	232:254	kreissparkasse_bautzen	0.9999563694000244
2021-03-01	282:304	kreissparkasse_bautzen	0.999980628490448
