2021-03-04	8275:8297	landestourismusverband	0.9862964153289795
2021-05-01	3712:3734	landestourismusverband	0.9993636012077332
2021-05-28	15406:15428	landestourismusverband	0.8978056907653809
2022-01-25	1278:1300	landestourismusverband	0.999365508556366
2022-02-15	7644:7666	landestourismusverband	0.9999788999557495
