2021-01-21	23467:23470	lka	0.9999855756759644
2021-01-21	23606:23609	lka	0.9999866485595703
2021-06-28	2365:2368	lka	0.9999891519546509
2021-12-16	1314:1317	lka	0.9999901056289673
2021-12-16	1387:1390	lka	0.9999892711639404
2022-01-31	1691:1694	lka	0.9999895095825195
