2021-01-13	18554:18557	lsb	0.9999898672103882
2021-02-04	6183:6186	lsb	0.9999912977218628
2021-02-24	320:323	lsb	0.9999926090240479
2021-02-24	745:748	lsb	0.9999911785125732
2021-02-24	897:900	lsb	0.9999878406524658
2021-02-24	1211:1214	lsb	0.9999854564666748
2021-03-02	25150:25153	lsb	0.9999912977218628
2021-03-12	13252:13255	lsb	0.9999908208847046
2021-03-12	13825:13828	lsb	0.9999904632568359
2021-03-18	2374:2377	lsb	0.9999912977218628
2021-04-22	7355:7358	lsb	0.9999914169311523
2021-05-31	2279:2282	lsb	0.9999852180480957
2022-02-11	4083:4086	lsb	0.9999920129776001
