2021-02-03	10640:10649	lufthansa	0.9999823570251465
2021-02-24	13006:13015	lufthansa	0.999985933303833
2021-03-04	13391:13400	lufthansa	0.999988317489624
2021-03-04	13423:13432	lufthansa	0.9999865293502808
2021-03-14	6490:6499	lufthansa	0.9999794960021973
2021-06-08	7295:7304	lufthansa	0.9999843835830688
2021-06-08	9834:9843	lufthansa	0.9999865293502808
2021-06-28	5472:5481	lufthansa	0.9999872446060181
2021-06-28	5614:5623	lufthansa	0.999984860420227
2021-07-14	6704:6713	lufthansa	0.9999794960021973
2021-07-14	6940:6949	lufthansa	0.9999856948852539
2022-01-07	9203:9212	lufthansa	0.9999897480010986
