2021-01-07	18952:18970	mdr_sachsenspiegel	0.8275258839130402
2021-01-08	3474:3492	mdr_sachsenspiegel	0.9983415007591248
2021-01-11	639:657	mdr_sachsenspiegel	0.9999045729637146
2021-01-12	18418:18436	mdr_sachsenspiegel	0.9985352158546448
2021-01-15	2062:2080	mdr_sachsenspiegel	0.8911115825176239
2021-01-18	14224:14242	mdr_sachsenspiegel	0.9944088757038116
2021-01-19	632:650	mdr_sachsenspiegel	0.9996433854103088
2021-01-25	10622:10640	mdr_sachsenspiegel	0.9999592900276184
2021-02-10	984:1002	mdr_sachsenspiegel	0.999937891960144
2021-02-10	17372:17390	mdr_sachsenspiegel	0.9999433159828186
2021-02-17	16630:16648	mdr_sachsenspiegel	0.9999622702598572
2021-02-22	401:419	mdr_sachsenspiegel	0.9998680949211121
2021-03-02	25309:25327	mdr_sachsenspiegel	0.999954342842102
2021-04-09	21469:21487	mdr_sachsenspiegel	0.9233303964138031
2021-04-10	888:906	mdr_sachsenspiegel	0.9999118447303772
2021-04-12	20783:20801	mdr_sachsenspiegel	0.8631662130355835
2021-04-13	21295:21313	mdr_sachsenspiegel	0.9986276030540466
2021-04-21	2167:2185	mdr_sachsenspiegel	0.9999681115150452
2021-05-25	663:681	mdr_sachsenspiegel	0.9999769330024719
2021-06-06	4384:4402	mdr_sachsenspiegel	0.9999547004699707
2021-06-24	768:786	mdr_sachsenspiegel	0.9997029006481171
2021-06-24	1322:1340	mdr_sachsenspiegel	0.9997946619987488
2021-11-09	194:212	mdr_sachsenspiegel	0.9999597668647766
2021-11-11	1116:1134	mdr_sachsenspiegel	0.9998729228973389
2021-11-18	2010:2028	mdr_sachsenspiegel	0.9999290108680725
2021-12-02	17875:17893	mdr_sachsenspiegel	0.9994676411151886
