2021-03-03	12792:12803	nebenan_._de	0.9601560036341349
2021-03-03	13170:13181	nebenan_._de	0.9463830788930258
2021-03-05	9901:9912	nebenan_._de	0.9296348293622335
2021-03-05	10279:10290	nebenan_._de	0.930174728234609
