2021-02-02	443:446	ngg	0.9999899864196777
2021-02-02	670:673	ngg	0.9999897480010986
2021-02-09	4098:4101	ngg	0.9999879598617554
2021-02-09	4193:4196	ngg	0.9999881982803345
2021-02-09	4470:4473	ngg	0.9999914169311523
2021-07-06	8475:8478	ngg	0.9999862909317017
2022-02-10	6696:6699	ngg	0.9999868869781494
