2021-01-07	16470:16485	patientenschutz	0.915412962436676
2021-01-19	7853:7868	patientenschutz	0.9976420998573303
2021-03-20	3625:3640	patientenschutz	0.9996981620788574
2021-05-12	10535:10550	patientenschutz	0.9990707039833069
