2021-01-21	1066:1088	paul-ehrlich-instituts	0.9998273253440857
2021-03-15	11424:11446	paul-ehrlich-instituts	0.9997870326042175
2021-06-27	6942:6964	paul-ehrlich-instituts	0.9999024868011475
2022-01-24	6975:6997	paul-ehrlich-instituts	0.9999268054962158
