2021-01-08	10043:10078	rettungszweckverband_südwestsachsen	0.9999681115150452
2021-01-14	17993:18028	rettungszweckverband_südwestsachsen	0.9999719858169556
2021-01-23	8002:8037	rettungszweckverband_südwestsachsen	0.9898345470428467
2021-01-25	6982:7017	rettungszweckverband_südwestsachsen	0.9997952580451965
2021-01-26	3394:3429	rettungszweckverband_südwestsachsen	0.9998705089092255
2021-01-27	16934:16969	rettungszweckverband_südwestsachsen	0.9999428391456604
2021-01-28	4235:4270	rettungszweckverband_südwestsachsen	0.9999258518218994
2021-02-20	6865:6900	rettungszweckverband_südwestsachsen	0.9999380111694336
2021-02-28	10542:10577	rettungszweckverband_südwestsachsen	0.9999346733093262
