2021-01-08	5199:5219	robert_koch-institut	0.999930739402771
2021-01-10	7396:7416	robert_koch-institut	0.9997331202030182
2021-01-12	9692:9712	robert_koch-institut	0.9998314678668976
2021-01-13	19289:19309	robert_koch-institut	0.9999334812164307
2021-01-14	7950:7970	robert_koch-institut	0.9999465346336365
2021-01-21	541:561	robert_koch-institut	0.9994313716888428
2021-01-22	7368:7388	robert_koch-institut	0.9999083876609802
2021-01-30	6988:7008	robert_koch-institut	0.999923586845398
2021-03-05	5056:5076	robert_koch-institut	0.9999420046806335
2021-03-17	14513:14533	robert_koch-institut	0.9999692440032959
2021-03-19	651:671	robert_koch-institut	0.9999276995658875
2021-03-28	5234:5254	robert_koch-institut	0.9995497763156891
2021-03-30	4546:4566	robert_koch-institut	0.999958336353302
2021-03-30	12760:12780	robert_koch-institut	0.9997559785842896
2021-03-31	7320:7340	robert_koch-institut	0.9999240636825562
2021-04-15	12828:12848	robert_koch-institut	0.9999411106109619
2021-04-21	11892:11912	robert_koch-institut	0.9999001622200012
2021-04-23	4219:4239	robert_koch-institut	0.9998625814914703
2021-04-26	13146:13166	robert_koch-institut	0.9994448721408844
2021-04-30	6234:6254	robert_koch-institut	0.7649143934249878
2021-05-01	639:659	robert_koch-institut	0.9993712306022644
2021-05-02	9813:9833	robert_koch-institut	0.9999452233314514
2021-05-03	13426:13446	robert_koch-institut	0.9999328851699829
2021-05-05	12790:12810	robert_koch-institut	0.9999232292175293
2021-05-09	7718:7738	robert_koch-institut	0.9999663829803467
2021-05-10	11476:11496	robert_koch-institut	0.9999341368675232
2021-05-11	10518:10538	robert_koch-institut	0.9999100565910339
2021-05-14	16023:16043	robert_koch-institut	0.9999393224716187
2021-05-19	8854:8874	robert_koch-institut	0.9627364873886108
2021-05-20	6863:6883	robert_koch-institut	0.9999707341194153
2021-05-20	7613:7633	robert_koch-institut	0.9999700784683228
2021-05-24	8561:8581	robert_koch-institut	0.9999211430549622
2021-06-04	5302:5322	robert_koch-institut	0.9999503493309021
2021-06-04	5900:5920	robert_koch-institut	0.9999648928642273
2021-06-04	11595:11615	robert_koch-institut	0.9998834133148193
2021-06-05	6811:6831	robert_koch-institut	0.9999368786811829
2021-06-07	19464:19484	robert_koch-institut	0.9999545812606812
2021-06-11	6185:6205	robert_koch-institut	0.9998776614665985
2021-06-12	240:260	robert_koch-institut	0.9994609653949738
2021-06-16	2756:2776	robert_koch-institut	0.9999068975448608
2021-06-18	3604:3624	robert_koch-institut	0.9999200701713562
2021-06-19	5394:5414	robert_koch-institut	0.9999576210975647
2021-06-23	2016:2036	robert_koch-institut	0.9998690783977509
2021-06-25	3578:3598	robert_koch-institut	0.9999082088470459
2021-06-26	8234:8254	robert_koch-institut	0.9999098777770996
2021-06-27	5813:5833	robert_koch-institut	0.9999340772628784
2021-06-29	9186:9206	robert_koch-institut	0.9987383186817169
2021-11-09	2390:2410	robert_koch-institut	0.9998359382152557
2021-11-12	15729:15749	robert_koch-institut	0.9999017119407654
2021-11-15	1315:1335	robert_koch-institut	0.9998567998409271
2021-11-25	16864:16884	robert_koch-institut	0.999950110912323
2021-11-29	583:603	robert_koch-institut	0.9999651312828064
2021-12-01	12983:13003	robert_koch-institut	0.9999338388442993
2021-12-02	17032:17052	robert_koch-institut	0.999864786863327
2021-12-17	18530:18550	robert_koch-institut	0.9999521970748901
2021-12-23	2118:2138	robert_koch-institut	0.9999366998672485
2021-12-27	2380:2400	robert_koch-institut	0.7248913049697876
2021-12-30	9114:9134	robert_koch-institut	0.9998659193515778
2022-01-03	3371:3391	robert_koch-institut	0.9996170103549957
2022-01-06	3593:3613	robert_koch-institut	0.9996969699859619
2022-01-13	8092:8112	robert_koch-institut	0.9999704957008362
2022-01-28	3560:3580	robert_koch-institut	0.9997146427631378
2022-01-28	6970:6990	robert_koch-institut	0.9999399781227112
2022-01-28	11268:11288	robert_koch-institut	0.9999483227729797
2022-01-31	8714:8734	robert_koch-institut	0.9999746084213257
2022-02-09	1998:2018	robert_koch-institut	0.9989484250545502
2022-02-25	635:655	robert_koch-institut	0.9998506605625153
