2021-01-11	2989:3009	robert-koch-institut	0.9999593496322632
2021-01-14	15957:15977	robert-koch-institut	0.9999842643737793
2021-01-23	9585:9605	robert-koch-institut	0.9999452829360962
2021-01-28	8424:8444	robert-koch-institut	0.999981164932251
2021-01-28	8715:8735	robert-koch-institut	0.999977707862854
2021-02-05	2456:2476	robert-koch-institut	0.9999837875366211
2021-02-05	2585:2605	robert-koch-institut	0.9999810457229614
2021-02-14	16120:16140	robert-koch-institut	0.9999113082885742
2021-02-18	7780:7800	robert-koch-institut	0.9999547004699707
2021-02-23	1043:1063	robert-koch-institut	0.9999716281890869
2021-02-26	7978:7998	robert-koch-institut	0.9999815225601196
2021-03-07	1624:1644	robert-koch-institut	0.9999722242355347
2021-03-08	1600:1620	robert-koch-institut	0.9999715089797974
2021-03-09	2287:2307	robert-koch-institut	0.999980092048645
2021-03-10	10498:10518	robert-koch-institut	0.9999667406082153
2021-03-11	5889:5909	robert-koch-institut	0.999971866607666
2021-03-11	19439:19459	robert-koch-institut	0.9999806880950928
2021-03-11	20090:20110	robert-koch-institut	0.9999613761901855
2021-03-12	2549:2569	robert-koch-institut	0.9999779462814331
2021-03-12	9003:9023	robert-koch-institut	0.9999872446060181
2021-03-12	16123:16143	robert-koch-institut	0.9999669790267944
2021-03-13	1602:1622	robert-koch-institut	0.9999620914459229
2021-03-13	13305:13325	robert-koch-institut	0.9999542236328125
2021-03-14	686:706	robert-koch-institut	0.999976634979248
2021-03-14	1657:1677	robert-koch-institut	0.999962568283081
2021-03-14	5081:5101	robert-koch-institut	0.9999668598175049
2021-03-15	1501:1521	robert-koch-institut	0.9999680519104004
2021-03-15	13003:13023	robert-koch-institut	0.9999548196792603
2021-03-15	14336:14356	robert-koch-institut	0.9999572038650513
2021-03-16	4829:4849	robert-koch-institut	0.9999560117721558
2021-03-16	10101:10121	robert-koch-institut	0.9999674558639526
2021-03-19	3011:3031	robert-koch-institut	0.99997878074646
2021-03-19	13380:13400	robert-koch-institut	0.9999613761901855
2021-03-21	12978:12998	robert-koch-institut	0.9999662637710571
2021-03-23	718:738	robert-koch-institut	0.9999674558639526
2021-03-27	7597:7617	robert-koch-institut	0.9999500513076782
2021-03-27	11921:11941	robert-koch-institut	0.9999688863754272
2021-03-27	13238:13258	robert-koch-institut	0.9999715089797974
2021-03-27	13548:13568	robert-koch-institut	0.9999637603759766
2021-03-28	2944:2964	robert-koch-institut	0.9999669790267944
2021-03-29	3281:3301	robert-koch-institut	0.999974250793457
2021-03-31	11100:11120	robert-koch-institut	0.999954342842102
2021-04-01	1014:1034	robert-koch-institut	0.9999501705169678
2021-04-05	6965:6985	robert-koch-institut	0.9999797344207764
2021-04-06	13567:13587	robert-koch-institut	0.9999673366546631
2021-04-07	897:917	robert-koch-institut	0.9999839067459106
2021-04-07	9160:9180	robert-koch-institut	0.9999692440032959
2021-04-07	16497:16517	robert-koch-institut	0.9999856948852539
2021-04-08	2529:2549	robert-koch-institut	0.9999792575836182
2021-04-09	1638:1658	robert-koch-institut	0.9999771118164062
2021-04-09	7366:7386	robert-koch-institut	0.9999799728393555
2021-04-12	8076:8096	robert-koch-institut	0.9999779462814331
2021-04-15	976:996	robert-koch-institut	0.9999445676803589
2021-04-16	11736:11756	robert-koch-institut	0.9999592304229736
2021-04-17	3041:3061	robert-koch-institut	0.9999324083328247
2021-04-17	5706:5726	robert-koch-institut	0.9999748468399048
2021-04-17	6952:6972	robert-koch-institut	0.9999821186065674
2021-04-19	2274:2294	robert-koch-institut	0.9999746084213257
2021-04-20	816:836	robert-koch-institut	0.9999414682388306
2021-04-20	1303:1323	robert-koch-institut	0.9999604225158691
2021-04-21	3375:3395	robert-koch-institut	0.999980092048645
2021-04-21	17695:17715	robert-koch-institut	0.9999604225158691
2021-04-22	14006:14026	robert-koch-institut	0.999964714050293
2021-04-23	13672:13692	robert-koch-institut	0.9999744892120361
2021-04-24	12044:12064	robert-koch-institut	0.9999581575393677
2021-04-25	4525:4545	robert-koch-institut	0.999956488609314
2021-04-26	4518:4538	robert-koch-institut	0.9999712705612183
2021-04-26	6130:6150	robert-koch-institut	0.999962568283081
2021-04-27	10912:10932	robert-koch-institut	0.9999165534973145
2021-04-28	14262:14282	robert-koch-institut	0.9999748468399048
2021-04-30	316:336	robert-koch-institut	0.9999865293502808
2021-04-30	16454:16474	robert-koch-institut	0.9999415874481201
2021-05-01	9656:9676	robert-koch-institut	0.9999604225158691
2021-05-02	4497:4517	robert-koch-institut	0.9999667406082153
2021-05-03	3188:3208	robert-koch-institut	0.9999731779098511
2021-05-03	9165:9185	robert-koch-institut	0.9999833106994629
2021-05-04	10662:10682	robert-koch-institut	0.9999833106994629
2021-05-04	11417:11437	robert-koch-institut	0.9999737739562988
2021-05-06	10704:10724	robert-koch-institut	0.9999397993087769
2021-05-07	1577:1597	robert-koch-institut	0.9999507665634155
2021-05-07	6507:6527	robert-koch-institut	0.9999654293060303
2021-05-11	9218:9238	robert-koch-institut	0.9999666213989258
2021-05-13	6369:6389	robert-koch-institut	0.9999638795852661
2021-05-13	7969:7989	robert-koch-institut	0.9999524354934692
2021-05-14	1912:1932	robert-koch-institut	0.9999315738677979
2021-05-14	3380:3400	robert-koch-institut	0.9999791383743286
2021-05-14	14132:14152	robert-koch-institut	0.999962329864502
2021-05-15	1074:1094	robert-koch-institut	0.999976396560669
2021-05-15	10317:10337	robert-koch-institut	0.9999576807022095
2021-05-16	817:837	robert-koch-institut	0.9999510049819946
2021-05-16	8211:8231	robert-koch-institut	0.9999654293060303
2021-05-17	13221:13241	robert-koch-institut	0.9999840259552002
2021-05-18	2981:3001	robert-koch-institut	0.9999738931655884
2021-05-20	2439:2459	robert-koch-institut	0.999983549118042
2021-05-20	14320:14340	robert-koch-institut	0.9999760389328003
2021-05-21	14978:14998	robert-koch-institut	0.9999649524688721
2021-05-22	4565:4585	robert-koch-institut	0.999970555305481
2021-05-25	15499:15519	robert-koch-institut	0.9999605417251587
2021-05-26	6477:6497	robert-koch-institut	0.9999818801879883
2021-05-26	19338:19358	robert-koch-institut	0.9999691247940063
2021-05-27	13215:13235	robert-koch-institut	0.9999825954437256
2021-05-28	3323:3343	robert-koch-institut	0.9999678134918213
2021-05-28	5585:5605	robert-koch-institut	0.9999549388885498
2021-05-28	15635:15655	robert-koch-institut	0.9999680519104004
2021-05-29	8803:8823	robert-koch-institut	0.9999644756317139
2021-06-05	1307:1327	robert-koch-institut	0.9999709129333496
2021-06-06	3637:3657	robert-koch-institut	0.9999603033065796
2021-06-08	569:589	robert-koch-institut	0.9999809265136719
2021-06-12	4181:4201	robert-koch-institut	0.9999690055847168
2021-06-12	7084:7104	robert-koch-institut	0.9999697208404541
2021-06-13	6508:6528	robert-koch-institut	0.9999831914901733
2021-06-13	10452:10472	robert-koch-institut	0.9999676942825317
2021-06-14	8149:8169	robert-koch-institut	0.9999858140945435
2021-06-16	13308:13328	robert-koch-institut	0.999962568283081
2021-06-20	2305:2325	robert-koch-institut	0.9999830722808838
2021-06-21	8741:8761	robert-koch-institut	0.9999600648880005
2021-06-22	8513:8533	robert-koch-institut	0.9999440908432007
2021-06-22	10239:10259	robert-koch-institut	0.9999704360961914
2021-06-23	9074:9094	robert-koch-institut	0.9999551773071289
2021-06-24	11601:11621	robert-koch-institut	0.999976396560669
2021-06-25	9111:9131	robert-koch-institut	0.9999656677246094
2021-06-28	9445:9465	robert-koch-institut	0.9999725818634033
2021-06-29	12608:12628	robert-koch-institut	0.9999731779098511
2021-06-30	5297:5317	robert-koch-institut	0.9999865293502808
2021-07-02	12069:12089	robert-koch-institut	0.9999395608901978
2021-07-06	10108:10128	robert-koch-institut	0.9999719858169556
2021-07-08	6777:6797	robert-koch-institut	0.9999611377716064
2021-07-08	14071:14091	robert-koch-institut	0.999942421913147
2021-07-12	5917:5937	robert-koch-institut	0.9999693632125854
2021-07-12	11483:11503	robert-koch-institut	0.9999856948852539
2021-07-13	10984:11004	robert-koch-institut	0.999987006187439
2021-07-15	14419:14439	robert-koch-institut	0.9999861717224121
2021-07-15	15768:15788	robert-koch-institut	0.9999836683273315
2021-07-16	11184:11204	robert-koch-institut	0.9999840259552002
2021-07-20	11626:11646	robert-koch-institut	0.9999551773071289
2021-07-21	7795:7815	robert-koch-institut	0.9999792575836182
2021-07-21	9714:9734	robert-koch-institut	0.9999738931655884
2021-07-22	9094:9114	robert-koch-institut	0.9999712705612183
2021-07-23	2248:2268	robert-koch-institut	0.9999817609786987
2021-07-23	9968:9988	robert-koch-institut	0.9999845027923584
2021-11-12	16485:16505	robert-koch-institut	0.9999805688858032
2021-11-18	13141:13161	robert-koch-institut	0.9999828338623047
2021-11-18	13958:13978	robert-koch-institut	0.9999774694442749
2021-11-29	9262:9282	robert-koch-institut	0.9999711513519287
2021-11-30	15769:15789	robert-koch-institut	0.9999583959579468
2021-12-03	10018:10038	robert-koch-institut	0.9999499320983887
2021-12-03	16516:16536	robert-koch-institut	0.9999680519104004
2021-12-08	3905:3925	robert-koch-institut	0.9999496936798096
2021-12-09	9780:9800	robert-koch-institut	0.999962329864502
2021-12-09	14289:14309	robert-koch-institut	0.9999778270721436
2021-12-09	15054:15074	robert-koch-institut	0.9999855756759644
2021-12-10	9698:9718	robert-koch-institut	0.999951958656311
2021-12-13	10915:10935	robert-koch-institut	0.9999521970748901
2021-12-15	12744:12764	robert-koch-institut	0.9999524354934692
2021-12-16	14024:14044	robert-koch-institut	0.9999816417694092
2021-12-20	7177:7197	robert-koch-institut	0.9999585151672363
2021-12-21	9024:9044	robert-koch-institut	0.9999254941940308
2021-12-21	14696:14716	robert-koch-institut	0.9999780654907227
2021-12-22	11529:11549	robert-koch-institut	0.999947190284729
2021-12-23	12217:12237	robert-koch-institut	0.999954104423523
2021-12-28	7518:7538	robert-koch-institut	0.9999241828918457
2021-12-29	5885:5905	robert-koch-institut	0.9999768733978271
2021-12-29	6469:6489	robert-koch-institut	0.9999604225158691
2022-01-04	5727:5747	robert-koch-institut	0.9998812675476074
2022-01-04	10040:10060	robert-koch-institut	0.9999384880065918
2022-01-04	14357:14377	robert-koch-institut	0.999984622001648
2022-01-04	17442:17462	robert-koch-institut	0.9999754428863525
2022-01-07	1001:1021	robert-koch-institut	0.9999558925628662
2022-01-13	7532:7552	robert-koch-institut	0.9999703168869019
2022-01-13	17606:17626	robert-koch-institut	0.9999804496765137
2022-01-14	12553:12573	robert-koch-institut	0.9999741315841675
2022-01-17	6423:6443	robert-koch-institut	0.9999833106994629
2022-01-17	6915:6935	robert-koch-institut	0.9999871253967285
2022-01-19	2774:2794	robert-koch-institut	0.9999600648880005
2022-01-24	3008:3028	robert-koch-institut	0.9999709129333496
2022-01-25	15891:15911	robert-koch-institut	0.9999827146530151
2022-01-26	12801:12821	robert-koch-institut	0.9999805688858032
2022-02-01	12575:12595	robert-koch-institut	0.9999666213989258
2022-02-02	9217:9237	robert-koch-institut	0.9999569654464722
2022-02-08	5762:5782	robert-koch-institut	0.9999732971191406
2022-02-10	4813:4833	robert-koch-institut	0.9999712705612183
2022-02-14	11942:11962	robert-koch-institut	0.9999384880065918
2022-02-17	4089:4109	robert-koch-institut	0.9999803304672241
2022-02-23	7383:7403	robert-koch-institut	0.999968409538269
2022-02-28	7794:7814	robert-koch-institut	0.9999740123748779
2022-03-01	5465:5485	robert-koch-institut	0.999976396560669
2022-03-02	4362:4382	robert-koch-institut	0.9999608993530273
2022-03-02	5705:5725	robert-koch-institut	0.9999560117721558
2022-03-03	292:312	robert-koch-institut	0.999975323677063
2022-03-03	4170:4190	robert-koch-institut	0.9999595880508423
2022-03-03	5930:5950	robert-koch-institut	0.9999841451644897
2022-03-04	6921:6941	robert-koch-institut	0.9999622106552124
