2021-01-10	4228:4235	sachsen	0.999747097492218
2021-01-11	7699:7706	sachsen	0.5980370044708252
2021-01-12	6683:6690	sachsen	0.34966886043548584
2021-01-13	15802:15809	sachsen	0.9993891716003418
2021-01-13	18545:18552	sachsen	0.9999836683273315
2021-01-16	3799:3806	sachsen	0.45666801929473877
2021-01-21	23521:23528	sachsen	0.3970392048358917
2021-02-01	10098:10105	sachsen	0.9891781806945801
2021-02-08	7205:7212	sachsen	0.7147729992866516
2021-02-09	1226:1233	sachsen	0.3939741849899292
2021-02-11	6910:6917	sachsen	0.5397427678108215
2021-02-11	11610:11617	sachsen	0.6788274645805359
2021-02-16	13941:13948	sachsen	0.9997230172157288
2021-02-24	311:318	sachsen	0.9999760389328003
2021-02-25	11841:11848	sachsen	0.48919567465782166
2021-03-02	18486:18493	sachsen	0.3835446536540985
2021-03-02	25141:25148	sachsen	0.9999827146530151
2021-03-03	12254:12261	sachsen	0.5639656186103821
2021-03-06	6279:6286	sachsen	0.9962154030799866
2021-03-09	9483:9490	sachsen	0.8776148557662964
2021-03-10	11094:11101	sachsen	0.5693190097808838
2021-03-12	13243:13250	sachsen	0.9999816417694092
2021-03-13	15420:15427	sachsen	0.9543275833129883
2021-03-14	4294:4301	sachsen	0.5582076907157898
2021-03-15	22378:22385	sachsen	0.99814772605896
2021-03-23	358:365	sachsen	0.44318169355392456
2021-03-23	13693:13700	sachsen	0.5697184801101685
2021-03-29	11876:11883	sachsen	0.9996904134750366
2021-04-01	12752:12759	sachsen	0.6488453149795532
2021-04-06	10485:10492	sachsen	0.5695467591285706
2021-04-09	10947:10954	sachsen	0.9170678853988647
2021-04-13	12666:12673	sachsen	0.9680317640304565
2021-04-16	20405:20412	sachsen	0.2650655210018158
2021-04-17	1082:1089	sachsen	0.9954114556312561
2021-04-19	15835:15842	sachsen	0.5766260027885437
2021-05-04	14627:14634	sachsen	0.40314871072769165
2021-05-06	4353:4360	sachsen	0.9129840731620789
2021-05-10	5492:5499	sachsen	0.6814888715744019
2021-05-14	11559:11566	sachsen	0.9504662752151489
2021-05-31	7762:7769	sachsen	0.5981794595718384
2021-06-07	773:780	sachsen	0.6382582187652588
2021-06-10	8405:8412	sachsen	0.9999392032623291
2021-06-14	6656:6663	sachsen	0.6225224137306213
2021-07-01	5042:5049	sachsen	0.9999843835830688
2021-07-13	2984:2991	sachsen	0.5615271329879761
2021-07-15	1843:1850	sachsen	0.6687109470367432
2021-07-22	6660:6667	sachsen	0.4859822690486908
2021-11-12	4030:4037	sachsen	0.40848690271377563
2021-11-12	13326:13333	sachsen	0.9995538592338562
2021-11-16	1164:1171	sachsen	0.9928687214851379
2021-11-18	9869:9876	sachsen	0.5055219531059265
2021-11-22	5908:5915	sachsen	0.9937840700149536
2021-12-01	11551:11558	sachsen	0.994290828704834
2021-12-02	7207:7214	sachsen	0.9994921684265137
2021-12-08	1554:1561	sachsen	0.8168708086013794
2021-12-08	4344:4351	sachsen	0.8464647531509399
2021-12-08	8583:8590	sachsen	0.6264829039573669
2021-12-09	12426:12433	sachsen	0.38568514585494995
2021-12-14	13015:13022	sachsen	0.348123699426651
2021-12-17	5761:5768	sachsen	0.9999551773071289
2021-12-23	6282:6289	sachsen	0.42551663517951965
2021-12-28	3202:3209	sachsen	0.7628551125526428
2022-01-05	1642:1649	sachsen	0.4538137912750244
2022-01-12	4302:4309	sachsen	0.8844771981239319
2022-01-12	14755:14762	sachsen	0.9624181389808655
2022-01-21	5311:5318	sachsen	0.8841429948806763
2022-01-31	12269:12276	sachsen	0.9993213415145874
2022-02-01	7632:7639	sachsen	0.654569149017334
2022-02-11	8621:8628	sachsen	0.983242392539978
2022-02-28	4856:4863	sachsen	0.4178077280521393
