2021-01-07	13048:13051	skd	0.9999884366989136
2021-01-07	13307:13310	skd	0.9999873638153076
2021-03-09	344:347	skd	0.9999890327453613
2021-03-12	10142:10145	skd	0.9999780654907227
2021-03-26	15342:15345	skd	0.9999737739562988
2021-03-26	15641:15644	skd	0.9999372959136963
2021-04-06	5020:5023	skd	0.9999768733978271
2021-04-08	7503:7506	skd	0.9999878406524658
2021-04-08	7591:7594	skd	0.9999871253967285
2021-04-26	9666:9669	skd	0.9999891519546509
2021-04-26	9960:9963	skd	0.9999872446060181
2021-05-20	18741:18744	skd	0.999985933303833
2021-05-23	3665:3668	skd	0.9999856948852539
2021-05-23	3683:3686	skd	0.9999853372573853
2022-01-12	1650:1653	skd	0.999988317489624
2022-01-12	1901:1904	skd	0.9999849796295166
