2021-03-12	14172:14175	ssg	0.9999806880950928
2021-05-07	5073:5076	ssg	0.9999898672103882
2021-06-09	6786:6789	ssg	0.9999899864196777
2021-06-09	7180:7183	ssg	0.9999812841415405
2021-07-09	1496:1499	ssg	0.986057460308075
2021-11-20	8768:8771	ssg	0.9999774694442749
2022-02-14	8595:8598	ssg	0.9994556307792664
