2021-01-07	13011:13046	staatlichen_kunstsammlungen_dresden	0.9998397429784139
2021-03-09	307:342	staatlichen_kunstsammlungen_dresden	0.999788502852122
2021-03-12	10105:10140	staatlichen_kunstsammlungen_dresden	0.9987337390581766
2021-03-26	15305:15340	staatlichen_kunstsammlungen_dresden	0.9378471374511719
2021-04-08	7554:7589	staatlichen_kunstsammlungen_dresden	0.9999022086461385
2022-01-12	1613:1648	staatlichen_kunstsammlungen_dresden	0.9950504501660665
