2021-01-26	7703:7728	statistischen_landesamtes	0.6097297966480255
2021-02-18	14852:14877	statistischen_landesamtes	0.9995867013931274
2021-03-11	12651:12676	statistischen_landesamtes	0.9998433589935303
2021-07-12	5056:5081	statistischen_landesamtes	0.8137808740139008
