2021-01-13	1718:1745	tourismusverband_erzgebirge	0.9990624189376831
2021-04-29	1575:1602	tourismusverband_erzgebirge	0.9748395383358002
2021-07-07	10838:10865	tourismusverband_erzgebirge	0.9997311532497406
2022-01-13	1846:1873	tourismusverband_erzgebirge	0.9999008774757385
2022-01-14	13719:13746	tourismusverband_erzgebirge	0.9998234212398529
