2021-01-12	13112:13123	tu_chemnitz	0.9998853802680969
2021-01-14	24269:24280	tu_chemnitz	0.999957799911499
2021-01-14	24285:24296	tu_chemnitz	0.9999701976776123
2021-01-14	24546:24557	tu_chemnitz	0.9999770522117615
2021-02-20	7723:7734	tu_chemnitz	0.9999194145202637
2021-02-20	8143:8154	tu_chemnitz	0.9999746084213257
2021-02-24	3273:3284	tu_chemnitz	0.9408096969127655
2021-03-13	7172:7183	tu_chemnitz	0.9999198317527771
2021-04-11	6228:6239	tu_chemnitz	0.9998672604560852
2021-04-11	6292:6303	tu_chemnitz	0.9999563694000244
2021-04-12	16623:16634	tu_chemnitz	0.9999650120735168
2021-04-12	16711:16722	tu_chemnitz	0.9999768733978271
2021-04-14	15979:15990	tu_chemnitz	0.9999496936798096
2021-04-14	16032:16043	tu_chemnitz	0.9999530911445618
2021-04-19	13657:13668	tu_chemnitz	0.999982476234436
2021-04-19	14002:14013	tu_chemnitz	0.9999837279319763
2021-04-19	14319:14330	tu_chemnitz	0.9999772310256958
2021-05-26	1224:1235	tu_chemnitz	0.999857485294342
2021-05-26	1407:1418	tu_chemnitz	0.9999350905418396
2021-05-27	8091:8102	tu_chemnitz	0.9998829364776611
2021-11-15	1427:1438	tu_chemnitz	0.9999760389328003
2021-11-15	1772:1783	tu_chemnitz	0.9999479651451111
2021-12-07	1153:1164	tu_chemnitz	0.9985485076904297
2022-01-05	6369:6380	tu_chemnitz	0.9998315274715424
