2021-03-08	2413:2432	vereinigung_sachsen	0.9999852776527405
2021-05-24	12027:12046	vereinigung_sachsen	0.9999803304672241
2021-05-29	9823:9842	vereinigung_sachsen	0.9998801052570343
2021-07-01	10256:10275	vereinigung_sachsen	0.9999667406082153
2021-11-22	1426:1445	vereinigung_sachsen	0.9996601939201355
2021-11-25	12122:12141	vereinigung_sachsen	0.9996263980865479
