2021-02-01	16158:16161	vms	0.9999889135360718
2021-02-01	16458:16461	vms	0.9999724626541138
2021-06-11	10410:10413	vms	0.9999885559082031
2021-06-11	10971:10974	vms	0.9999715089797974
2021-12-06	10867:10870	vms	0.9999903440475464
2021-12-06	11051:11054	vms	0.9999825954437256
