2021-02-15	8575:8593	volkswagen_sachsen	0.9999829530715942
2021-03-30	9531:9549	volkswagen_sachsen	0.9999762177467346
2021-07-08	9722:9740	volkswagen_sachsen	0.9999762773513794
2021-07-08	9939:9957	volkswagen_sachsen	0.9999800324440002
2021-11-18	6924:6942	volkswagen_sachsen	0.9993006587028503
2022-01-21	10853:10871	volkswagen_sachsen	0.9999688863754272
