2021-01-23	6474:6477	who	0.9999817609786987
2021-01-23	6736:6739	who	0.9999768733978271
2021-03-02	22384:22387	who	0.9999794960021973
2021-03-23	22360:22363	who	0.9999823570251465
2021-03-23	22792:22795	who	0.9999783039093018
2021-05-15	8816:8819	who	0.9999135732650757
2021-06-01	18143:18146	who	0.9999707937240601
2021-06-21	348:351	who	0.9999712705612183
2021-06-29	13852:13855	who	0.9999680519104004
2021-07-08	8113:8116	who	0.9998639822006226
2021-12-29	6132:6135	who	0.9995608925819397
2022-01-14	5224:5227	who	0.9999853372573853
2022-01-14	5407:5410	who	0.9999841451644897
2022-01-14	5500:5503	who	0.9999803304672241
