2021-01-27	18640:18650	wolfsträne	0.9999450445175171
2021-01-27	18776:18786	wolfsträne	0.999944806098938
2021-05-02	1857:1867	wolfsträne	0.9999047517776489
2021-06-11	2015:2025	wolfsträne	0.9998939037322998
