text	types	tokens	types/tokens
20:00	44	56	1.25
19:26	18	19	1.0
18:04	30	32	1.0333
17:02	73	83	1.1233
15:26	66	99	1.4848
15:09	45	50	1.0889
15:01	35	40	1.1143
14:20	50	59	1.16
13:56	75	87	1.1467
13:22	43	50	1.1395
12:28	50	57	1.12
11:17	22	23	1.0
10:29	40	46	1.125
09:42	81	95	1.1605
08:53	86	103	1.186
08:10	35	39	1.0857
07:01	21	23	1.0476
06:26	59	66	1.1017
05:37	65	74	1.1231
05:13	54	59	1.0741
05:00	56	66	1.1607
