text	types	tokens	types/tokens
22:39	25	31	1.2
22:16	52	66	1.25
22:05	146	189	1.2877
21:25	123	163	1.3171
21:05	60	72	1.1833
19:55	47	53	1.1064
19:10	139	175	1.2518
18:50	31	33	1.0323
18:05	71	89	1.2394
17:30	35	39	1.0857
16:59	67	85	1.2537
16:45	75	94	1.24
15:02	94	123	1.2979
14:29	63	71	1.1111
14:19	105	135	1.2762
13:20	64	74	1.1406
12:50	48	60	1.2292
11:50	78	97	1.2308
11:22	61	75	1.2131
11:12	42	53	1.2381
11:02	77	86	1.1039
10:17	77	101	1.2987
09:20	73	87	1.1781
09:14	37	41	1.0811
08:50	50	64	1.26
08:32	59	67	1.1186
07:52	57	69	1.193
07:30	57	66	1.1404
07:01	46	52	1.1087
07:01	56	67	1.1786
06:31	57	66	1.1404
05:52	72	85	1.1667
05:41	29	36	1.2069
05:20	83	97	1.1566
