2021-02-13	1649:1652	a17	0.9925200939178467
2021-02-16	24308:24311	a17	0.9949914813041687
2021-02-17	14035:14038	a17	0.99861741065979
2021-02-18	5108:5111	a17	0.991531252861023
2021-05-25	3204:3207	a17	0.9651826620101929
