2021-04-01	3836:3848	altscherbitz	0.9998220801353455
2021-05-27	4404:4416	altscherbitz	0.9992293119430542
2022-01-05	7558:7570	altscherbitz	0.9944899082183838
2022-02-02	7392:7404	altscherbitz	0.9999265670776367
