2021-01-12	14138:14147	amsterdam	0.9999934434890747
2021-03-09	18868:18877	amsterdam	0.9999943971633911
2021-03-09	19205:19214	amsterdam	0.9999939203262329
2021-03-12	8201:8210	amsterdam	0.9999949932098389
2021-04-26	7816:7825	amsterdam	0.999996542930603
2021-04-26	7880:7889	amsterdam	0.9999964237213135
2021-04-26	7982:7991	amsterdam	0.9999969005584717
2021-05-02	8643:8652	amsterdam	0.9999958276748657
2021-05-02	8829:8838	amsterdam	0.9999969005584717
2021-05-03	17524:17533	amsterdam	0.9999958276748657
2021-05-03	17623:17632	amsterdam	0.9999959468841553
2021-12-02	11280:11289	amsterdam	0.9999955892562866
2021-12-23	13900:13909	amsterdam	0.9999933242797852
