2021-01-15	11024:11041	annaberg-buchholz	0.9999774694442749
2021-02-02	1506:1523	annaberg-buchholz	0.9999949932098389
2021-02-02	1546:1563	annaberg-buchholz	0.9999923706054688
2021-02-08	16617:16634	annaberg-buchholz	0.9999716281890869
2021-02-10	15805:15822	annaberg-buchholz	0.9999957084655762
2021-02-10	15867:15884	annaberg-buchholz	0.9999948740005493
2021-02-15	19097:19114	annaberg-buchholz	0.9999908208847046
2021-02-15	19144:19161	annaberg-buchholz	0.9999929666519165
2021-02-19	9724:9741	annaberg-buchholz	0.9999936819076538
2021-02-19	9775:9792	annaberg-buchholz	0.9999918937683105
2021-02-20	1577:1594	annaberg-buchholz	0.9999939203262329
2021-02-20	1931:1948	annaberg-buchholz	0.9999921321868896
2021-03-04	6221:6238	annaberg-buchholz	0.9999909400939941
2021-03-22	9490:9507	annaberg-buchholz	0.999983549118042
2021-03-22	9595:9612	annaberg-buchholz	0.999987006187439
2021-03-23	2532:2549	annaberg-buchholz	0.9999886751174927
2021-03-23	2939:2956	annaberg-buchholz	0.9999909400939941
2021-04-06	14308:14325	annaberg-buchholz	0.9999796152114868
2021-04-06	14329:14346	annaberg-buchholz	0.999984622001648
2021-04-07	3229:3246	annaberg-buchholz	0.9999864101409912
2021-04-07	14468:14485	annaberg-buchholz	0.9999918937683105
2021-04-08	4738:4755	annaberg-buchholz	0.9999814033508301
2021-04-09	7880:7897	annaberg-buchholz	0.999991774559021
2021-04-09	7908:7925	annaberg-buchholz	0.9999947547912598
2021-04-12	18220:18237	annaberg-buchholz	0.9999880790710449
2021-04-30	10906:10923	annaberg-buchholz	0.9999727010726929
2021-04-30	15518:15535	annaberg-buchholz	0.9999850988388062
2021-05-11	730:747	annaberg-buchholz	0.9999738931655884
2021-05-12	14581:14598	annaberg-buchholz	0.9999794960021973
2021-05-31	5101:5118	annaberg-buchholz	0.9999834299087524
2021-06-03	12073:12090	annaberg-buchholz	0.999985933303833
2021-06-09	11409:11426	annaberg-buchholz	0.9960720539093018
2021-06-15	2679:2696	annaberg-buchholz	0.8170941472053528
2021-06-16	4194:4211	annaberg-buchholz	0.9999136924743652
2021-06-16	9918:9935	annaberg-buchholz	0.9999877214431763
2021-06-25	11468:11485	annaberg-buchholz	0.9999887943267822
2021-06-25	11549:11566	annaberg-buchholz	0.999991774559021
2021-11-10	7917:7934	annaberg-buchholz	0.9999862909317017
2021-11-12	19321:19338	annaberg-buchholz	0.9999517202377319
2021-11-15	3582:3599	annaberg-buchholz	0.9999817609786987
2021-11-15	14421:14438	annaberg-buchholz	0.9999885559082031
2021-11-15	14547:14564	annaberg-buchholz	0.9999902248382568
2021-11-20	5917:5934	annaberg-buchholz	0.9999896287918091
2021-11-20	12448:12465	annaberg-buchholz	0.9999896287918091
2021-12-07	15190:15207	annaberg-buchholz	0.9999803304672241
2021-12-16	15738:15755	annaberg-buchholz	0.9999914169311523
2021-12-20	4139:4156	annaberg-buchholz	0.9999727010726929
2021-12-30	9000:9017	annaberg-buchholz	0.999985933303833
