2021-01-20	4914:4917	aue	0.9999246597290039
2021-02-02	16832:16835	aue	0.999860405921936
2021-02-12	17788:17791	aue	0.9623960852622986
2021-02-20	5939:5942	aue	0.9084488153457642
2021-03-04	12801:12804	aue	0.9997619986534119
2021-03-10	4654:4657	aue	0.999491810798645
2021-03-10	4696:4699	aue	0.9997150301933289
2021-03-12	809:812	aue	0.9793294668197632
2021-03-21	11883:11886	aue	0.9998455047607422
2021-03-22	13662:13665	aue	0.9998119473457336
2021-03-22	13705:13708	aue	0.9999290704727173
2021-03-25	10687:10690	aue	0.9997972846031189
2021-04-07	14269:14272	aue	0.9893891215324402
2021-04-13	7333:7336	aue	0.9998998641967773
2021-04-13	7591:7594	aue	0.9967233538627625
2021-04-25	4789:4792	aue	0.9943861961364746
2021-04-28	16769:16772	aue	0.9993401169776917
2021-04-30	4829:4832	aue	0.9976065158843994
2021-06-18	13755:13758	aue	0.9931938648223877
2021-07-23	11218:11221	aue	0.9998935461044312
2021-11-09	7478:7481	aue	0.9990538954734802
2021-11-09	7539:7542	aue	0.9996970891952515
2021-11-29	15933:15936	aue	0.9999716281890869
2022-02-15	6937:6940	aue	0.8227634429931641
