2021-03-25	10692:10703	bad_schlema	0.9968173801898956
2021-04-28	16213:16224	bad_schlema	0.9999728202819824
2021-04-28	16239:16250	bad_schlema	0.9999712109565735
2021-06-03	12478:12489	bad_schlema	0.9957307577133179
2021-11-29	15941:15952	bad_schlema	0.9999840259552002
