2021-02-20	6839:6851	bad_brambach	0.9999836087226868
2021-02-20	7053:7065	bad_brambach	0.9999862909317017
2021-03-31	18303:18315	bad_brambach	0.999984622001648
2021-04-22	581:593	bad_brambach	0.9999885559082031
2021-05-14	5990:6002	bad_brambach	0.9999854564666748
2021-05-14	6234:6246	bad_brambach	0.9971423149108887
2021-05-16	2186:2198	bad_brambach	0.9999861717224121
2021-05-16	6605:6617	bad_brambach	0.9999841451644897
