2021-01-09	11004:11010	bayern	0.9999817609786987
2021-01-12	10753:10759	bayern	0.9999651908874512
2021-01-14	19388:19394	bayern	0.9999535083770752
2021-01-20	8095:8101	bayern	0.9999887943267822
2021-01-20	8166:8172	bayern	0.9999861717224121
2021-01-21	11661:11667	bayern	0.9967104196548462
2021-02-01	5110:5116	bayern	0.9999294281005859
2021-02-05	6609:6615	bayern	0.9998788833618164
2021-02-08	14535:14541	bayern	0.9999816417694092
2021-02-08	14842:14848	bayern	0.9999902248382568
2021-02-12	2701:2707	bayern	0.9999879598617554
2021-02-14	6525:6531	bayern	0.9994263648986816
2021-02-19	8461:8467	bayern	0.9747200012207031
2021-02-21	354:360	bayern	0.999983549118042
2021-02-23	13266:13272	bayern	0.6216939687728882
2021-02-25	11431:11437	bayern	0.9998406171798706
2021-02-28	458:464	bayern	0.9997133612632751
2021-02-28	3087:3093	bayern	0.9998109936714172
2021-03-01	10269:10275	bayern	0.9999483823776245
2021-03-01	11145:11151	bayern	0.915284276008606
2021-03-01	11196:11202	bayern	0.9755939841270447
2021-03-01	18258:18264	bayern	0.9998311996459961
2021-03-05	17712:17718	bayern	0.999919056892395
2021-03-18	12264:12270	bayern	0.998880922794342
2021-03-20	942:948	bayern	0.9999088048934937
2021-03-30	18411:18417	bayern	0.9999376535415649
2021-04-07	8067:8073	bayern	0.9999743700027466
2021-04-09	413:419	bayern	0.9998449087142944
2021-04-20	10386:10392	bayern	0.9995872378349304
2021-04-28	13432:13438	bayern	0.9999573230743408
2021-04-30	2455:2461	bayern	0.9999003410339355
2021-05-04	6819:6825	bayern	0.9999688863754272
2021-05-04	6861:6867	bayern	0.999967098236084
2021-05-04	7423:7429	bayern	0.9998015761375427
2021-05-12	15998:16004	bayern	0.9999821186065674
2021-05-14	2995:3001	bayern	0.9998981952667236
2021-05-14	6012:6018	bayern	0.999976396560669
2021-05-15	4931:4937	bayern	0.9999724626541138
2021-05-17	10677:10683	bayern	0.9999097585678101
2021-05-17	16986:16992	bayern	0.999992847442627
2021-06-27	2119:2125	bayern	0.9974199533462524
2021-11-16	1750:1756	bayern	0.9999279975891113
2021-11-23	22432:22438	bayern	0.9999600648880005
2021-11-25	7697:7703	bayern	0.999933123588562
2021-11-29	9777:9783	bayern	0.9999186992645264
2021-11-29	9855:9861	bayern	0.9998677968978882
2021-11-29	14692:14698	bayern	0.9998337030410767
2021-11-30	8205:8211	bayern	0.9999715089797974
2021-12-01	13720:13726	bayern	0.9999804496765137
2021-12-02	13072:13078	bayern	0.9999841451644897
2021-12-13	1706:1712	bayern	0.999961256980896
2021-12-13	2082:2088	bayern	0.9999696016311646
2021-12-14	16160:16166	bayern	0.9999679327011108
2021-12-17	15538:15544	bayern	0.9999618530273438
2021-12-22	5419:5425	bayern	0.9998465776443481
2021-12-27	9124:9130	bayern	0.9999294281005859
2021-12-28	2718:2724	bayern	0.9999473094940186
2022-01-06	5258:5264	bayern	0.9999662637710571
2022-01-18	12645:12651	bayern	0.9999608993530273
2022-01-20	10325:10331	bayern	0.9999068975448608
2022-02-07	2715:2721	bayern	0.99570232629776
2022-03-01	2007:2013	bayern	0.9996649026870728
