2021-01-20	6089:6093	bonn	0.9999933242797852
2021-02-14	10354:10358	bonn	0.9999814033508301
2021-06-28	8626:8630	bonn	0.9997968077659607
2021-07-14	2868:2872	bonn	0.9999123811721802
2021-12-01	5765:5769	bonn	0.9999908208847046
