2021-01-15	16004:16009	borna	0.9999815225601196
2021-01-19	12686:12691	borna	0.9999655485153198
2021-01-26	10241:10246	borna	0.9999673366546631
2021-02-01	14412:14417	borna	0.9999443292617798
2021-02-02	5226:5231	borna	0.9999861717224121
2021-02-15	13039:13044	borna	0.9999864101409912
2021-02-25	5293:5298	borna	0.9999904632568359
2021-03-01	4180:4185	borna	0.9999829530715942
2021-03-06	8828:8833	borna	0.9999843835830688
2021-03-09	15950:15955	borna	0.9999432563781738
2021-03-15	15375:15380	borna	0.9999904632568359
2021-03-31	10804:10809	borna	0.9999903440475464
2021-03-31	10853:10858	borna	0.9999918937683105
2021-04-05	4869:4874	borna	0.9999823570251465
2021-04-06	11772:11777	borna	0.9999309778213501
2021-05-02	3458:3463	borna	0.9999908208847046
2021-05-06	10059:10064	borna	0.9999818801879883
2021-05-17	10052:10057	borna	0.9999920129776001
2021-05-17	10075:10080	borna	0.9999915361404419
2021-06-14	11000:11005	borna	0.9999843835830688
2021-06-15	4629:4634	borna	0.9999878406524658
2021-06-16	2175:2180	borna	0.9999793767929077
2021-06-17	10233:10238	borna	0.9999808073043823
2021-06-19	1785:1790	borna	0.9999738931655884
2021-07-02	8328:8333	borna	0.9999854564666748
2021-07-02	8374:8379	borna	0.9999890327453613
2021-07-07	5929:5934	borna	0.9999703168869019
2021-07-07	5966:5971	borna	0.9999815225601196
2021-07-15	6409:6414	borna	0.9999827146530151
2021-11-18	15341:15346	borna	0.9999862909317017
2021-12-01	9788:9793	borna	0.9999943971633911
2021-12-03	10271:10276	borna	0.9999810457229614
2022-02-01	8885:8890	borna	0.9999903440475464
2022-02-01	8905:8910	borna	0.9999929666519165
2022-02-07	5797:5802	borna	0.9999754428863525
