2021-04-21	19451:19457	bremen	0.9999278783798218
2021-06-12	4367:4373	bremen	0.9999502897262573
2021-06-15	7999:8005	bremen	0.999980092048645
2021-06-23	2164:2170	bremen	0.9999922513961792
2021-11-25	8105:8111	bremen	0.9998953342437744
2021-11-29	14921:14927	bremen	0.9999847412109375
2021-12-07	746:752	bremen	0.9999701976776123
2021-12-10	9823:9829	bremen	0.9999876022338867
2022-01-10	14578:14584	bremen	0.9999864101409912
2022-01-21	1451:1457	bremen	0.9999880790710449
