2021-01-21	1769:1781	deutschlands	0.9996699094772339
2021-02-10	2645:2657	deutschlands	0.9998834133148193
2021-02-12	27074:27086	deutschlands	0.9999644756317139
2021-02-14	6216:6228	deutschlands	0.9999881982803345
2021-02-15	16623:16635	deutschlands	0.9999228715896606
2021-03-09	5577:5589	deutschlands	0.9995412826538086
2021-03-15	16886:16898	deutschlands	0.9999744892120361
2021-03-18	3097:3109	deutschlands	0.9999362230300903
2021-03-21	8928:8940	deutschlands	0.9996788501739502
2021-03-23	12439:12451	deutschlands	0.9876745343208313
2021-04-09	7218:7230	deutschlands	0.9998565912246704
2021-04-09	7347:7359	deutschlands	0.9999788999557495
2021-04-14	14930:14942	deutschlands	0.999739944934845
2021-04-22	10998:11010	deutschlands	0.9965031147003174
2021-05-07	12661:12673	deutschlands	0.9991499185562134
2021-05-07	12786:12798	deutschlands	0.954702615737915
2021-05-19	7935:7947	deutschlands	0.9999194145202637
2021-05-20	9844:9856	deutschlands	0.9999654293060303
2021-05-24	6036:6048	deutschlands	0.9977280497550964
2021-06-13	7579:7591	deutschlands	0.999824583530426
2021-06-26	8573:8585	deutschlands	0.999901294708252
2021-06-29	6142:6154	deutschlands	0.999981164932251
2021-07-06	9568:9580	deutschlands	0.9996446371078491
2021-07-14	3025:3037	deutschlands	0.9999221563339233
2021-12-22	5256:5268	deutschlands	0.9999853372573853
2022-01-10	18261:18273	deutschlands	0.9998247027397156
2022-01-14	212:224	deutschlands	0.9954258799552917
2022-01-14	605:617	deutschlands	0.9998975992202759
2022-01-14	696:708	deutschlands	0.9998179078102112
2022-02-02	10263:10275	deutschlands	0.9999523162841797
2022-02-11	5248:5260	deutschlands	0.9994803071022034
2022-02-11	5497:5509	deutschlands	0.9992713332176208
2022-02-11	16725:16737	deutschlands	0.999941349029541
2022-02-14	4717:4729	deutschlands	0.9998965263366699
2022-02-24	4010:4022	deutschlands	0.9999607801437378
