2021-02-24	4192:4206	dippoldiswalde	0.9995701909065247
2021-02-27	11003:11017	dippoldiswalde	0.999990701675415
2021-03-15	10019:10033	dippoldiswalde	0.9999834299087524
2021-04-09	16005:16019	dippoldiswalde	0.9999959468841553
2021-04-09	16129:16143	dippoldiswalde	0.9999920129776001
2021-04-28	11771:11785	dippoldiswalde	0.9999884366989136
2021-04-29	14692:14706	dippoldiswalde	0.9999901056289673
2021-06-02	7702:7716	dippoldiswalde	0.9999809265136719
2021-11-08	7603:7617	dippoldiswalde	0.9999828338623047
2021-11-16	13024:13038	dippoldiswalde	0.9999641180038452
2021-12-06	8339:8353	dippoldiswalde	0.9999853372573853
2022-02-16	3813:3827	dippoldiswalde	0.9999704360961914
