2021-04-13	15031:15041	dommitzsch	0.9999890327453613
2021-04-13	15045:15055	dommitzsch	0.9999914169311523
2021-04-13	15294:15304	dommitzsch	0.9999927282333374
2021-04-13	15367:15377	dommitzsch	0.9999524354934692
