2021-03-15	20739:20747	dresdner	0.8143354058265686
2021-03-24	18488:18496	dresdner	0.842011034488678
2021-03-30	6936:6944	dresdner	0.9921029210090637
2021-04-08	5856:5864	dresdner	0.7519432902336121
2021-06-02	979:987	dresdner	0.9934296011924744
2022-03-02	8720:8728	dresdner	0.7296602725982666
