2021-12-02	4649:4659	eibenstock	0.999581515789032
2021-12-13	14012:14022	eibenstock	0.9999690055847168
2022-01-13	1911:1921	eibenstock	0.9999312162399292
2022-01-14	13760:13770	eibenstock	0.9999641180038452
