2021-01-09	765:769	eich	0.9999511241912842
2021-01-12	18609:18613	eich	0.9999380111694336
2021-01-12	18684:18688	eich	0.9999599456787109
2021-01-12	18860:18864	eich	0.9999651908874512
2021-01-12	19400:19404	eich	0.9999293088912964
2021-02-04	17063:17067	eich	0.999870777130127
2021-02-27	14444:14448	eich	0.9998414516448975
2021-04-10	14482:14486	eich	0.9999901056289673
2021-07-07	1407:1411	eich	0.9999334812164307
2021-11-30	5792:5796	eich	0.9999839067459106
2021-11-30	5853:5857	eich	0.9999879598617554
2021-12-13	14461:14465	eich	0.9999653100967407
2021-12-21	5354:5358	eich	0.9999891519546509
2021-12-22	13402:13406	eich	0.9999885559082031
2022-02-04	9981:9985	eich	0.8937657475471497
2022-02-04	10005:10009	eich	0.9999207258224487
2022-02-04	10327:10331	eich	0.9999850988388062
2022-02-10	2369:2373	eich	0.9999649524688721
