2021-02-26	7233:7240	elbland	0.9997251629829407
2021-02-26	7343:7350	elbland	0.9993042945861816
2021-02-26	7664:7671	elbland	0.9873340129852295
2021-02-27	661:668	elbland	0.9997105002403259
2021-03-01	14695:14702	elbland	0.9995332956314087
2021-03-01	14753:14760	elbland	0.9994596838951111
2021-05-10	10270:10277	elbland	0.9984921216964722
2021-07-01	2592:2599	elbland	0.9983997941017151
