2021-02-13	6167:6177	elsterberg	0.9999798536300659
2021-02-27	8053:8063	elsterberg	0.9999814033508301
2021-06-30	13695:13705	elsterberg	0.9999781847000122
2021-07-12	4305:4315	elsterberg	0.9999138116836548
