2021-02-08	12996:13002	erfurt	0.9996218681335449
2021-02-28	8610:8616	erfurt	0.9999915361404419
2021-04-23	5204:5210	erfurt	0.9999947547912598
2021-05-02	4128:4134	erfurt	0.9999904632568359
2021-05-03	9052:9058	erfurt	0.9999935626983643
2021-11-16	7037:7043	erfurt	0.9999877214431763
2021-11-17	6620:6626	erfurt	0.9999827146530151
2021-12-07	15845:15851	erfurt	0.9999842643737793
2022-01-10	14586:14592	erfurt	0.9999953508377075
2022-01-31	229:235	erfurt	0.9999904632568359
