2021-01-10	4045:4052	freital	0.9999916553497314
2021-01-25	15854:15861	freital	0.9999805688858032
2021-02-21	5368:5375	freital	0.9999817609786987
2021-03-05	594:601	freital	0.9999803304672241
2021-03-05	631:638	freital	0.9999827146530151
2021-03-15	16110:16117	freital	0.9999909400939941
2021-03-18	19087:19094	freital	0.9999681711196899
2021-04-08	15652:15659	freital	0.9999468326568604
2021-04-16	3374:3381	freital	0.9999815225601196
2021-04-20	16163:16170	freital	0.9999715089797974
2021-04-20	16288:16295	freital	0.9999709129333496
2021-04-28	11798:11805	freital	0.9999879598617554
2021-04-29	12839:12846	freital	0.9999880790710449
2021-04-29	14719:14726	freital	0.9999898672103882
2021-05-18	16322:16329	freital	0.9999877214431763
2021-05-24	7346:7353	freital	0.9999765157699585
2021-06-02	7729:7736	freital	0.999987006187439
2021-06-17	10770:10777	freital	0.9999884366989136
2021-06-17	10991:10998	freital	0.9991586208343506
2021-06-28	4126:4133	freital	0.9999867677688599
2021-11-08	7591:7598	freital	0.9999887943267822
2021-11-10	7946:7953	freital	0.9999837875366211
2021-11-12	13021:13028	freital	0.9999923706054688
2021-11-12	13076:13083	freital	0.9999903440475464
2021-11-12	13495:13502	freital	0.9999607801437378
2021-11-18	11366:11373	freital	0.9999815225601196
2021-11-18	11384:11391	freital	0.9999898672103882
2021-11-20	12429:12436	freital	0.9999852180480957
2021-11-20	15419:15426	freital	0.9999854564666748
2021-12-06	8330:8337	freital	0.9999822378158569
2021-12-28	3337:3344	freital	0.9999595880508423
2022-02-15	8549:8556	freital	0.9999793767929077
2022-02-15	8564:8571	freital	0.9999772310256958
