2021-01-15	8564:8570	grimma	0.9999740123748779
2021-01-15	8613:8619	grimma	0.9999874830245972
2021-01-19	5985:5991	grimma	0.9972123503684998
2021-01-19	6201:6207	grimma	0.9995124340057373
2021-01-25	7924:7930	grimma	0.9998912811279297
2021-01-25	7974:7980	grimma	0.9999288320541382
2021-01-26	17486:17492	grimma	0.9999878406524658
2021-01-26	17541:17547	grimma	0.999982476234436
2021-02-16	5991:5997	grimma	0.9999817609786987
2021-02-16	6014:6020	grimma	0.9999879598617554
2021-02-21	10570:10576	grimma	0.9999897480010986
2021-02-24	10261:10267	grimma	0.9999723434448242
2021-02-24	10334:10340	grimma	0.9999761581420898
2021-02-24	10868:10874	grimma	0.9999724626541138
2021-03-01	3936:3942	grimma	0.9999934434890747
2021-03-02	5151:5157	grimma	0.999993085861206
2021-03-02	5213:5219	grimma	0.9999943971633911
2021-03-02	5661:5667	grimma	0.9999895095825195
2021-03-02	15059:15065	grimma	0.9999871253967285
2021-03-02	15093:15099	grimma	0.9999904632568359
2021-03-02	15526:15532	grimma	0.9999858140945435
2021-03-06	8857:8863	grimma	0.9999860525131226
2021-03-09	16087:16093	grimma	0.9999810457229614
2021-03-11	1854:1860	grimma	0.9999523162841797
2021-03-12	1865:1871	grimma	0.9999496936798096
2021-03-16	11683:11689	grimma	0.9999885559082031
2021-03-16	11758:11764	grimma	0.999990701675415
2021-03-16	12138:12144	grimma	0.9999853372573853
2021-04-07	3088:3094	grimma	0.9999839067459106
2021-04-07	4967:4973	grimma	0.9999939203262329
2021-04-07	5029:5035	grimma	0.9999933242797852
2021-04-17	4815:4821	grimma	0.9997935891151428
2021-04-17	4920:4926	grimma	0.999985933303833
2021-04-19	11582:11588	grimma	0.9999945163726807
2021-04-19	11617:11623	grimma	0.9999920129776001
2021-04-19	11941:11947	grimma	0.9999845027923584
2021-04-19	12040:12046	grimma	0.9999922513961792
2021-04-27	13856:13862	grimma	0.9999845027923584
2021-04-27	14289:14295	grimma	0.9999746084213257
2021-05-05	4620:4626	grimma	0.9999802112579346
2021-05-05	4630:4636	grimma	0.9999833106994629
2021-05-18	4850:4856	grimma	0.9999899864196777
2021-05-18	4906:4912	grimma	0.9999899864196777
2021-05-21	3694:3700	grimma	0.9998301267623901
2021-06-07	14058:14064	grimma	0.9998853206634521
2021-06-23	7422:7428	grimma	0.9999343156814575
2021-06-23	7504:7510	grimma	0.9999798536300659
2021-06-27	5181:5187	grimma	0.9999784231185913
2021-06-28	4685:4691	grimma	0.9998862743377686
2021-06-28	5365:5371	grimma	0.9856060147285461
2021-06-29	4059:4065	grimma	0.9999839067459106
2021-07-02	14193:14199	grimma	0.9999790191650391
2021-07-06	11291:11297	grimma	0.999981164932251
2021-07-06	11397:11403	grimma	0.9999855756759644
2021-07-07	12602:12608	grimma	0.9999592304229736
2021-07-08	13525:13531	grimma	0.9999744892120361
2021-07-15	6492:6498	grimma	0.9999498128890991
2021-07-21	11659:11665	grimma	0.9999854564666748
2021-07-21	11771:11777	grimma	0.9999891519546509
2021-07-22	6381:6387	grimma	0.9999912977218628
2021-07-22	6460:6466	grimma	0.9999885559082031
2021-11-10	7955:7961	grimma	0.9999749660491943
2021-11-15	11062:11068	grimma	0.9999845027923584
2021-11-15	11096:11102	grimma	0.999982476234436
2021-11-16	11607:11613	grimma	0.9999912977218628
2021-11-16	11650:11656	grimma	0.9999898672103882
2021-11-16	11901:11907	grimma	0.9999915361404419
2021-11-25	5206:5212	grimma	0.9999871253967285
2021-11-25	5248:5254	grimma	0.9999914169311523
2021-12-20	2179:2185	grimma	0.9999902248382568
2021-12-20	2257:2263	grimma	0.9999700784683228
2021-12-28	9728:9734	grimma	0.9999927282333374
2021-12-29	3353:3359	grimma	0.9997764229774475
2021-12-29	3386:3392	grimma	0.9999892711639404
2021-12-29	3709:3715	grimma	0.9999761581420898
2022-01-03	15516:15522	grimma	0.9999707937240601
2022-01-17	5850:5856	grimma	0.9999904632568359
2022-01-21	6509:6515	grimma	0.9999839067459106
2022-01-21	6591:6597	grimma	0.9999853372573853
2022-01-21	6840:6846	grimma	0.9999817609786987
