2021-02-14	13660:13667	hamburg	0.8137492537498474
2021-03-01	9261:9268	hamburg	0.9999910593032837
2021-03-01	9628:9635	hamburg	0.9999781847000122
2021-03-07	10174:10181	hamburg	0.499080091714859
2021-03-16	9286:9293	hamburg	0.9999957084655762
2021-03-17	15871:15878	hamburg	0.9999954700469971
2021-03-21	2505:2512	hamburg	0.9999960660934448
2021-04-01	7824:7831	hamburg	0.9997279047966003
2021-06-13	9635:9642	hamburg	0.999992847442627
2021-06-26	4670:4677	hamburg	0.999990701675415
2021-06-29	10883:10890	hamburg	0.9999390840530396
2021-07-06	9518:9525	hamburg	0.9999936819076538
2021-11-25	8052:8059	hamburg	0.9999923706054688
2021-12-09	16682:16689	hamburg	0.9999936819076538
2022-01-10	18411:18418	hamburg	0.9999933242797852
2022-01-27	3611:3618	hamburg	0.999972939491272
2022-02-04	2728:2735	hamburg	0.9999920129776001
