2021-01-24	3289:3302	hartmannsdorf	0.9999861717224121
2021-02-02	2799:2812	hartmannsdorf	0.9999727010726929
2021-02-02	2881:2894	hartmannsdorf	0.9999786615371704
2021-04-16	17222:17235	hartmannsdorf	0.9999865293502808
2021-04-16	17431:17444	hartmannsdorf	0.9999879598617554
2021-04-17	1675:1688	hartmannsdorf	0.999993085861206
2021-04-17	1885:1898	hartmannsdorf	0.9999902248382568
