2021-03-07	8524:8530	hessen	0.9999305009841919
2021-04-05	8593:8599	hessen	0.9999312162399292
2021-04-30	2463:2469	hessen	0.9999561309814453
2021-05-22	1397:1403	hessen	0.9999959468841553
2021-07-16	5478:5484	hessen	0.9999293088912964
2021-11-25	8134:8140	hessen	0.9999645948410034
