2021-03-27	4583:4586	hof	0.9396359920501709
2021-03-30	18406:18409	hof	0.9999376535415649
2021-04-09	7281:7284	hof	0.9999650716781616
2021-04-09	7533:7536	hof	0.9975079298019409
2021-04-10	15965:15968	hof	0.9999650716781616
2021-05-14	6153:6156	hof	0.9997919201850891
2021-06-11	10723:10726	hof	0.9999707937240601
2021-11-29	10033:10036	hof	0.9994003772735596
