2021-01-19	5527:5531	jena	0.9999920129776001
2021-02-11	15774:15778	jena	0.9999687671661377
2021-03-28	4743:4747	jena	0.9999219179153442
2021-04-20	14084:14088	jena	0.9982264637947083
2021-04-30	13983:13987	jena	0.9996019005775452
