2021-02-17	5178:5186	jonsdorf	0.9999924898147583
2021-02-17	5544:5552	jonsdorf	0.9999819993972778
2021-05-29	12497:12505	jonsdorf	0.9999915361404419
2021-07-09	8636:8644	jonsdorf	0.9999872446060181
2021-07-09	8666:8674	jonsdorf	0.9999895095825195
