2021-01-13	2888:2894	kamenz	0.9999775886535645
2021-01-14	22607:22613	kamenz	0.9999864101409912
2021-01-26	9617:9623	kamenz	0.999987006187439
2021-01-30	11341:11347	kamenz	0.9999867677688599
2021-02-03	5989:5995	kamenz	0.9999861717224121
2021-02-03	6054:6060	kamenz	0.9999891519546509
2021-02-03	6407:6413	kamenz	0.9999860525131226
2021-02-04	12865:12871	kamenz	0.9999362230300903
2021-02-05	11707:11713	kamenz	0.9999884366989136
2021-02-05	11774:11780	kamenz	0.9999898672103882
2021-02-10	17682:17688	kamenz	0.9999860525131226
2021-02-12	22544:22550	kamenz	0.9999897480010986
2021-02-18	12668:12674	kamenz	0.9999735355377197
2021-02-18	20786:20792	kamenz	0.999943733215332
2021-02-22	6198:6204	kamenz	0.9999834299087524
2021-02-22	14047:14053	kamenz	0.9998196959495544
2021-02-28	3800:3806	kamenz	0.9998268485069275
2021-02-28	3895:3901	kamenz	0.9999561309814453
2021-03-18	15471:15477	kamenz	0.9999771118164062
2021-03-19	7233:7239	kamenz	0.9999891519546509
2021-03-22	10183:10189	kamenz	0.9999858140945435
2021-03-26	17178:17184	kamenz	0.9999821186065674
2021-03-26	17361:17367	kamenz	0.9999719858169556
2021-03-31	24686:24692	kamenz	0.9999485015869141
2021-04-08	13628:13634	kamenz	0.9995206594467163
2021-04-12	10661:10667	kamenz	0.9996135830879211
2021-05-03	4363:4369	kamenz	0.9995104074478149
2021-05-06	7572:7578	kamenz	0.9999755620956421
2021-05-06	10556:10562	kamenz	0.9999613761901855
2021-05-10	1961:1967	kamenz	0.9999699592590332
2021-05-25	11869:11875	kamenz	0.9999088048934937
2021-06-02	5402:5408	kamenz	0.9999829530715942
2021-06-07	14798:14804	kamenz	0.9975528120994568
2021-06-09	10374:10380	kamenz	0.9998660087585449
2021-06-10	15809:15815	kamenz	0.9999829530715942
2021-06-15	4636:4642	kamenz	0.9999876022338867
2021-06-16	2182:2188	kamenz	0.9999837875366211
2021-06-17	10247:10253	kamenz	0.9999886751174927
2021-06-18	946:952	kamenz	0.9999915361404419
2021-06-18	990:996	kamenz	0.9999908208847046
2021-06-18	13471:13477	kamenz	0.9999818801879883
2021-06-19	6918:6924	kamenz	0.9998844861984253
2021-06-24	8518:8524	kamenz	0.999983549118042
2021-07-07	11410:11416	kamenz	0.9999788999557495
2021-07-08	11694:11700	kamenz	0.9999759197235107
2021-07-12	5085:5091	kamenz	0.9999537467956543
2021-07-21	3213:3219	kamenz	0.99998939037323
2021-07-21	3286:3292	kamenz	0.999987006187439
2021-11-12	5801:5807	kamenz	0.9999427795410156
2021-11-12	19388:19394	kamenz	0.705797553062439
2021-11-15	8039:8045	kamenz	0.9999866485595703
2021-11-30	15428:15434	kamenz	0.9999872446060181
2021-12-17	2018:2024	kamenz	0.9999750852584839
2022-01-03	8433:8439	kamenz	0.99998939037323
2022-01-03	8704:8710	kamenz	0.9999837875366211
2022-01-04	16188:16194	kamenz	0.9999866485595703
2022-01-07	8153:8159	kamenz	0.9965992569923401
2022-01-18	14692:14698	kamenz	0.9999769926071167
2022-01-27	9406:9412	kamenz	0.9999796152114868
2022-01-27	13427:13433	kamenz	0.9999905824661255
2022-02-03	7584:7590	kamenz	0.9998860359191895
2022-02-04	3990:3996	kamenz	0.999685525894165
2022-02-04	7009:7015	kamenz	0.999987006187439
2022-02-23	5731:5737	kamenz	0.9997941851615906
2022-02-28	2905:2911	kamenz	0.9996782541275024
2022-03-01	5031:5037	kamenz	0.999985933303833
2022-03-01	5072:5078	kamenz	0.9999871253967285
