2021-04-07	11474:11489	karl-may-museum	0.834935188293457
2021-04-07	11524:11539	karl-may-museum	0.9999853372573853
2021-05-25	6546:6561	karl-may-museum	0.9999756813049316
2021-05-25	6632:6647	karl-may-museum	0.9999884366989136
2021-05-27	8655:8670	karl-may-museum	0.9999842643737793
2021-05-27	8700:8715	karl-may-museum	0.9999886751174927
2021-06-17	12634:12649	karl-may-museum	0.9999699592590332
2021-06-17	12691:12706	karl-may-museum	0.9999834299087524
2021-07-12	8161:8176	karl-may-museum	0.9999654293060303
