2021-01-11	13489:13501	karlovy_vary	0.9999715685844421
2021-01-13	11862:11874	karlovy_vary	0.9999761581420898
2021-02-04	16484:16496	karlovy_vary	0.9999826550483704
2021-05-16	2292:2304	karlovy_vary	0.9999799132347107
