2021-01-09	5449:5460	klingenthal	0.9999815225601196
2021-01-10	4577:4588	klingenthal	0.9999884366989136
2021-01-23	7978:7989	klingenthal	0.9999864101409912
2021-01-23	8109:8120	klingenthal	0.9999904632568359
2021-01-24	7715:7726	klingenthal	0.9999909400939941
2021-01-25	6958:6969	klingenthal	0.9999769926071167
2021-01-25	7083:7094	klingenthal	0.9999833106994629
2021-01-26	3378:3389	klingenthal	0.9999809265136719
2021-01-26	3494:3505	klingenthal	0.9999852180480957
2021-01-26	3973:3984	klingenthal	0.9999908208847046
2021-01-27	7085:7096	klingenthal	0.9999841451644897
2021-01-27	12818:12829	klingenthal	0.9999949932098389
2021-01-27	16907:16918	klingenthal	0.9999890327453613
2021-01-27	17035:17046	klingenthal	0.9999784231185913
2021-01-27	17490:17501	klingenthal	0.9999896287918091
2021-01-28	4042:4053	klingenthal	0.9999847412109375
2021-01-28	4096:4107	klingenthal	0.9999926090240479
2021-01-31	5269:5280	klingenthal	0.9999868869781494
2021-01-31	5337:5348	klingenthal	0.9999840259552002
2021-01-31	5699:5710	klingenthal	0.9999899864196777
2021-02-07	7163:7174	klingenthal	0.9999932050704956
2021-02-07	8705:8716	klingenthal	0.9999810457229614
2021-02-16	3463:3474	klingenthal	0.9999629259109497
2021-02-16	3529:3540	klingenthal	0.999981164932251
2021-02-20	7243:7254	klingenthal	0.999984860420227
2021-02-22	13055:13066	klingenthal	0.9999886751174927
2021-02-24	8728:8739	klingenthal	0.9999582767486572
2021-02-27	14313:14324	klingenthal	0.9999837875366211
2021-05-02	9264:9275	klingenthal	0.9999891519546509
2021-05-02	9279:9290	klingenthal	0.9999914169311523
2021-12-09	11736:11747	klingenthal	0.730583667755127
2021-12-27	10105:10116	klingenthal	0.9999823570251465
2022-03-04	3765:3776	klingenthal	0.9999873638153076
2022-03-04	3780:3791	klingenthal	0.9999915361404419
