2021-01-15	16198:16208	kodersdorf	0.999985933303833
2021-01-15	16245:16255	kodersdorf	0.999984860420227
2021-01-16	2728:2738	kodersdorf	0.999984860420227
2021-01-19	21254:21264	kodersdorf	0.9999610185623169
2021-01-19	21411:21421	kodersdorf	0.9999668598175049
2021-04-01	5967:5977	kodersdorf	0.9999878406524658
2022-01-24	6151:6161	kodersdorf	0.999980092048645
