2021-02-04	10614:10619	kreta	0.9999823570251465
2021-05-16	5286:5291	kreta	0.9998929500579834
2021-05-16	5463:5468	kreta	0.9999896287918091
2021-06-04	14466:14471	kreta	0.9999606609344482
2021-06-04	14696:14701	kreta	0.9999864101409912
