2021-02-25	9900:9904	köln	0.9999964237213135
2021-03-14	4593:4597	köln	0.9999781847000122
2021-05-29	10748:10752	köln	0.700049877166748
2021-12-01	5709:5713	köln	0.9999899864196777
2021-12-01	5753:5757	köln	0.9999934434890747
2021-12-01	10470:10474	köln	0.9999871253967285
2022-02-07	1112:1116	köln	0.979726254940033
2022-02-07	1190:1194	köln	0.999464213848114
