2021-01-26	18543:18553	königstein	0.9999912977218628
2021-03-09	6988:6998	königstein	0.9996929168701172
2021-04-12	18853:18863	königstein	0.9999274015426636
2021-04-12	18945:18955	königstein	0.9999650716781616
2021-05-19	5474:5484	königstein	0.9999896287918091
2021-06-02	15390:15400	königstein	0.9360260367393494
2021-06-02	15442:15452	königstein	0.9999861717224121
2021-07-14	5844:5854	königstein	0.9999867677688599
2021-07-14	5921:5931	königstein	0.9999905824661255
2022-02-08	691:701	königstein	0.9999562501907349
2022-02-08	732:742	königstein	0.9999779462814331
