2021-05-28	9563:9571	küchwald	0.9999352693557739
2021-05-28	9687:9695	küchwald	0.9999507665634155
2021-05-28	10099:10107	küchwald	0.9999549388885498
2021-06-03	17638:17646	küchwald	0.9999727010726929
2021-07-02	12887:12895	küchwald	0.9999734163284302
2021-12-08	5725:5733	küchwald	0.999974250793457
