2021-01-13	9532:9539	meissen	0.9999887943267822
2021-01-13	9603:9610	meissen	0.9999903440475464
2021-06-01	12677:12684	meissen	0.999992847442627
2021-06-15	14313:14320	meissen	0.5938080549240112
2021-06-15	14385:14392	meissen	0.9992608428001404
2022-02-02	5228:5235	meissen	0.9999815225601196
2022-02-02	5260:5267	meissen	0.999980092048645
2022-02-02	5586:5593	meissen	0.9938940405845642
