2021-01-07	1436:1442	meißen	0.9999878406524658
2021-01-08	8209:8215	meißen	0.999985933303833
2021-01-08	11219:11225	meißen	0.9999496936798096
2021-01-08	11245:11251	meißen	0.9999902248382568
2021-01-08	11572:11578	meißen	0.9999903440475464
2021-01-11	10459:10465	meißen	0.9999666213989258
2021-01-13	3676:3682	meißen	0.9999409914016724
2021-01-13	6812:6818	meißen	0.9999872446060181
2021-01-13	21125:21131	meißen	0.9999483823776245
2021-01-13	21231:21237	meißen	0.9999676942825317
2021-01-18	2534:2540	meißen	0.9998276233673096
2021-01-18	2620:2626	meißen	0.9893220663070679
2021-01-18	17667:17673	meißen	0.9999916553497314
2021-01-19	504:510	meißen	0.9999791383743286
2021-01-19	8793:8799	meißen	0.7833314538002014
2021-01-19	21584:21590	meißen	0.9999847412109375
2021-01-28	11509:11515	meißen	0.6163560748100281
2021-01-28	11535:11541	meißen	0.9999762773513794
2021-01-29	5087:5093	meißen	0.9999167919158936
2021-01-29	5173:5179	meißen	0.9999176263809204
2021-02-16	2558:2564	meißen	0.9999850988388062
2021-02-17	14541:14547	meißen	0.9999911785125732
2021-02-17	14573:14579	meißen	0.999991774559021
2021-02-18	13898:13904	meißen	0.9999755620956421
2021-02-23	6994:7000	meißen	0.9999707937240601
2021-02-23	21076:21082	meißen	0.9999771118164062
2021-02-28	6120:6126	meißen	0.9999542236328125
2021-02-28	6343:6349	meißen	0.9999829530715942
2021-03-02	21631:21637	meißen	0.9999834299087524
2021-03-02	21641:21647	meißen	0.9999899864196777
2021-03-02	22291:22297	meißen	0.9999681711196899
2021-03-03	21697:21703	meißen	0.9999115467071533
2021-03-03	21896:21902	meißen	0.9999731779098511
2021-03-05	13327:13333	meißen	0.999995231628418
2021-03-05	13372:13378	meißen	0.9999953508377075
2021-03-12	3294:3300	meißen	0.9999902248382568
2021-03-12	3332:3338	meißen	0.9999905824661255
2021-03-12	3521:3527	meißen	0.999992847442627
2021-03-14	5447:5453	meißen	0.9999892711639404
2021-03-17	7430:7436	meißen	0.9651634097099304
2021-03-17	10517:10523	meißen	0.9999654293060303
2021-03-18	18035:18041	meißen	0.99998939037323
2021-03-18	18084:18090	meißen	0.9999845027923584
2021-03-18	22325:22331	meißen	0.9999884366989136
2021-03-19	3296:3302	meißen	0.9999886751174927
2021-03-19	8448:8454	meißen	0.9999556541442871
2021-03-19	8495:8501	meißen	0.9999809265136719
2021-03-19	8827:8833	meißen	0.9999904632568359
2021-03-22	9907:9913	meißen	0.9999690055847168
2021-03-22	12445:12451	meißen	0.9999880790710449
2021-03-24	10783:10789	meißen	0.9999842643737793
2021-03-24	16281:16287	meißen	0.9999867677688599
2021-03-26	21512:21518	meißen	0.9999818801879883
2021-03-31	20604:20610	meißen	0.9975894689559937
2021-03-31	20685:20691	meißen	0.9773444533348083
2021-04-01	12813:12819	meißen	0.9999722242355347
2021-04-02	755:761	meißen	0.9999837875366211
2021-04-03	1082:1088	meißen	0.999993085861206
2021-04-07	14674:14680	meißen	0.9999749660491943
2021-04-07	14694:14700	meißen	0.9999839067459106
2021-04-09	15345:15351	meißen	0.9999443292617798
2021-04-12	11030:11036	meißen	0.9999345541000366
2021-04-19	12059:12065	meißen	0.9999940395355225
2021-04-19	12115:12121	meißen	0.9999933242797852
2021-04-19	12318:12324	meißen	0.9999912977218628
2021-04-22	18574:18580	meißen	0.9999852180480957
2021-04-22	18740:18746	meißen	0.9999834299087524
2021-04-27	2653:2659	meißen	0.9999313354492188
2021-04-28	11810:11816	meißen	0.9999876022338867
2021-04-29	14733:14739	meißen	0.9999909400939941
2021-05-03	5076:5082	meißen	0.9999903440475464
2021-05-03	5147:5153	meißen	0.9999905824661255
2021-05-10	10286:10292	meißen	0.9999762773513794
2021-05-18	8893:8899	meißen	0.9999889135360718
2021-05-19	1215:1221	meißen	0.9894941449165344
2021-05-19	1925:1931	meißen	0.9999864101409912
2021-05-19	2320:2326	meißen	0.9999878406524658
2021-05-21	6776:6782	meißen	0.9999909400939941
2021-05-23	597:603	meißen	0.9998831748962402
2021-05-24	6898:6904	meißen	0.9999918937683105
2021-05-25	16517:16523	meißen	0.9999867677688599
2021-05-28	4965:4971	meißen	0.9994632601737976
2021-05-28	5033:5039	meißen	0.9999852180480957
2021-06-01	12795:12801	meißen	0.9999825954437256
2021-06-01	12915:12921	meißen	0.9999816417694092
2021-06-02	7741:7747	meißen	0.9999858140945435
2021-06-03	18812:18818	meißen	0.9999803304672241
2021-06-03	18840:18846	meißen	0.999987006187439
2021-06-03	19241:19247	meißen	0.9999727010726929
2021-06-04	8176:8182	meißen	0.9999181032180786
2021-06-06	2780:2786	meißen	0.9999734163284302
2021-06-06	2980:2986	meißen	0.999951958656311
2021-06-11	14684:14690	meißen	0.9999899864196777
2021-06-20	2516:2522	meißen	0.9999563694000244
2021-06-25	1700:1706	meißen	0.9999794960021973
2021-07-01	644:650	meißen	0.9999895095825195
2021-07-05	1532:1538	meißen	0.9999064207077026
2021-07-07	13542:13548	meißen	0.9999880790710449
2021-07-08	1994:2000	meißen	0.9999905824661255
2021-07-12	978:984	meißen	0.9999912977218628
2021-07-16	7063:7069	meißen	0.9999904632568359
2021-07-16	7131:7137	meißen	0.9999921321868896
2021-11-10	7975:7981	meißen	0.9999908208847046
2021-11-11	2387:2393	meißen	0.9884952306747437
2021-11-12	16555:16561	meißen	0.99998939037323
2021-11-17	12670:12676	meißen	0.999937891960144
2021-11-17	12774:12780	meißen	0.9999780654907227
2021-11-18	5196:5202	meißen	0.9999186992645264
2021-11-18	5352:5358	meißen	0.999885082244873
2021-11-18	15078:15084	meißen	0.9999814033508301
2021-11-20	12467:12473	meißen	0.9999923706054688
2021-11-20	15340:15346	meißen	0.9999685287475586
2021-12-01	5875:5881	meißen	0.9999924898147583
2021-12-01	7590:7596	meißen	0.9999773502349854
2021-12-09	3471:3477	meißen	0.9982617497444153
2021-12-09	15342:15348	meißen	0.9999469518661499
2021-12-10	8607:8613	meißen	0.9502904415130615
2021-12-13	2434:2440	meißen	0.9999935626983643
2021-12-13	8395:8401	meißen	0.9998469352722168
2021-12-14	6403:6409	meißen	0.9999823570251465
2021-12-14	7111:7117	meißen	0.9999890327453613
2021-12-14	14327:14333	meißen	0.9999597072601318
2021-12-15	12593:12599	meißen	0.99998939037323
2021-12-15	12678:12684	meißen	0.9999904632568359
2021-12-15	17902:17908	meißen	0.999974250793457
2021-12-16	14128:14134	meißen	0.9997904896736145
2021-12-20	12176:12182	meißen	0.9999828338623047
2021-12-21	13521:13527	meißen	0.9999902248382568
2021-12-21	13752:13758	meißen	0.999985933303833
2021-12-21	15372:15378	meißen	0.9987370371818542
2022-01-06	3725:3731	meißen	0.9999631643295288
2022-01-06	10786:10792	meißen	0.9999784231185913
2022-01-07	1166:1172	meißen	0.999971866607666
2022-01-17	1312:1318	meißen	0.9999897480010986
2022-01-20	13003:13009	meißen	0.9999904632568359
2022-01-20	13419:13425	meißen	0.9999940395355225
2022-01-25	13780:13786	meißen	0.9998475313186646
2022-01-25	13827:13833	meißen	0.9999485015869141
2022-01-26	9960:9966	meißen	0.9999825954437256
2022-02-01	9272:9278	meißen	0.9999769926071167
2022-02-04	14273:14279	meißen	0.999987006187439
2022-02-04	14296:14302	meißen	0.999974250793457
2022-02-08	6881:6887	meißen	0.9999756813049316
2022-02-22	6458:6464	meißen	0.9999719858169556
2022-03-02	6065:6071	meißen	0.9997630715370178
2022-03-03	7972:7978	meißen	0.9999924898147583
