2021-06-09	3089:3101	messegelände	0.9998681545257568
2021-07-15	6026:6038	messegelände	0.9996954202651978
2021-11-12	7614:7626	messegelände	0.6391750574111938
2021-11-12	7734:7746	messegelände	0.9997604489326477
