2021-04-14	2355:2361	moskau	0.9999701976776123
2021-04-22	12064:12070	moskau	0.9999854564666748
2021-04-25	2033:2039	moskau	0.9999796152114868
2021-04-25	2111:2117	moskau	0.99998939037323
2021-05-24	4900:4906	moskau	0.9999703168869019
2021-05-24	5017:5023	moskau	0.9999798536300659
