2021-03-01	3918:3932	muldentalhalle	0.999984860420227
2021-03-02	5281:5295	muldentalhalle	0.9999828338623047
2021-03-02	15161:15175	muldentalhalle	0.9999812841415405
2021-03-10	10936:10950	muldentalhalle	0.9999841451644897
2021-03-16	11740:11754	muldentalhalle	0.9999743700027466
2021-03-16	12120:12134	muldentalhalle	0.9999735355377197
2021-03-19	10123:10137	muldentalhalle	0.999982476234436
2022-01-03	11068:11082	muldentalhalle	0.999974250793457
