2021-03-12	3905:3911	mügeln	0.9994962215423584
2021-04-23	7854:7860	mügeln	0.9998812675476074
2021-05-17	10010:10016	mügeln	0.9999654293060303
2021-12-08	15839:15845	mügeln	0.9998289346694946
2021-12-22	12255:12261	mügeln	0.9998779296875
2021-12-22	12476:12482	mügeln	0.9999295473098755
2021-12-22	12559:12565	mügeln	0.9998862743377686
2022-01-27	11285:11291	mügeln	0.9856528043746948
