2021-01-15	3260:3266	niesky	0.9999738931655884
2021-01-19	20122:20128	niesky	0.9999823570251465
2021-01-19	20154:20160	niesky	0.9999909400939941
2021-03-30	3908:3914	niesky	0.9995558857917786
2021-03-30	3944:3950	niesky	0.9999799728393555
2021-04-17	1188:1194	niesky	0.9985222220420837
2021-04-19	15941:15947	niesky	0.9999499320983887
2021-11-22	14181:14187	niesky	0.9999849796295166
2021-11-22	14229:14235	niesky	0.999988317489624
2021-11-23	13841:13847	niesky	0.9999797344207764
2021-12-02	876:882	niesky	0.9999672174453735
2022-01-21	9321:9327	niesky	0.9999631643295288
2022-01-25	3757:3763	niesky	0.9999281167984009
