2021-11-25	2346:2361	norddeutschland	0.9999885559082031
2021-12-08	6865:6880	norddeutschland	0.9999903440475464
2021-12-09	18136:18151	norddeutschland	0.9999916553497314
2022-01-21	3308:3323	norddeutschland	0.9999933242797852
