2021-01-10	5043:5057	oberwiesenthal	0.99998939037323
2021-01-11	20216:20230	oberwiesenthal	0.9999810457229614
2021-01-14	3291:3305	oberwiesenthal	0.9999717473983765
2021-01-30	3143:3157	oberwiesenthal	0.9999920129776001
2021-01-30	3212:3226	oberwiesenthal	0.9999927282333374
2021-02-25	18861:18875	oberwiesenthal	0.9999908208847046
2021-02-26	6967:6981	oberwiesenthal	0.999992847442627
2021-03-03	8897:8911	oberwiesenthal	0.9999943971633911
2021-03-19	12034:12048	oberwiesenthal	0.9999936819076538
2021-03-19	12053:12067	oberwiesenthal	0.9999911785125732
2021-03-19	12203:12217	oberwiesenthal	0.9999905824661255
2021-03-21	8392:8406	oberwiesenthal	0.9999945163726807
2021-03-21	8500:8514	oberwiesenthal	0.9999955892562866
2021-03-24	21645:21659	oberwiesenthal	0.9999884366989136
2021-03-25	12399:12413	oberwiesenthal	0.9999887943267822
2021-03-26	20307:20321	oberwiesenthal	0.9999814033508301
2021-03-30	15981:15995	oberwiesenthal	0.999990701675415
2021-03-30	16043:16057	oberwiesenthal	0.9999897480010986
2021-03-31	19086:19100	oberwiesenthal	0.999981164932251
2021-04-03	2567:2581	oberwiesenthal	0.9999903440475464
2021-04-03	2703:2717	oberwiesenthal	0.999987006187439
2021-04-10	17947:17961	oberwiesenthal	0.999984622001648
2021-04-10	18017:18031	oberwiesenthal	0.999991774559021
2021-04-21	10413:10427	oberwiesenthal	0.9999904632568359
2021-04-21	10527:10541	oberwiesenthal	0.9999933242797852
2021-04-21	10703:10717	oberwiesenthal	0.9999946355819702
2021-04-21	11045:11059	oberwiesenthal	0.9999921321868896
2021-05-25	18207:18221	oberwiesenthal	0.999993085861206
2021-11-23	1155:1169	oberwiesenthal	0.9999889135360718
2021-12-13	1609:1623	oberwiesenthal	0.9999878406524658
2021-12-13	1767:1781	oberwiesenthal	0.999954104423523
2021-12-13	13993:14007	oberwiesenthal	0.9999880790710449
2022-01-21	9534:9548	oberwiesenthal	0.9999935626983643
2022-01-21	9884:9898	oberwiesenthal	0.9999936819076538
2022-02-17	6127:6141	oberwiesenthal	0.9999904632568359
2022-02-17	6175:6189	oberwiesenthal	0.9999920129776001
