2021-01-08	21405:21413	oelsnitz	0.9999936819076538
2021-01-08	21464:21472	oelsnitz	0.9999936819076538
2021-01-20	4932:4940	oelsnitz	0.9999649524688721
2021-02-16	9102:9110	oelsnitz	0.9999880790710449
2021-04-08	8575:8583	oelsnitz	0.9999819993972778
2021-04-08	8603:8611	oelsnitz	0.999990701675415
2021-04-10	8652:8660	oelsnitz	0.9999856948852539
2021-05-18	16873:16881	oelsnitz	0.9999901056289673
2021-05-18	16931:16939	oelsnitz	0.9999816417694092
2021-05-18	17066:17074	oelsnitz	0.999992847442627
2021-05-21	18072:18080	oelsnitz	0.9999923706054688
2021-05-27	5390:5398	oelsnitz	0.7795491814613342
2021-05-27	5434:5442	oelsnitz	0.9999778270721436
2021-07-12	4197:4205	oelsnitz	0.9984056353569031
2021-12-17	9776:9784	oelsnitz	0.9999799728393555
2021-12-17	9827:9835	oelsnitz	0.9999843835830688
