2021-02-12	14485:14492	ostritz	0.9999933242797852
2021-02-12	14551:14558	ostritz	0.999988317489624
2021-02-12	14991:14998	ostritz	0.9999879598617554
2021-03-01	9747:9754	ostritz	0.9999891519546509
2021-03-01	10064:10071	ostritz	0.9999880790710449
2021-04-05	6211:6218	ostritz	0.9999873638153076
