2021-01-21	10225:10235	ostsachsen	0.999987006187439
2021-02-01	1374:1384	ostsachsen	0.9999895095825195
2021-02-05	13771:13781	ostsachsen	0.9999779462814331
2021-02-08	6556:6566	ostsachsen	0.9999885559082031
2021-02-14	12201:12211	ostsachsen	0.9999860525131226
2021-03-22	3816:3826	ostsachsen	0.9999772310256958
2021-03-28	3398:3408	ostsachsen	0.9999935626983643
2021-05-01	5657:5667	ostsachsen	0.9999611377716064
2021-05-05	10634:10644	ostsachsen	0.9999818801879883
2021-05-06	10111:10121	ostsachsen	0.9999842643737793
2021-06-02	13735:13745	ostsachsen	0.999991774559021
2021-06-02	13949:13959	ostsachsen	0.9999898672103882
2021-06-07	13249:13259	ostsachsen	0.9999784231185913
2021-06-09	11649:11659	ostsachsen	0.9999892711639404
2021-06-10	15406:15416	ostsachsen	0.9999880790710449
2021-06-16	6944:6954	ostsachsen	0.9999698400497437
2021-06-30	2282:2292	ostsachsen	0.9999898672103882
2021-06-30	2692:2702	ostsachsen	0.9999818801879883
2021-07-08	10873:10883	ostsachsen	0.9999809265136719
2021-12-01	5399:5409	ostsachsen	0.9999737739562988
2021-12-02	9988:9998	ostsachsen	0.9999508857727051
2021-12-27	901:911	ostsachsen	0.9999693632125854
2021-12-27	1005:1015	ostsachsen	0.9999802112579346
2022-02-14	2667:2677	ostsachsen	0.9999923706054688
2022-02-14	2981:2991	ostsachsen	0.9999898672103882
