2021-01-26	18408:18416	pillnitz	0.9999597072601318
2021-03-25	14812:14820	pillnitz	0.7343066930770874
2021-03-25	15050:15058	pillnitz	0.9954795837402344
2021-04-16	16806:16814	pillnitz	0.9999405145645142
2021-04-19	9219:9227	pillnitz	0.9999022483825684
2021-04-23	15269:15277	pillnitz	0.9942848086357117
2021-05-20	19274:19282	pillnitz	0.9999583959579468
2021-06-01	12644:12652	pillnitz	0.9999642372131348
2022-02-22	6589:6597	pillnitz	0.999972939491272
2022-02-22	6704:6712	pillnitz	0.9999743700027466
