2021-03-26	11630:11635	plohn	0.9999773502349854
2021-03-26	11684:11689	plohn	0.9999903440475464
2021-03-26	12011:12016	plohn	0.999984622001648
2021-05-30	6508:6513	plohn	0.9999022483825684
2021-05-30	6545:6550	plohn	0.9999585151672363
2021-06-03	14489:14494	plohn	0.9999629259109497
2021-06-03	14545:14550	plohn	0.9998877048492432
2021-06-30	13763:13768	plohn	0.999395489692688
