2021-01-07	7166:7171	polen	0.9999805688858032
2021-01-08	554:559	polen	0.9999816417694092
2021-01-08	8506:8511	polen	0.999966025352478
2021-01-11	10647:10652	polen	0.9999831914901733
2021-01-14	8396:8401	polen	0.9999055862426758
2021-01-15	16741:16746	polen	0.9999840259552002
2021-01-15	16843:16848	polen	0.9999786615371704
2021-01-16	2916:2921	polen	0.999935507774353
2021-01-18	20390:20395	polen	0.9999440908432007
2021-01-18	20487:20492	polen	0.9999573230743408
2021-01-18	21667:21672	polen	0.9999855756759644
2021-01-19	7089:7094	polen	0.9999853372573853
2021-01-21	11758:11763	polen	0.9997667670249939
2021-01-22	1579:1584	polen	0.9999746084213257
2021-01-24	5796:5801	polen	0.9999762773513794
2021-01-24	5822:5827	polen	0.9803824424743652
2021-02-05	10352:10357	polen	0.999976396560669
2021-02-09	11501:11506	polen	0.9999920129776001
2021-02-10	11523:11528	polen	0.9995373487472534
2021-02-11	14180:14185	polen	0.9997695088386536
2021-02-13	3711:3716	polen	0.9999781847000122
2021-02-13	4005:4010	polen	0.9999692440032959
2021-02-13	5812:5817	polen	0.9999793767929077
2021-02-20	2177:2182	polen	0.9999738931655884
2021-02-20	2217:2222	polen	0.9999535083770752
2021-02-22	11188:11193	polen	0.9999469518661499
2021-02-22	11258:11263	polen	0.9999828338623047
2021-02-22	11784:11789	polen	0.9999877214431763
2021-03-05	5749:5754	polen	0.9999760389328003
2021-03-07	6819:6824	polen	0.9999685287475586
2021-03-08	237:242	polen	0.9999904632568359
2021-03-08	253:258	polen	0.9999881982803345
2021-03-17	4262:4267	polen	0.9999840259552002
2021-03-17	4348:4353	polen	0.9999853372573853
2021-03-19	321:326	polen	0.9999926090240479
2021-03-19	386:391	polen	0.9999938011169434
2021-03-21	10389:10394	polen	0.9998947381973267
2021-03-21	10472:10477	polen	0.9999101161956787
2021-03-21	13458:13463	polen	0.999984860420227
2021-03-21	13522:13527	polen	0.9999864101409912
2021-03-22	306:311	polen	0.999984860420227
2021-03-22	753:758	polen	0.9999836683273315
2021-03-22	9239:9244	polen	0.9999407529830933
2021-03-22	15293:15298	polen	0.999982476234436
2021-03-22	15666:15671	polen	0.9999886751174927
2021-03-24	7233:7238	polen	0.9999732971191406
2021-03-24	7242:7247	polen	0.9999698400497437
2021-03-24	7827:7832	polen	0.999976396560669
2021-03-24	15913:15918	polen	0.9999648332595825
2021-03-26	12186:12191	polen	0.9999809265136719
2021-03-27	13681:13686	polen	0.9999858140945435
2021-03-27	13738:13743	polen	0.9999849796295166
2021-03-27	14074:14079	polen	0.9999852180480957
2021-03-27	14810:14815	polen	0.9999762773513794
2021-03-29	1669:1674	polen	0.9999850988388062
2021-03-29	2142:2147	polen	0.999984860420227
2021-03-29	2192:2197	polen	0.9999920129776001
2021-04-06	6252:6257	polen	0.9999740123748779
2021-04-06	6315:6320	polen	0.9999779462814331
2021-04-07	7024:7029	polen	0.9999895095825195
2021-04-12	16190:16195	polen	0.9999814033508301
2021-04-12	16291:16296	polen	0.999969482421875
2021-04-21	1461:1466	polen	0.9999901056289673
2021-04-21	1489:1494	polen	0.9999867677688599
2021-04-21	1936:1941	polen	0.9999834299087524
2021-04-27	5984:5989	polen	0.9999691247940063
2021-05-03	4953:4958	polen	0.9999215602874756
2021-05-07	1458:1463	polen	0.9999923706054688
2021-05-07	1513:1518	polen	0.9999942779541016
2021-05-14	1340:1345	polen	0.999953031539917
2021-05-14	7976:7981	polen	0.9999933242797852
2021-05-15	5449:5454	polen	0.9999393224716187
2021-05-17	15296:15301	polen	0.9999831914901733
2021-05-17	15505:15510	polen	0.9999840259552002
2021-05-22	7900:7905	polen	0.9999827146530151
2021-05-26	4778:4783	polen	0.999840497970581
2021-05-28	5462:5467	polen	0.999993085861206
2021-05-28	5531:5536	polen	0.9999921321868896
2021-05-28	5827:5832	polen	0.9999840259552002
2021-05-28	5943:5948	polen	0.9999853372573853
2021-05-31	13494:13499	polen	0.9999853372573853
2021-05-31	13572:13577	polen	0.9999748468399048
2021-06-11	15514:15519	polen	0.9999896287918091
2021-06-11	15572:15577	polen	0.9999890327453613
2021-06-13	4065:4070	polen	0.9999459981918335
2021-06-27	1250:1255	polen	0.9999523162841797
2021-06-28	11131:11136	polen	0.9999798536300659
2021-07-12	12345:12350	polen	0.9998375177383423
2021-07-12	12762:12767	polen	0.9999158382415771
2021-07-14	3193:3198	polen	0.9999878406524658
2021-07-21	9215:9220	polen	0.9999735355377197
2021-12-03	3909:3914	polen	0.9999600648880005
2021-12-28	5077:5082	polen	0.9998890161514282
2022-01-18	11348:11353	polen	0.9990668892860413
2022-01-24	6772:6777	polen	0.9999721050262451
2022-02-10	2704:2709	polen	0.999993085861206
2022-02-10	3642:3647	polen	0.9999675750732422
2022-02-10	3939:3944	polen	0.9999867677688599
