2021-05-06	3419:3432	prager_straße	0.9999750256538391
2021-05-06	3440:3453	prager_straße	0.9999825358390808
2022-02-23	3488:3501	prager_straße	0.9999781250953674
2022-02-24	6945:6958	prager_straße	0.9999773502349854
