2021-03-24	18737:18744	prohlis	0.997999370098114
2021-06-10	3206:3213	prohlis	0.9999630451202393
2021-06-21	6427:6434	prohlis	0.9999634027481079
2021-07-06	5950:5957	prohlis	0.999954342842102
2021-11-24	1346:1353	prohlis	0.9999721050262451
