2021-03-30	21833:21841	rackwitz	0.9999831914901733
2021-03-30	21990:21998	rackwitz	0.9999814033508301
2021-12-22	12266:12274	rackwitz	0.9998372793197632
2021-12-22	12487:12495	rackwitz	0.9998811483383179
2021-12-22	12609:12617	rackwitz	0.9999750852584839
