2021-02-14	1619:1627	radeburg	0.9999932050704956
2021-02-15	17765:17773	radeburg	0.9999940395355225
2021-03-12	3539:3547	radeburg	0.9999897480010986
2021-04-05	3640:3648	radeburg	0.9999842643737793
2021-04-05	3711:3719	radeburg	0.9999825954437256
2021-04-28	11712:11720	radeburg	0.9999896287918091
2021-04-28	18542:18550	radeburg	0.9999822378158569
2021-04-28	18732:18740	radeburg	0.9999902248382568
2021-04-29	14633:14641	radeburg	0.999991774559021
2021-05-12	16628:16636	radeburg	0.9999909400939941
2021-06-01	2699:2707	radeburg	0.9999678134918213
2021-06-01	2856:2864	radeburg	0.9999783039093018
2021-06-02	7643:7651	radeburg	0.9999885559082031
2021-06-10	14646:14654	radeburg	0.9999914169311523
2021-06-10	14959:14967	radeburg	0.9999938011169434
