2021-02-28	4293:4301	radeberg	0.999984622001648
2021-02-28	4395:4403	radeberg	0.9999778270721436
2021-02-28	4577:4585	radeberg	0.999984860420227
2021-02-28	4649:4657	radeberg	0.9999886751174927
2021-03-01	5257:5265	radeberg	0.9999881982803345
2021-03-01	5348:5356	radeberg	0.9999804496765137
2021-03-01	5825:5833	radeberg	0.9999866485595703
2021-03-01	5898:5906	radeberg	0.9999892711639404
2021-03-02	17362:17370	radeberg	0.9999822378158569
2021-03-02	17419:17427	radeberg	0.9999867677688599
2021-03-02	23552:23560	radeberg	0.9999892711639404
2021-03-02	23649:23657	radeberg	0.999991774559021
2021-03-02	23705:23713	radeberg	0.9999910593032837
2021-03-02	23924:23932	radeberg	0.9999845027923584
2021-03-02	24378:24386	radeberg	0.9999878406524658
2021-03-03	6175:6183	radeberg	0.999994158744812
2021-03-03	6305:6313	radeberg	0.9999902248382568
2021-03-03	13475:13483	radeberg	0.99998939037323
2021-03-03	19438:19446	radeberg	0.9999772310256958
2021-03-03	19450:19458	radeberg	0.9999772310256958
2021-03-04	15809:15817	radeberg	0.9999799728393555
2021-03-04	15844:15852	radeberg	0.9999828338623047
2021-03-05	6348:6356	radeberg	0.9999876022338867
2021-03-05	6659:6667	radeberg	0.9999904632568359
2021-03-05	21156:21164	radeberg	0.9999865293502808
2021-03-05	21189:21197	radeberg	0.9999868869781494
2021-03-10	7805:7813	radeberg	0.9999836683273315
2021-03-10	20622:20630	radeberg	0.9999822378158569
2021-04-28	11741:11749	radeberg	0.9999878406524658
2021-04-29	14662:14670	radeberg	0.9999904632568359
2021-06-02	7672:7680	radeberg	0.9999861717224121
2021-06-11	7471:7479	radeberg	0.9999719858169556
2021-06-11	7551:7559	radeberg	0.9999836683273315
2022-01-03	14335:14343	radeberg	0.9999567270278931
2022-01-03	14371:14379	radeberg	0.9999754428863525
2022-01-04	1985:1993	radeberg	0.9999719858169556
2022-01-27	9300:9308	radeberg	0.9999868869781494
