2021-02-05	15283:15292	radebeuls	0.9999920129776001
2022-01-21	8278:8287	radebeuls	0.9996063113212585
2022-02-04	7173:7182	radebeuls	0.9999825954437256
2022-02-04	7216:7225	radebeuls	0.9999788999557495
