2021-01-18	13085:13096	reitzenhain	0.9999926090240479
2021-01-31	2750:2761	reitzenhain	0.999984860420227
2021-02-07	303:314	reitzenhain	0.9999889135360718
2021-02-07	544:555	reitzenhain	0.9999927282333374
2021-02-14	11699:11710	reitzenhain	0.999994158744812
2021-02-14	11884:11895	reitzenhain	0.9999842643737793
2021-02-16	19161:19172	reitzenhain	0.9999462366104126
2021-02-17	14051:14062	reitzenhain	0.9999868869781494
2021-02-17	14350:14361	reitzenhain	0.9999856948852539
