2021-01-22	3275:3283	russland	0.9999936819076538
2021-01-22	3321:3329	russland	0.9999873638153076
2021-03-15	4403:4411	russland	0.9999935626983643
2021-03-15	4472:4480	russland	0.999991774559021
2021-03-18	17638:17646	russland	0.9999943971633911
2021-03-23	10964:10972	russland	0.9999940395355225
2021-03-23	11036:11044	russland	0.9999953508377075
2021-03-26	3549:3557	russland	0.9999936819076538
2021-05-03	11730:11738	russland	0.9999955892562866
2021-05-24	5421:5429	russland	0.9999868869781494
2021-06-10	2082:2090	russland	0.9999885559082031
2021-06-26	8041:8049	russland	0.9999949932098389
2021-06-26	8209:8217	russland	0.9999953508377075
2021-06-27	2463:2471	russland	0.9999946355819702
2021-07-06	9946:9954	russland	0.9999933242797852
