2021-03-26	17232:17243	schmochtitz	0.9933285713195801
2021-03-26	17375:17386	schmochtitz	0.9999395608901978
2021-04-02	8198:8209	schmochtitz	0.9999881982803345
2021-04-02	8264:8275	schmochtitz	0.9999855756759644
2021-04-09	8706:8717	schmochtitz	0.999967098236084
2021-06-07	17990:18001	schmochtitz	0.9999622106552124
2021-06-07	18052:18063	schmochtitz	0.845634400844574
2021-07-06	6856:6867	schmochtitz	0.849988579750061
2021-11-26	7653:7664	schmochtitz	0.9999709129333496
