2021-01-19	3057:3064	schweiz	0.9999668598175049
2021-02-16	7214:7221	schweiz	0.52620929479599
2021-02-24	19384:19391	schweiz	0.8025134205818176
2021-03-05	5763:5770	schweiz	0.9999755620956421
2021-03-09	7169:7176	schweiz	0.9861953258514404
2021-03-23	17094:17101	schweiz	0.870473325252533
2021-03-23	17152:17159	schweiz	0.9223880171775818
2021-04-09	4673:4680	schweiz	0.9968180656433105
2021-04-09	4727:4734	schweiz	0.9710032939910889
2021-04-09	5015:5022	schweiz	0.9998461008071899
2021-04-09	5212:5219	schweiz	0.9995238780975342
2021-05-10	10334:10341	schweiz	0.9995049238204956
2021-05-25	3614:3621	schweiz	0.9999781847000122
2021-06-01	6581:6588	schweiz	0.9955253005027771
2021-06-02	837:844	schweiz	0.9998503923416138
2021-06-02	3019:3026	schweiz	0.9963919520378113
2021-06-02	15472:15479	schweiz	0.9967325925827026
2021-06-03	16221:16228	schweiz	0.9999710321426392
2021-06-04	5849:5856	schweiz	0.9999350309371948
2021-06-07	9871:9878	schweiz	0.7105582356452942
2021-06-07	10378:10385	schweiz	0.8050184845924377
2021-06-11	1163:1170	schweiz	0.9999822378158569
2021-06-11	5917:5924	schweiz	0.9999690055847168
2021-06-11	6026:6033	schweiz	0.9999790191650391
2021-06-13	7934:7941	schweiz	0.999975323677063
2021-06-14	6162:6169	schweiz	0.752968430519104
2021-06-14	6266:6273	schweiz	0.549717128276825
2021-06-15	11995:12002	schweiz	0.9516206979751587
2021-06-18	3369:3376	schweiz	0.9999872446060181
2021-06-18	3536:3543	schweiz	0.9999902248382568
2021-06-20	4229:4236	schweiz	0.9999834299087524
2021-06-24	12747:12754	schweiz	0.9836169481277466
2021-07-05	1559:1566	schweiz	0.7132087349891663
2021-07-05	2132:2139	schweiz	0.9999336004257202
2021-07-13	1117:1124	schweiz	0.9999768733978271
2021-12-09	9555:9562	schweiz	0.9187626242637634
2021-12-16	13728:13735	schweiz	0.5230206251144409
2022-02-08	762:769	schweiz	0.9995566010475159
