2021-01-09	5436:5444	schöneck	0.9999761581420898
2021-01-10	4593:4601	schöneck	0.9999685287475586
2021-06-02	16633:16641	schöneck	0.9999690055847168
2021-06-02	16750:16758	schöneck	0.9999449253082275
2021-06-06	6059:6067	schöneck	0.9999696016311646
2021-06-07	20185:20193	schöneck	0.9999754428863525
2021-06-30	13707:13715	schöneck	0.9999823570251465
2022-02-03	2890:2898	schöneck	0.9999854564666748
2022-02-03	3192:3200	schöneck	0.9999852180480957
