2021-02-13	4019:4027	slowakei	0.9994373917579651
2021-02-20	2338:2346	slowakei	0.9999731779098511
2021-02-21	6834:6842	slowakei	0.9999523162841797
2021-02-21	6850:6858	slowakei	0.9999634027481079
2021-02-23	15826:15834	slowakei	0.9999500513076782
2021-02-28	9660:9668	slowakei	0.9999120235443115
2021-03-03	10914:10922	slowakei	0.9999616146087646
2021-03-26	7235:7243	slowakei	0.9999501705169678
2021-03-27	12028:12036	slowakei	0.9999600648880005
2021-03-27	12105:12113	slowakei	0.9999651908874512
2021-05-14	1354:1362	slowakei	0.999915599822998
2021-05-15	5463:5471	slowakei	0.9998564720153809
