2021-02-14	4613:4631	sächsische_schweiz	0.9975070357322693
2021-03-24	5718:5736	sächsische_schweiz	0.9973447322845459
2021-05-11	11597:11615	sächsische_schweiz	0.9970839321613312
2021-05-18	9488:9506	sächsische_schweiz	0.9991744756698608
2021-06-11	5061:5079	sächsische_schweiz	0.9975737929344177
2021-06-11	5124:5142	sächsische_schweiz	0.995122104883194
2021-06-16	12190:12208	sächsische_schweiz	0.804502010345459
2021-06-30	14421:14439	sächsische_schweiz	0.9758133590221405
2021-11-09	7971:7989	sächsische_schweiz	0.9994736909866333
2021-12-20	163:181	sächsische_schweiz	0.9959817826747894
