2021-01-08	7535:7567	sächsische_schweiz-osterzgebirge	0.9997125267982483
2021-01-08	7582:7614	sächsische_schweiz-osterzgebirge	0.9998941421508789
2021-01-10	425:457	sächsische_schweiz-osterzgebirge	0.9998940527439117
2021-01-13	19633:19665	sächsische_schweiz-osterzgebirge	0.9992861151695251
2021-01-16	1054:1086	sächsische_schweiz-osterzgebirge	0.9997992515563965
2021-01-21	8921:8953	sächsische_schweiz-osterzgebirge	0.9990406632423401
2021-01-21	9023:9055	sächsische_schweiz-osterzgebirge	0.9996136426925659
2021-01-22	6478:6510	sächsische_schweiz-osterzgebirge	0.999932050704956
2021-01-23	4129:4161	sächsische_schweiz-osterzgebirge	0.9998315870761871
2021-01-25	6146:6178	sächsische_schweiz-osterzgebirge	0.9996672570705414
2021-01-28	11546:11578	sächsische_schweiz-osterzgebirge	0.9995551407337189
2021-01-28	17686:17718	sächsische_schweiz-osterzgebirge	0.999894917011261
2021-02-05	2065:2097	sächsische_schweiz-osterzgebirge	0.9998656809329987
2021-02-06	498:530	sächsische_schweiz-osterzgebirge	0.9998543560504913
2021-02-06	1011:1043	sächsische_schweiz-osterzgebirge	0.9998234808444977
2021-02-06	1058:1090	sächsische_schweiz-osterzgebirge	0.9998960494995117
2021-02-07	1585:1617	sächsische_schweiz-osterzgebirge	0.9995637536048889
2021-02-09	17819:17851	sächsische_schweiz-osterzgebirge	0.9998987317085266
2021-02-13	1181:1213	sächsische_schweiz-osterzgebirge	0.9984791278839111
2021-02-13	1547:1579	sächsische_schweiz-osterzgebirge	0.9996440410614014
2021-02-15	2086:2118	sächsische_schweiz-osterzgebirge	0.9998745024204254
2021-02-16	7241:7273	sächsische_schweiz-osterzgebirge	0.9997568428516388
2021-02-17	14838:14870	sächsische_schweiz-osterzgebirge	0.9998712837696075
2021-02-18	13538:13570	sächsische_schweiz-osterzgebirge	0.9997830986976624
2021-02-23	276:308	sächsische_schweiz-osterzgebirge	0.9988235533237457
2021-02-23	915:947	sächsische_schweiz-osterzgebirge	0.9992540776729584
2021-02-24	3998:4030	sächsische_schweiz-osterzgebirge	0.9997947812080383
2021-02-24	19406:19438	sächsische_schweiz-osterzgebirge	0.9994766414165497
2021-02-26	2837:2869	sächsische_schweiz-osterzgebirge	0.9918196797370911
2021-02-27	2319:2351	sächsische_schweiz-osterzgebirge	0.8646551668643951
2021-02-27	10653:10685	sächsische_schweiz-osterzgebirge	0.999347984790802
2021-02-27	10702:10734	sächsische_schweiz-osterzgebirge	0.9358906447887421
2021-02-28	1759:1791	sächsische_schweiz-osterzgebirge	0.9995889663696289
2021-03-01	1235:1267	sächsische_schweiz-osterzgebirge	0.9695635139942169
2021-03-02	22137:22169	sächsische_schweiz-osterzgebirge	0.9997822642326355
2021-03-07	1113:1145	sächsische_schweiz-osterzgebirge	0.9999260306358337
2021-03-13	3677:3709	sächsische_schweiz-osterzgebirge	0.9977039098739624
2021-03-24	5782:5814	sächsische_schweiz-osterzgebirge	0.9998534619808197
2021-03-25	3483:3515	sächsische_schweiz-osterzgebirge	0.9988778531551361
2021-04-12	11054:11086	sächsische_schweiz-osterzgebirge	0.9994991719722748
2021-04-23	11803:11835	sächsische_schweiz-osterzgebirge	0.9522764682769775
2021-04-26	3059:3091	sächsische_schweiz-osterzgebirge	0.9989641606807709
2021-04-26	12550:12582	sächsische_schweiz-osterzgebirge	0.9998320639133453
2021-04-26	13205:13237	sächsische_schweiz-osterzgebirge	0.9998964071273804
2021-04-26	18805:18837	sächsische_schweiz-osterzgebirge	0.9709528684616089
2021-05-18	8904:8936	sächsische_schweiz-osterzgebirge	0.9992577731609344
2021-05-21	6810:6842	sächsische_schweiz-osterzgebirge	0.9998951554298401
2021-05-23	527:559	sächsische_schweiz-osterzgebirge	0.9998579323291779
2021-05-23	4790:4822	sächsische_schweiz-osterzgebirge	0.9999009370803833
2021-05-24	7388:7420	sächsische_schweiz-osterzgebirge	0.9996710419654846
2021-05-25	14837:14869	sächsische_schweiz-osterzgebirge	0.9999662637710571
2021-05-25	16650:16682	sächsische_schweiz-osterzgebirge	0.999784529209137
2021-05-28	11758:11790	sächsische_schweiz-osterzgebirge	0.9977624714374542
2021-05-28	12953:12985	sächsische_schweiz-osterzgebirge	0.9994230270385742
2021-05-28	15913:15945	sächsische_schweiz-osterzgebirge	0.9997716248035431
2021-05-31	13279:13311	sächsische_schweiz-osterzgebirge	0.9998936057090759
2021-05-31	13787:13819	sächsische_schweiz-osterzgebirge	0.9999588131904602
2021-06-02	7990:8022	sächsische_schweiz-osterzgebirge	0.9998960494995117
2021-06-30	9087:9119	sächsische_schweiz-osterzgebirge	0.9998418390750885
2021-07-19	406:438	sächsische_schweiz-osterzgebirge	0.999920129776001
2021-11-08	2519:2551	sächsische_schweiz-osterzgebirge	0.9621415436267853
2021-11-09	2759:2791	sächsische_schweiz-osterzgebirge	0.9998410046100616
2021-11-11	8563:8595	sächsische_schweiz-osterzgebirge	0.9966920018196106
2021-11-11	14788:14820	sächsische_schweiz-osterzgebirge	0.9998573362827301
2021-11-12	16275:16307	sächsische_schweiz-osterzgebirge	0.9887539446353912
2021-11-12	16339:16371	sächsische_schweiz-osterzgebirge	0.9996313452720642
2021-11-16	12467:12499	sächsische_schweiz-osterzgebirge	0.9918590188026428
2021-11-16	12540:12572	sächsische_schweiz-osterzgebirge	0.9994668364524841
2021-11-17	12918:12950	sächsische_schweiz-osterzgebirge	0.9999207258224487
2021-11-23	8721:8753	sächsische_schweiz-osterzgebirge	0.9979982078075409
2021-12-06	8184:8216	sächsische_schweiz-osterzgebirge	0.9998046159744263
2021-12-15	17910:17942	sächsische_schweiz-osterzgebirge	0.9992115795612335
2021-12-17	2338:2370	sächsische_schweiz-osterzgebirge	0.9980954527854919
2021-12-20	213:245	sächsische_schweiz-osterzgebirge	0.9997536838054657
2021-12-20	9290:9322	sächsische_schweiz-osterzgebirge	0.9996772110462189
2021-12-21	13532:13564	sächsische_schweiz-osterzgebirge	0.9998778998851776
2021-12-21	13782:13814	sächsische_schweiz-osterzgebirge	0.9999571442604065
2022-01-04	17282:17314	sächsische_schweiz-osterzgebirge	0.9999408721923828
2022-01-06	3744:3776	sächsische_schweiz-osterzgebirge	0.9983492493629456
2022-01-13	11012:11044	sächsische_schweiz-osterzgebirge	0.999415248632431
2022-01-17	12882:12914	sächsische_schweiz-osterzgebirge	0.9997970461845398
2022-01-18	5279:5311	sächsische_schweiz-osterzgebirge	0.999906063079834
2022-01-21	11476:11508	sächsische_schweiz-osterzgebirge	0.9992634952068329
2022-03-02	7947:7979	sächsische_schweiz-osterzgebirge	0.9998153746128082
