2021-04-23	4750:4782	sächsische-schweiz_osterzgebirge	0.9999193549156189
2021-07-01	683:715	sächsische-schweiz_osterzgebirge	0.9993820786476135
2021-07-08	2030:2062	sächsische-schweiz_osterzgebirge	0.9756595492362976
