2021-01-15	14279:14290	südvorstadt	0.9998927116394043
2021-06-20	5503:5514	südvorstadt	0.9985095858573914
2021-06-21	6248:6259	südvorstadt	0.99954754114151
2021-06-21	6436:6447	südvorstadt	0.9999892711639404
2021-12-20	9790:9801	südvorstadt	0.9999634027481079
