2021-02-13	9969:9974	tirol	0.9999635219573975
2021-02-14	16103:16108	tirol	0.9999719858169556
2021-02-16	400:405	tirol	0.9999839067459106
2021-02-18	5037:5042	tirol	0.9999529123306274
2021-02-18	18411:18416	tirol	0.9998983144760132
2021-02-21	2573:2578	tirol	0.9999412298202515
2021-02-21	6251:6256	tirol	0.9999523162841797
2021-02-21	6677:6682	tirol	0.999940037727356
2021-02-23	12894:12899	tirol	0.9999388456344604
2021-02-23	15843:15848	tirol	0.9999715089797974
2021-02-28	9709:9714	tirol	0.9998708963394165
2021-03-03	10812:10817	tirol	0.9999425411224365
2021-03-26	7279:7284	tirol	0.9999772310256958
2021-03-26	7468:7473	tirol	0.9999784231185913
2021-03-27	12118:12123	tirol	0.9999878406524658
2021-03-30	10749:10754	tirol	0.9998660087585449
2021-06-13	7852:7857	tirol	0.999976634979248
