2021-02-10	11495:11502	trutnov	0.9999698400497437
2021-02-11	13838:13845	trutnov	0.9999843835830688
2021-02-11	14152:14159	trutnov	0.9999843835830688
2021-02-13	5787:5794	trutnov	0.9999722242355347
2021-02-17	10097:10104	trutnov	0.999976634979248
