2021-04-14	14590:14596	usedom	0.9999841451644897
2021-04-14	14961:14967	usedom	0.9996368885040283
2021-04-16	6966:6972	usedom	0.9999819993972778
2021-04-16	7109:7115	usedom	0.9999817609786987
2021-04-16	7647:7653	usedom	0.9999825954437256
2021-07-15	12731:12737	usedom	0.999955415725708
