2021-01-07	4058:4071	vogtlandkreis	0.9995502829551697
2021-01-08	6216:6229	vogtlandkreis	0.999871015548706
2021-01-08	6605:6618	vogtlandkreis	0.9999332427978516
2021-01-08	9737:9750	vogtlandkreis	0.9999780654907227
2021-01-09	617:630	vogtlandkreis	0.9998219609260559
2021-01-09	966:979	vogtlandkreis	0.9999170303344727
2021-01-12	3617:3630	vogtlandkreis	0.9999120235443115
2021-01-12	3731:3744	vogtlandkreis	0.999981164932251
2021-01-12	4326:4339	vogtlandkreis	0.9967620372772217
2021-01-19	472:485	vogtlandkreis	0.999975323677063
2021-01-19	3238:3251	vogtlandkreis	0.9999426603317261
2021-02-01	3523:3536	vogtlandkreis	0.9999439716339111
2021-02-01	11647:11660	vogtlandkreis	0.9997542500495911
2021-02-02	13810:13823	vogtlandkreis	0.9999423027038574
2021-02-03	2664:2677	vogtlandkreis	0.9999240636825562
2021-02-04	1860:1873	vogtlandkreis	0.9997970461845398
2021-02-05	3852:3865	vogtlandkreis	0.999977707862854
2021-02-05	11470:11483	vogtlandkreis	0.9999179840087891
2021-02-08	1089:1102	vogtlandkreis	0.9998973608016968
2021-02-08	14462:14475	vogtlandkreis	0.999934196472168
2021-02-08	14573:14586	vogtlandkreis	0.9997839331626892
2021-02-09	2517:2530	vogtlandkreis	0.9999467134475708
2021-02-11	4270:4283	vogtlandkreis	0.9999120235443115
2021-02-12	8178:8191	vogtlandkreis	0.9999692440032959
2021-02-13	799:812	vogtlandkreis	0.9995538592338562
2021-02-14	3145:3158	vogtlandkreis	0.9999353885650635
2021-02-16	2061:2074	vogtlandkreis	0.9996707439422607
2021-02-16	8935:8948	vogtlandkreis	0.9999723434448242
2021-02-17	1480:1493	vogtlandkreis	0.9999598264694214
2021-02-18	2639:2652	vogtlandkreis	0.9990875720977783
2021-02-19	304:317	vogtlandkreis	0.9999613761901855
2021-02-19	532:545	vogtlandkreis	0.999954104423523
2021-02-19	1623:1636	vogtlandkreis	0.9999490976333618
2021-02-19	5267:5280	vogtlandkreis	0.9997792840003967
2021-02-19	5380:5393	vogtlandkreis	0.9998995065689087
2021-02-20	565:578	vogtlandkreis	0.9999306201934814
2021-02-21	2312:2325	vogtlandkreis	0.9999310970306396
2021-02-23	3014:3027	vogtlandkreis	0.999983549118042
2021-02-23	3217:3230	vogtlandkreis	0.9736824035644531
2021-02-24	1977:1990	vogtlandkreis	0.9998247027397156
2021-02-24	5193:5206	vogtlandkreis	0.9997907280921936
2021-02-25	2970:2983	vogtlandkreis	0.9999618530273438
2021-02-25	5519:5532	vogtlandkreis	0.9999459981918335
2021-02-25	5584:5597	vogtlandkreis	0.9969940185546875
2021-02-25	6172:6185	vogtlandkreis	0.999910831451416
2021-02-25	14765:14778	vogtlandkreis	0.9999344348907471
2021-02-25	14835:14848	vogtlandkreis	0.9996888637542725
2021-02-26	2966:2979	vogtlandkreis	0.9999042749404907
2021-02-27	2410:2423	vogtlandkreis	0.9999635219573975
2021-02-27	7310:7323	vogtlandkreis	0.9971258044242859
2021-02-28	1797:1810	vogtlandkreis	0.9999600648880005
2021-03-01	1329:1342	vogtlandkreis	0.9999748468399048
2021-03-01	15533:15546	vogtlandkreis	0.9999817609786987
2021-03-02	613:626	vogtlandkreis	0.999969482421875
2021-03-02	5055:5068	vogtlandkreis	0.9999836683273315
2021-03-02	5900:5913	vogtlandkreis	0.9999756813049316
2021-03-02	6263:6276	vogtlandkreis	0.9999114274978638
2021-03-03	4070:4083	vogtlandkreis	0.9999029636383057
2021-03-03	16255:16268	vogtlandkreis	0.9999232292175293
2021-03-04	3448:3461	vogtlandkreis	0.9999480247497559
2021-03-05	4258:4271	vogtlandkreis	0.9999797344207764
2021-03-07	220:233	vogtlandkreis	0.999961256980896
2021-03-07	240:253	vogtlandkreis	0.9999123811721802
2021-03-07	1163:1176	vogtlandkreis	0.9999558925628662
2021-03-07	1706:1719	vogtlandkreis	0.9999717473983765
2021-03-08	1682:1695	vogtlandkreis	0.9999507665634155
2021-03-08	13311:13324	vogtlandkreis	0.9999812841415405
2021-03-08	13339:13352	vogtlandkreis	0.999982476234436
2021-03-09	2428:2441	vogtlandkreis	0.9999105930328369
2021-03-09	11408:11421	vogtlandkreis	0.9999470710754395
2021-03-10	8009:8022	vogtlandkreis	0.9999239444732666
2021-03-10	8058:8071	vogtlandkreis	0.9999722242355347
2021-03-10	10231:10244	vogtlandkreis	0.9999891519546509
2021-03-11	6061:6074	vogtlandkreis	0.9999473094940186
2021-03-12	2738:2751	vogtlandkreis	0.9999529123306274
2021-03-12	5006:5019	vogtlandkreis	0.9999555349349976
2021-03-13	14438:14451	vogtlandkreis	0.9999469518661499
2021-03-14	786:799	vogtlandkreis	0.9999234676361084
2021-03-15	11017:11030	vogtlandkreis	0.9999786615371704
2021-03-19	3382:3395	vogtlandkreis	0.9999542236328125
2021-03-19	13669:13682	vogtlandkreis	0.9999645948410034
2021-03-20	1948:1961	vogtlandkreis	0.9999493360519409
2021-03-20	11033:11046	vogtlandkreis	0.9999268054962158
2021-03-21	1689:1702	vogtlandkreis	0.9999361038208008
2021-03-21	13230:13243	vogtlandkreis	0.9999818801879883
2021-03-24	5029:5042	vogtlandkreis	0.9999680519104004
2021-03-26	15903:15916	vogtlandkreis	0.9999760389328003
2021-03-29	1510:1523	vogtlandkreis	0.9999790191650391
2021-03-29	3468:3481	vogtlandkreis	0.9999867677688599
2021-03-30	9423:9436	vogtlandkreis	0.999911904335022
2021-03-30	17501:17514	vogtlandkreis	0.9999849796295166
2021-03-30	18364:18377	vogtlandkreis	0.9999823570251465
2021-04-01	1101:1114	vogtlandkreis	0.9999455213546753
2021-04-02	1036:1049	vogtlandkreis	0.9999692440032959
2021-04-03	2069:2082	vogtlandkreis	0.9999721050262451
2021-04-06	2018:2031	vogtlandkreis	0.9999780654907227
2021-04-07	12534:12547	vogtlandkreis	0.9997878670692444
2021-04-07	12899:12912	vogtlandkreis	0.9974212646484375
2021-04-08	2717:2730	vogtlandkreis	0.9997550845146179
2021-04-09	1872:1885	vogtlandkreis	0.9998509883880615
2021-04-10	3325:3338	vogtlandkreis	0.9999576807022095
2021-04-10	15782:15795	vogtlandkreis	0.9999182224273682
2021-04-11	2218:2231	vogtlandkreis	0.9999411106109619
2021-04-11	3698:3711	vogtlandkreis	0.9998831748962402
2021-04-12	2626:2639	vogtlandkreis	0.9999202489852905
2021-04-13	3679:3692	vogtlandkreis	0.9997310042381287
2021-04-15	1205:1218	vogtlandkreis	0.9999804496765137
2021-04-17	6210:6223	vogtlandkreis	0.9999547004699707
2021-04-18	685:698	vogtlandkreis	0.9998753070831299
2021-04-25	3159:3172	vogtlandkreis	0.9999426603317261
2021-04-26	18377:18390	vogtlandkreis	0.9998748302459717
2021-04-28	20852:20865	vogtlandkreis	0.999983549118042
2021-04-30	3321:3334	vogtlandkreis	0.9998326301574707
2021-05-02	640:653	vogtlandkreis	0.9996501207351685
2021-05-04	14997:15010	vogtlandkreis	0.9999866485595703
2021-05-15	10517:10530	vogtlandkreis	0.9999114274978638
2021-05-16	8431:8444	vogtlandkreis	0.9999358654022217
2021-05-17	2392:2405	vogtlandkreis	0.9999693632125854
2021-05-17	13536:13549	vogtlandkreis	0.999970555305481
2021-05-18	14841:14854	vogtlandkreis	0.999967098236084
2021-05-19	5903:5916	vogtlandkreis	0.9999514818191528
2021-05-19	6277:6290	vogtlandkreis	0.9935222268104553
2021-05-19	6985:6998	vogtlandkreis	0.9999204874038696
2021-05-19	15153:15166	vogtlandkreis	0.9999837875366211
2021-05-19	15215:15228	vogtlandkreis	0.9999817609786987
2021-05-20	14633:14646	vogtlandkreis	0.9999673366546631
2021-05-21	14840:14853	vogtlandkreis	0.9944513440132141
2021-05-24	545:558	vogtlandkreis	0.9999127388000488
2021-05-24	9031:9044	vogtlandkreis	0.9998975992202759
2021-05-26	19579:19592	vogtlandkreis	0.9997598528862
2021-05-27	13461:13474	vogtlandkreis	0.999908447265625
2021-05-28	11161:11174	vogtlandkreis	0.999964714050293
2021-05-28	11258:11271	vogtlandkreis	0.9999639987945557
2021-05-28	13061:13074	vogtlandkreis	0.9999169111251831
2021-05-29	1083:1096	vogtlandkreis	0.9999697208404541
2021-05-29	7117:7130	vogtlandkreis	0.9999692440032959
2021-05-29	8958:8971	vogtlandkreis	0.9998799562454224
2021-05-30	1727:1740	vogtlandkreis	0.9997264742851257
2021-05-30	5136:5149	vogtlandkreis	0.9992691874504089
2021-05-31	13376:13389	vogtlandkreis	0.9999566078186035
2021-06-01	19732:19745	vogtlandkreis	0.9999703168869019
2021-06-03	5085:5098	vogtlandkreis	0.9999830722808838
2021-06-03	18565:18578	vogtlandkreis	0.9997016787528992
2021-06-04	11497:11510	vogtlandkreis	0.9984601736068726
2021-06-04	14002:14015	vogtlandkreis	0.9999048709869385
2021-06-05	1540:1553	vogtlandkreis	0.9999767541885376
2021-06-08	13525:13538	vogtlandkreis	0.9999229907989502
2021-06-09	8734:8747	vogtlandkreis	0.9999521970748901
2021-06-10	16639:16652	vogtlandkreis	0.9999462366104126
2021-06-12	500:513	vogtlandkreis	0.9998961687088013
2021-06-13	6436:6449	vogtlandkreis	0.9999916553497314
2021-06-14	8466:8479	vogtlandkreis	0.9998323917388916
2021-06-19	914:927	vogtlandkreis	0.9999656677246094
2021-06-27	5716:5729	vogtlandkreis	0.9999434947967529
2021-06-27	5943:5956	vogtlandkreis	0.9999850988388062
2021-06-29	12841:12854	vogtlandkreis	0.9999892711639404
2021-06-30	5477:5490	vogtlandkreis	0.9998835325241089
2021-06-30	12479:12492	vogtlandkreis	0.9998780488967896
2021-07-08	2071:2084	vogtlandkreis	0.9998903274536133
2021-11-16	10958:10971	vogtlandkreis	0.9996858835220337
2021-11-18	15664:15677	vogtlandkreis	0.9999700784683228
2021-11-30	6098:6111	vogtlandkreis	0.9999709129333496
2021-12-15	6723:6736	vogtlandkreis	0.9999016523361206
2021-12-17	16789:16802	vogtlandkreis	0.9999829530715942
2021-12-21	13990:14003	vogtlandkreis	0.9994514584541321
2022-02-18	8667:8680	vogtlandkreis	0.9999678134918213
2022-02-18	8737:8750	vogtlandkreis	0.9990866184234619
