2021-01-11	3590:3605	vogtlandkreises	0.9997591376304626
2021-01-31	5856:5871	vogtlandkreises	0.9997847676277161
2021-02-24	8351:8366	vogtlandkreises	0.9999501705169678
2021-02-25	5904:5919	vogtlandkreises	0.9999605417251587
2021-03-19	5460:5475	vogtlandkreises	0.9999347925186157
2021-04-07	12618:12633	vogtlandkreises	0.9997867941856384
2021-04-16	19425:19440	vogtlandkreises	0.9997808337211609
2021-05-01	4086:4101	vogtlandkreises	0.9963740706443787
2021-06-10	6884:6899	vogtlandkreises	0.9999748468399048
2021-11-23	17324:17339	vogtlandkreises	0.999940037727356
2021-12-07	6158:6173	vogtlandkreises	0.9874413013458252
2021-12-10	16276:16291	vogtlandkreises	0.9830268025398254
