2021-01-28	251:261	weißwasser	0.9999842643737793
2021-01-28	278:288	weißwasser	0.9999901056289673
2021-01-29	16665:16675	weißwasser	0.9999901056289673
2021-01-29	16692:16702	weißwasser	0.9999899864196777
2021-02-22	5940:5950	weißwasser	0.9999809265136719
2021-03-11	2934:2944	weißwasser	0.999987006187439
2021-04-16	12355:12365	weißwasser	0.9999656677246094
2021-05-01	6411:6421	weißwasser	0.9997804760932922
2021-05-06	10473:10483	weißwasser	0.9999619722366333
2021-05-20	8374:8384	weißwasser	0.9999872446060181
2021-06-04	3413:3423	weißwasser	0.9999740123748779
2021-06-04	3668:3678	weißwasser	0.9999605417251587
2021-06-16	15715:15725	weißwasser	0.999984622001648
2021-06-16	15893:15903	weißwasser	0.999975323677063
2021-06-16	15933:15943	weißwasser	0.9999819993972778
2021-07-08	11772:11782	weißwasser	0.9999761581420898
2021-07-08	11854:11864	weißwasser	0.9999892711639404
2021-11-09	5053:5063	weißwasser	0.999870777130127
2021-11-09	5100:5110	weißwasser	0.9999696016311646
2021-11-09	5724:5734	weißwasser	0.9958851933479309
2021-11-10	8568:8578	weißwasser	0.9999860525131226
2021-11-12	2612:2622	weißwasser	0.9998970031738281
2021-11-30	15036:15046	weißwasser	0.9999855756759644
2021-12-02	861:871	weißwasser	0.9999762773513794
2021-12-03	7738:7748	weißwasser	0.9999899864196777
2021-12-03	7759:7769	weißwasser	0.9999932050704956
2021-12-17	4849:4859	weißwasser	0.999963641166687
2021-12-17	5044:5054	weißwasser	0.9999756813049316
2021-12-17	5203:5213	weißwasser	0.9999847412109375
2021-12-22	10608:10618	weißwasser	0.9999884366989136
2021-12-23	14319:14329	weißwasser	0.9999841451644897
2022-01-19	13332:13342	weißwasser	0.9998871088027954
2022-01-25	4713:4723	weißwasser	0.9999357461929321
2022-02-02	8087:8097	weißwasser	0.9999874830245972
2022-02-02	8151:8161	weißwasser	0.9997723698616028
