2021-03-22	14811:14815	wien	0.9999885559082031
2021-03-24	3021:3025	wien	0.999980092048645
2021-03-25	14391:14395	wien	0.9999878406524658
2021-03-25	14481:14485	wien	0.9999810457229614
2021-03-25	14619:14623	wien	0.9999847412109375
2021-04-20	13907:13911	wien	0.9999585151672363
2021-05-10	6576:6580	wien	0.999990701675415
2021-07-05	8827:8831	wien	0.9998526573181152
2022-01-05	7074:7078	wien	0.999987006187439
