2021-01-14	8585:8594	wiesbaden	0.9998493194580078
2021-05-25	13338:13347	wiesbaden	0.9999943971633911
2021-07-19	2256:2265	wiesbaden	0.9999945163726807
2022-01-26	1094:1103	wiesbaden	0.9999940395355225
2022-02-10	7154:7163	wiesbaden	0.9999914169311523
