2021-03-12	15822:15825	zoo	0.7884317636489868
2021-03-12	15928:15931	zoo	0.6355403661727905
2021-04-10	16299:16302	zoo	0.8480466604232788
2021-05-10	16937:16940	zoo	0.9794024229049683
2021-05-10	17011:17014	zoo	0.9789036512374878
2022-03-04	2447:2450	zoo	0.9213636517524719
