96:103	sachsen	0.999589741230011
289:296	görlitz	0.9999903440475464
2053:2060	sachsen	0.9996459484100342
2086:2093	sachsen	0.9999245405197144
2384:2399	erzgebirgskreis	0.9896934628486633
2422:2435	mittelsachsen	0.9999901056289673
2440:2447	zwickau	0.9999836683273315
2498:2505	leipzig	0.9999954700469971
2518:2525	dresden	0.9999964237213135
2981:2988	dresden	0.9999957084655762
3230:3238	chemnitz	0.9999961853027344
3240:3247	dresden	0.9999969005584717
3252:3259	leipzig	0.999996542930603
3352:3359	sachsen	0.9792417883872986
3505:3513	chemnitz	0.9999785423278809
3553:3561	oelnsitz	0.9999295473098755
3993:3999	indien	0.9999945163726807
4029:4036	sachsen	0.9999555349349976
4104:4110	indien	0.999994158744812
4271:4279	sachsens	0.999976396560669
4289:4296	dresden	0.9999948740005493
4391:4397	zittau	0.9999756813049316
4402:4409	görlitz	0.9999905824661255
4438:4444	zittau	0.9999792575836182
4452:4459	görlitz	0.9999921321868896
4483:4509	gerhart-hauptmann-theaters	0.999907374382019
4781:4787	plauen	0.9092071652412415
4870:4876	plauen	0.718453586101532
5207:5214	zwickau	0.9999939203262329
5240:5247	zwickau	0.9999936819076538
5396:5404	chemnitz	0.9999946355819702
5453:5461	chemnitz	0.999994158744812
5893:5901	chemnitz	0.9999935626983643
6186:6201	erzgebirgskreis	0.9949361085891724
6205:6220	erzgebirgskreis	0.9983131885528564
7720:7727	dresden	0.9999915361404419
8258:8269	deutschland	0.9999929666519165
8373:8379	berlin	0.9999951124191284
9554:9561	dresden	0.999994158744812
10273:10280	leipzig	0.9999780654907227
10703:10710	leipzig	0.9999887943267822
10757:10764	sachsen	0.9926660656929016
10784:10791	sachsen	0.9989110231399536
11107:11114	sachsen	0.9998990297317505
11775:11782	sachsen	0.9999489784240723
11916:11923	zwickau	0.9999910593032837
12427:12434	sachsen	0.9995997548103333
12839:12846	freital	0.9999880790710449
12854:12874	turnhalle_ringstraße	0.9177871346473694
12878:12896	freital-zauckerode	0.9999905824661255
13324:13329	pirna	0.7294138073921204
13711:13719	vogtland	0.9999547004699707
14012:14022	bad_elster	0.9999858736991882
14621:14628	dresden	0.9999933242797852
14633:14641	radeburg	0.999991774559021
14643:14660	ottendorf-okrilla	0.9999892711639404
14662:14670	radeberg	0.9999904632568359
14672:14680	heidenau	0.9999938011169434
14685:14690	pirna	0.9999786615371704
14692:14706	dippoldiswalde	0.9999901056289673
14708:14717	wilsdruff	0.999991774559021
14719:14726	freital	0.9999898672103882
14733:14739	meißen	0.9999909400939941
14907:14914	leipzig	0.9934224486351013
