1098:1104	corona	0.9941734671592712
1286:1297	coronavirus	0.9993133544921875
1958:1964	corona	0.994474470615387
4439:4450	coronavirus	0.9999598264694214
7164:7175	coronavirus	0.985292375087738
7974:7981	moderna	0.9577162861824036
8352:8356	euro	0.9995846152305603
12541:12547	corona	0.9998431205749512
