705:713	mdrfragt	0.9989823698997498
1843:1850	sachsen	0.6687109470367432
2951:2963	forum_corona	0.9998530149459839
3029:3041	forum_corona	0.9999663233757019
3123:3129	justiz	0.43088969588279724
4384:4395	mdr_aktuell	0.9999726414680481
5103:5117	chemnitzer_fc.	0.9999876618385315
5195:5203	deutsche	0.9998588562011719
5204:5222	rote_kreuz_sachsen	0.9997966289520264
5404:5419	biontech_pfizer	0.9999836683273315
5424:5443	johnson_&_amp_;_johnson	0.9999802589416504
5654:5666	te_be_berlin	0.9999790191650391
5720:5738	union_fürstenwalde	0.9999867081642151
5782:5785	cfc	0.9999903440475464
5791:5794	drk	0.9999920129776001
6152:6171	deutsche_rote_kreuz	0.9999843835830688
6356:6359	drk	0.9999908208847046
6557:6560	drk	0.9999908208847046
6693:6708	biontech_pfizer	0.9999620914459229
6713:6732	johnson_&_amp_;_johnson	0.9999706745147705
6883:6905	museum_für_archäologie	0.7671633362770081
6996:7000	smac	0.9999868869781494
7422:7426	smac	0.9999557733535767
7794:7805	mdr_sachsen	0.9992403984069824
8199:8235	industrie_-_und_handelskammer_dresden	0.9995485663414001
8458:8499	deutschen_hotel_-_und_gaststättenverbandes	0.9999718427658081
8975:8987	oper_leipzig	0.9997889697551727
9829:9841	grüne_jugend	0.9998032748699188
9937:9949	grüne_jugend	0.9999239444732666
10272:10278	grünen	0.897671639919281
10668:10689	helmholtz-zentrum_für	0.9999534487724304
10711:10714	hzi	0.9999822378158569
11619:11634	tu_bergakademie	0.9999297857284546
12910:12925	biontech_pfizer	0.9998608231544495
12959:12980	johnson_&_amp_;_johnson	0.9999682664871216
13188:13210	handelsverband_sachsen	0.9997179806232452
13847:13856	leipziger	0.7635849714279175
14121:14141	deutschen_städtetags	0.9992746710777283
14158:14161	spd	0.9999805688858032
14174:14177	lvz	0.9999793767929077
14419:14439	robert-koch-institut	0.9999861717224121
14441:14444	rki	0.9999912977218628
14594:14597	rki	0.9999271631240845
15768:15788	robert-koch-institut	0.9999836683273315
15790:15793	rki	0.9999915361404419
16102:16105	rki	0.999983549118042
