2493:2502	sputnik_v	0.9999367594718933
4430:4441	astrazeneca	0.6133166551589966
4525:4536	astrazeneca	0.703033983707428
5086:5092	corona	0.9557331204414368
6416:6422	corona	0.999305248260498
6481:6496	corona-pandemie	0.545873761177063
6953:6959	corona	0.9994099140167236
7012:7018	corona	0.9992316961288452
9999:10012	chemnitz-shop	0.48542746901512146
12160:12172	sachsenpokal	0.999967098236084
13091:13108	covid-19-pandemie	0.9995317459106445
13711:13719	luca-app	0.9998807907104492
13857:13865	luca-app	0.9999732971191406
14404:14413	lucatrack	0.9999810457229614
15952:15958	corona	0.9850227236747742
19521:19536	corona-pandemie	0.9910843372344971
