text	types	tokens	types/tokens
20:34	40	45	1.1
20:03	68	76	1.1029
19:25	37	42	1.1081
18:54	44	55	1.2273
18:29	77	93	1.1948
18:17	65	76	1.1538
18:13	77	90	1.1558
17:56	61	68	1.0984
17:45	57	64	1.1053
17:33	50	56	1.1
17:06	58	68	1.1552
16:49	49	55	1.102
16:15	61	69	1.1148
15:14	63	74	1.1587
14:52	43	49	1.1163
14:37	50	56	1.1
14:21	74	88	1.1757
14:03	58	66	1.1207
13:44	31	37	1.1613
13:18	74	83	1.1081
13:06	47	54	1.1277
11:26	66	81	1.2121
11:16	85	107	1.2471
10:14	18	20	1.0556
09:18	71	90	1.2535
08:59	87	103	1.1724
08:22	45	51	1.1111
08:00	40	43	1.05
07:50	60	67	1.1
07:21	38	41	1.0526
06:23	85	101	1.1765
06:02	89	113	1.2584
05:51	63	72	1.127
05:41	29	32	1.069
05:15	58	68	1.1552
05:04	84	102	1.2024
