841:849	telegram	0.8751103281974792
3154:3169	corona-pandemie	0.9572247862815857
3838:3845	olympia	0.9998032450675964
4005:4019	peking-starter	0.9162862300872803
4787:4791	euro	0.9999483823776245
5264:5281	bautzen_gemeinsam	0.7500743269920349
7609:7613	euro	0.9999724626541138
8326:8342	goethes_erlkönig	0.8858248591423035
10253:10257	euro	0.9999682903289795
10322:10337	corona-zuschuss	0.4129103124141693
10338:10350	sachsen_plus	0.9974382817745209
10378:10382	euro	0.9999808073043823
10712:10716	euro	0.9999823570251465
11506:11512	corona	0.9998692274093628
11699:11705	corona	0.9998373985290527
