text	types	tokens	types/tokens
19:36	23	27	1.1304
18:12	27	30	1.0741
17:46	78	89	1.1282
17:09	47	58	1.2128
16:42	43	56	1.2791
16:03	44	54	1.2045
13:55	77	97	1.2468
13:20	73	91	1.2329
12:28	28	34	1.1786
11:45	61	72	1.1639
11:24	41	53	1.2683
10:53	52	65	1.2308
10:10	38	48	1.2368
09:46	57	63	1.0877
08:56	53	61	1.1321
08:17	57	73	1.2632
07:44	68	79	1.1471
07:18	33	34	1.0
06:49	75	93	1.2267
06:18	56	64	1.125
05:41	25	28	1.08
05:15	64	82	1.2656
05:00	68	76	1.1029
