229:240	astrazeneca	0.999897837638855
294:305	astrazeneca	0.999976634979248
2100:2103	drk	0.999968409538269
2104:2124	mittleres_erzgebirge	0.6614055037498474
2305:2312	post.in	0.5121442079544067
2646:2649	ukl	0.9999829530715942
2817:2845	universitätsklinikum_leipzig	0.9953128695487976
2847:2850	ukl	0.9999836683273315
3166:3169	ukl	0.9999836683273315
4546:4566	robert_koch-institut	0.999958336353302
4568:4571	rki	0.9999876022338867
5029:5032	cdu	0.9999885559082031
6647:6650	cdu	0.9999860525131226
6965:6984	deutsche_rote_kreuz	0.999940832455953
8944:8946	vw	0.9999909400939941
9092:9102	vw_sachsen	0.9999567866325378
9265:9275	vw_sachsen	0.9999653100967407
9531:9549	volkswagen_sachsen	0.9999762177467346
9976:9979	spd	0.9999841451644897
11558:11561	cdu	0.9999876022338867
12749:12752	spd	0.9999818801879883
12760:12780	robert_koch-institut	0.9997559785842896
12879:12882	rki	0.9999595880508423
13412:13442	helios_vogtlandklinikum_plauen	0.9970112641652426
13447:13473	heinrich-braun-krankenhaus	0.857653796672821
13486:13507	srh_waldklinikum_gera	0.9868636528650919
13515:13546	klinikum_obergöltzsch_rodewisch	0.999884287516276
13591:13594	mdr	0.9999861717224121
14175:14181	zivita	0.9999735355377197
14596:14602	zivita	0.9999830722808838
15261:15264	spd	0.9999868869781494
17008:17018	volkswagen	0.9999904632568359
17178:17199	deutschen_roten_kreuz	0.9999619325002035
17298:17300	vw	0.9999912977218628
17523:17533	vw_sachsen	0.9999809861183167
17944:17956	hans_grundig	0.9980423450469971
20251:20254	cdu	0.9999856948852539
20483:20512	deutschen_gewerkschaftsbundes	0.9999704957008362
20514:20517	dgb	0.9999924898147583
20981:20984	cdu	0.9999899864196777
21027:21030	spd	0.9999895095825195
