149:156	sachsen	0.958634614944458
1089:1096	dresden	0.9999955892562866
1146:1153	dresden	0.9999959468841553
1337:1348	zoo_dresden	0.8184694051742554
1475:1482	dresden	0.9999943971633911
1835:1842	dresden	0.9999951124191284
2002:2008	gornau	0.9999916553497314
2030:2045	erzgebirgskreis	0.9746819734573364
2145:2151	gornau	0.9999923706054688
2159:2172	grünhainichen	0.9999805688858032
2204:2210	gornau	0.9999902248382568
3005:3011	berlin	0.9999945163726807
3016:3027	brandenburg	0.9999953508377075
3443:3450	leipzig	0.999994158744812
3478:3491	leipzig_halle	0.999944806098938
3538:3546	mallorca	0.9999904632568359
3828:3836	mallorca	0.9999897480010986
3908:3914	niesky	0.9995558857917786
3944:3950	niesky	0.9999799728393555
4280:4287	görlitz	0.9999951124191284
4289:4294	löbau	0.9998348951339722
4299:4305	zittau	0.9999680519104004
4414:4421	sachsen	0.9997748732566833
4482:4489	sachsen	0.9999208450317383
4576:4582	berlin	0.9999736547470093
4749:4756	sachsen	0.9999843835830688
4768:4777	thüringen	0.9999890327453613
5450:5457	leipzig	0.9999856948852539
5495:5502	leipzig	0.9999890327453613
5911:5918	görlitz	0.9999887943267822
5969:5976	görlitz	0.9999914169311523
6167:6174	görlitz	0.9999620914459229
6936:6944	dresdner	0.9921029210090637
6945:6960	haus_der_presse	0.8674057126045227
6992:7016	dresdner_haus_der_presse	0.9861897230148315
7231:7244	markkleebergs	0.9999947547912598
7295:7307	markkleeberg	0.9999953508377075
7825:7832	zwickau	0.999987006187439
7876:7883	italien	0.9999897480010986
7929:7932	rom	0.9999879598617554
7934:7941	florenz	0.9999886751174927
7943:7950	venedig	0.9999912977218628
7972:7984	amalfi-küste	0.9997075200080872
8032:8039	zwickau	0.999984860420227
8485:8492	zwickau	0.9999449253082275
8777:8783	berlin	0.9999924898147583
9191:9198	zwickau	0.999994158744812
9423:9436	vogtlandkreis	0.999911904335022
9570:9577	zwickau	0.9999878406524658
9667:9674	sachsen	0.9999399185180664
9701:9708	sachsen	0.9996067881584167
9999:10007	sachsens	0.9988059997558594
10488:10498	tschechien	0.9999816417694092
10596:10606	tschechien	0.999987006187439
10749:10754	tirol	0.9998660087585449
10894:10901	sachsen	0.9985573887825012
10961:10968	sachsen	0.9996020197868347
12288:12295	sachsen	0.9999830722808838
12358:12365	sachsen	0.9999169111251831
12699:12706	sachsen	0.9999912977218628
12866:12873	sachsen	0.9999918937683105
13001:13006	greiz	0.9999691247940063
13034:13039	greiz	0.9999727010726929
13172:13177	greiz	0.9998747110366821
13336:13353	pleißental-klinik	0.8567596077919006
13354:13360	werdau	0.978373646736145
13474:13481	zwickau	0.9323011636734009
13656:13673	mitteldeutschland	0.9999679327011108
14100:14107	görlitz	0.9999889135360718
15163:15171	leipzigs	0.9999514818191528
15981:15995	oberwiesenthal	0.999990701675415
16000:16012	augustusburg	0.9999932050704956
16043:16057	oberwiesenthal	0.9999897480010986
16428:16440	augustusburg	0.9999935626983643
16584:16591	sachsen	0.9973059892654419
17501:17514	vogtlandkreis	0.9999849796295166
17873:17895	dresden-friedrichstadt	0.9999959468841553
18210:18218	vogtland	0.9999878406524658
18330:18346	saale-orla-kreis	0.9999818801879883
18348:18357	thüringen	0.9999732971191406
18364:18377	vogtlandkreis	0.9999823570251465
18379:18386	sachsen	0.9999597072601318
18406:18409	hof	0.9999376535415649
18411:18417	bayern	0.9999376535415649
19103:19110	leipzig	0.9999957084655762
19115:19121	zittau	0.999984622001648
19139:19152	nikolaikirche	0.905520498752594
19670:19676	zittau	0.999977707862854
19681:19692	neugersdorf	0.9999903440475464
19697:19703	zittau	0.999982476234436
20070:20077	leipzig	0.9999881982803345
20522:20529	sachsen	0.9998050332069397
20635:20642	sachsen	0.999987006187439
20688:20696	sachsens	0.684071958065033
20937:20945	sachsens	0.9332723021507263
21175:21182	bautzen	0.9999756813049316
21196:21203	bautzen	0.9999834299087524
21822:21828	elsnig	0.9999781847000122
21833:21841	rackwitz	0.9999831914901733
21904:21915	nordsachsen	0.9999918937683105
21935:21941	elsnig	0.9999675750732422
21990:21998	rackwitz	0.9999814033508301
22275:22282	bautzen	0.9999779462814331
22296:22303	bautzen	0.9999871253967285
22397:22404	bautzen	0.9999805688858032
22406:22411	lauta	0.999971866607666
22413:22421	pulsnitz	0.9999587535858154
22423:22430	sohland	0.9999747276306152
22435:22446	wittichenau	0.999976634979248
22692:22703	deutschland	0.9876309037208557
