2274:2294	robert-koch-institut	0.9999746084213257
2501:2504	rki	0.9999476671218872
4067:4082	biontech_pfizer	0.9999676942825317
4087:4094	moderna	0.9999551773071289
4371:4385	dynamo_dresden	0.9999864101409912
4436:4450	dynamo_dresden	0.9999867677688599
4929:4935	dynamo	0.9999810457229614
5764:5782	bundeskriminalamts	0.9998698234558105
8279:8283	adac	0.9999867677688599
8755:8766	mdr_sachsen	0.997482031583786
9028:9049	weißen_flotte_dresden	0.9981875419616699
9380:9388	oberelbe	0.9999746084213257
11057:11060	rki	0.9999847412109375
11189:11192	rki	0.9999682903289795
11906:11909	drk	0.9999889135360718
12034:12036	m1	0.7188653945922852
12070:12076	corona	0.9995336532592773
12601:12614	bild_-_zeitung	0.9993907411893209
13337:13358	dresdner_bäder_gmb_h.	0.9968809187412262
13657:13668	tu_chemnitz	0.999982476234436
14002:14013	tu_chemnitz	0.9999837279319763
14018:14025	envia_m	0.9996041357517242
14319:14330	tu_chemnitz	0.9999772310256958
15719:15723	reit	0.9995624423027039
15723:15745	-_und_fahrverein_horka	0.8997970372438431
15835:15842	sachsen	0.5766260027885437
17078:17109	frankfurter_allgemeinen_zeitung	0.9999482234319051
17976:17982	corona	0.9998936653137207
18651:18657	corona	0.9999560117721558
19125:19128	drk	0.9999866485595703
