663:681	mdr_sachsenspiegel	0.9999769330024719
1745:1756	mdr_aktuell	0.999967634677887
2097:2105	kabinett	0.9870787858963013
2626:2630	adac	0.9999825954437256
2796:2800	adac	0.9999788999557495
3004:3016	adac_sachsen	0.9966505467891693
7162:7168	grünen	0.9214928150177002
7661:7667	grünen	0.9989169836044312
8971:8974	amp	0.649233341217041
9214:9217	mdr	0.9999765157699585
10072:10093	gutenberg-universität	0.9997219443321228
11134:11137	spd	0.9999805688858032
11143:11149	mdr.in	0.9998323917388916
12224:12247	statistischem_landesamt	0.9816047847270966
12811:12818	leipzig	0.552069365978241
12844:12851	leipzig	0.5869993567466736
14675:14685	johanniter	0.9999092817306519
14753:14763	johanniter	0.9999223947525024
15499:15519	robert-koch-institut	0.9999605417251587
17524:17551	dresdner_festspielorchester	0.9999778270721436
17963:17973	kommission	0.9918225407600403
18605:18626	sächsische_aufbaubank	0.9999815821647644
18628:18631	sab	0.9999878406524658
18970:18973	sab	0.9999861717224121
