text	types	tokens	types/tokens
21:31	16	18	1.0625
21:20	49	57	1.1429
20:32	50	60	1.18
19:54	51	57	1.098
19:17	50	66	1.3
18:48	34	39	1.1176
18:16	56	66	1.1607
17:39	49	53	1.0612
17:18	73	83	1.1233
17:02	57	63	1.0877
16:50	58	68	1.1552
16:32	32	38	1.1562
16:06	29	31	1.0345
15:30	37	47	1.2432
15:07	38	43	1.1053
14:59	57	61	1.0526
14:38	55	60	1.0727
13:52	57	65	1.1228
13:23	70	81	1.1429
13:13	41	49	1.1707
12:00	95	116	1.2105
11:46	79	97	1.2152
11:10	45	53	1.1556
10:47	80	98	1.2125
10:2210:00	66	87	1.303
09:53	66	77	1.1515
09:18	27	29	1.037
08:50	76	101	1.3158
07:30	65	83	1.2615
07:22	66	79	1.1818
07:08	60	70	1.15
06:33	91	107	1.1648
06:15	94	113	1.1915
05:5505:34	50	55	1.08
05:16	63	76	1.1905
05:01	68	91	1.3235
