720:731	fsv_zwickau	0.99998539686203
797:806	sv_meppen	0.9999814033508301
817:828	vf_b_lübeck	0.999986449877421
837:848	fsv_zwickau	0.9999865293502808
1073:1076	spd	0.9999904632568359
1571:1574	spd	0.9999890327453613
1867:1869	eu	0.9999642372131348
1909:1920	astrazeneca	0.9999738931655884
2047:2058	astrazeneca	0.9999839067459106
2263:2281	oxford-universität	0.9998586177825928
2705:2708	mdr	0.9999715089797974
3053:3060	biontec	0.9999837875366211
3065:3071	pfizer	0.9999885559082031
3219:3222	ema	0.999975323677063
3266:3271	stiko	0.999901533126831
4851:4869	dresdner_bäder_gmb	0.9999843835830688
5638:5662	gewerkschaft_der_polizei	0.9998939434687296
5753:5765	funke-gruppe	0.9435927867889404
7718:7738	robert_koch-institut	0.9999663829803467
7876:7879	rki	0.9999628067016602
8219:8226	zeitung	0.8459254503250122
8424:8428	welt	0.9985328912734985
