text	types	tokens	types/tokens
18:30	31	34	1.0645
18:05	43	60	1.3721
16:58	41	46	1.0976
15:33	71	89	1.2394
13:38	58	65	1.1034
12:28	89	109	1.2135
11:48	55	67	1.2
10:10	90	105	1.1556
09:59	40	47	1.15
09:35	86	101	1.1628
09:20	79	96	1.2025
09:00	74	87	1.1622
08:45	72	89	1.2222
08:30	106	143	1.3396
08:15	54	69	1.2593
08:00	56	62	1.0893
