543:550	sachsen	0.9765647053718567
691:701	königstein	0.9999562501907349
732:742	königstein	0.9999779462814331
762:769	schweiz	0.9995566010475159
2600:2611	deutschland	0.9998999834060669
2869:2876	sachsen	0.999972939491272
3368:3375	dresden	0.9999935626983643
3860:3867	sachsen	0.9981669187545776
4415:4422	sachsen	0.9780036211013794
4597:4604	sachsen	0.9996840953826904
5001:5008	leipzig	0.9999874830245972
5149:5156	leipzig	0.9999926090240479
5328:5338	engelsdorf	0.9999929666519165
5427:5434	leipzig	0.9414503574371338
5676:5683	sachsen	0.9996936321258545
5729:5736	sachsen	0.9998726844787598
6819:6827	radebeul	0.99996018409729
6881:6887	meißen	0.9999756813049316
6910:6918	radebeul	0.9999607801437378
8006:8013	sachsen	0.9999772310256958
8109:8116	görlitz	0.9999911785125732
8121:8128	bautzen	0.9999837875366211
8273:8280	dresden	0.9999947547912598
8502:8509	leipzig	0.9999945163726807
8707:8714	sachsen	0.9961552023887634
8899:8906	dresden	0.9999940395355225
