893:896	spd	0.9999890327453613
3474:3492	mdr_sachsenspiegel	0.9983415007591248
5199:5219	robert_koch-institut	0.999930739402771
5486:5489	drk	0.9525015950202942
5564:5581	klinikum_chemnitz	0.9990932643413544
5585:5602	klinikum_chemnitz	0.9989546239376068
6660:6673	schnitzschule	0.7972381711006165
6735:6749	paul_schneider	0.9990064799785614
7886:7889	vvo	0.9999908208847046
7917:7941	verkehrsverbund_oberelbe	0.9999445080757141
7943:7946	vvo	0.9999914169311523
8151:8154	vvo	0.9999902248382568
8357:8368	db_regio_ag	0.9999838272730509
8374:8399	mitteldeutschen_regiobahn	0.9999541640281677
8408:8414	trilex	0.9999833106994629
8494:8500	trilex	0.9999523162841797
8537:8553	lößnitzgrundbahn	0.992708683013916
8729:8732	ovg	0.9999768733978271
8894:8897	ovg	0.988905668258667
10043:10078	rettungszweckverband_südwestsachsen	0.9999681115150452
11756:11760	vd_k	0.9966753125190735
13628:13631	dgb	0.9999908208847046
13671:13682	dgb_sachsen	0.8721407055854797
13691:13709	dgb-jugend_sachsen	0.8887900710105896
14541:14547	pfizer	0.9999908208847046
14601:14609	biontech	0.9999816417694092
14614:14620	pfizer	0.99998939037323
14695:14701	pfizer	0.9999886751174927
14710:14729	university_of_texas	0.9255401293436686
15838:15844	condor	0.9999902248382568
15918:15924	condor	0.9999885559082031
16447:16454	lernsax	0.9997404217720032
16808:16816	immowelt	0.9997945427894592
17316:17320	vd_k	0.9996120631694794
17864:17887	statistischem_bundesamt	0.9999687075614929
18319:18322	cdu	0.9999891519546509
19352:19362	purzelbaum	0.8547578454017639
19461:19464	spd	0.99997878074646
19747:19764	klinikum_chemnitz	0.8929100930690765
19791:19799	klinikum	0.9235023856163025
19953:19979	westsächsischen_hochschule	0.9922817349433899
21713:21716	cdu	0.9999879598617554
