text	types	tokens	types/tokens
21:30	23	27	1.1304
21:15	28	32	1.1071
20:56	66	76	1.1364
20:20	58	74	1.2586
19:50	54	69	1.2593
19:31	77	92	1.1818
19:20	42	51	1.1905
19:10	101	129	1.2673
18:40	83	95	1.1325
18:20	54	61	1.1111
18:13	62	70	1.1129
18:10	53	62	1.1509
18:00	65	70	1.0615
17:43	25	31	1.2
17:25	35	40	1.1143
17:00	76	96	1.25
16:15	54	65	1.1852
16:05	54	63	1.1481
15:22	69	83	1.1884
15:08	87	108	1.2299
14:40	60	72	1.1833
14:32	87	112	1.2759
14:14	45	54	1.1778
13:45	66	83	1.2424
13:22	36	43	1.1667
12:06	59	70	1.1695
11:40	71	93	1.2958
11:19	54	65	1.1852
10:47	52	61	1.1538
10:24	32	38	1.1562
09:56	65	75	1.1385
09:20	71	90	1.2535
08:58	57	61	1.0526
08:26	56	64	1.125
07:49	72	88	1.2083
07:23	43	49	1.1163
06:47	34	37	1.0588
06:04	54	63	1.1481
05:3705:27	35	39	1.0857
05:13	55	61	1.0909
