text	types	tokens	types/tokens
22:06	40	44	1.075
21:10	45	46	1.0
20:49	56	71	1.25
20:17	66	75	1.1212
19:50	71	81	1.1268
18:56	93	125	1.3333
18:26	36	38	1.0278
18:05	64	82	1.2656
17:45	59	68	1.1356
17:00	57	65	1.1228
16:42	65	81	1.2308
16:33	70	80	1.1286
16:18	65	78	1.1846
14:55	42	49	1.1429
14:09	73	87	1.1781
13:46	69	83	1.1884
13:41	53	62	1.1509
13:03	43	49	1.1163
12:45	44	47	1.0455
12:23	72	93	1.2778
11:28	40	44	1.075
11:06	58	69	1.1724
10:56	75	96	1.2667
09:50	50	56	1.1
09:14	44	53	1.1818
08:59	79	94	1.1772
08:24	41	46	1.0976
07:43	70	87	1.2286
07:1106:30	47	55	1.1489
06:06	44	51	1.1364
05:32	55	62	1.1091
05:21	75	89	1.1733
05:08	70	82	1.1571
