3193:3206	holger_reuter	0.9999958276748657
3312:3318	reuter	0.9999006986618042
3927:3949	tobias_bilz.kirchliche	0.9999959468841553
4130:4142	daniel_frank	0.9999969601631165
4224:4230	kekulé	0.9994035959243774
4280:4296	alexander_kekulé	0.9999956488609314
4403:4409	kekulé	0.999116837978363
4751:4757	kekulé	0.9998469352722168
5158:5173	dieter_pfortner	0.9999950528144836
5901:5913	jörg_junhold	0.9999933838844299
7030:7046	thomas_grünewald	0.9999956488609314
8443:8457	michael_goebel	0.9999957084655762
8543:8549	goebel	0.999357283115387
9787:9800	anke_stelling	0.9999892711639404
9821:9836	thirza_bruncken	0.9999949932098389
10266:10282	philipp_hartewig	0.9999964833259583
10740:10748	hartewig	0.9999873638153076
11993:12006	petra_köpping	0.9999954700469971
14990:15005	klaus_heckemann	0.9999956488609314
15182:15191	heckemann	0.9993501305580139
15259:15274	erik_bodendieck	0.9999933838844299
15459:15469	bodendieck	0.9997013211250305
16207:16213	reuter	0.9998983144760132
16313:16326	holger_reuter	0.9999963045120239
16376:16383	reuters	0.9999377727508545
16588:16595	reuters	0.9999223947525024
