text	types	tokens	types/tokens
21:30	26	29	1.0769
21:27	60	74	1.2167
20:55	33	37	1.0909
19:38	60	70	1.15
19:24	50	64	1.26
19:17	50	59	1.16
18:59	45	52	1.1333
18:39	37	43	1.1351
18:29	70	84	1.1857
17:49	64	77	1.1875
17:19	63	74	1.1587
16:44	60	74	1.2167
16:10	25	27	1.04
15:46	66	80	1.197
15:16	71	85	1.1831
15:03	69	81	1.1594
14:42	68	88	1.2794
14:22	46	62	1.3261
13:54	65	79	1.2
13:11	71	88	1.2254
12:48	56	64	1.125
12:10	24	26	1.0417
11:48	68	83	1.2059
11:19	37	43	1.1351
10:36	61	73	1.1803
10:18	63	77	1.2063
09:51	73	89	1.2055
09:13	85	103	1.2
08:25	54	65	1.1852
07:54	61	70	1.1311
07:16	58	71	1.2069
06:57	27	28	1.0
06:26	44	50	1.1136
05:36	31	34	1.0645
05:22	59	66	1.1017
05:04	30	33	1.0667
