1014:1034	robert-koch-institut	0.9999501705169678
1510:1513	mdr	0.9991620779037476
3466:3500	staatsministerium_für_soziales_und	0.9645425081253052
3520:3532	zusammenhalt	0.9999727010726929
5286:5292	corona	0.9999841451644897
5453:5464	mdr_sachsen	0.9998445808887482
5777:5783	corona	0.9864906072616577
6839:6845	dehoga	0.9999877214431763
6938:6944	dehoga	0.9999862909317017
7162:7168	dehoga	0.9999861717224121
7627:7633	dehoga	0.9999769926071167
7724:7737	deutsche_bahn	0.999973714351654
8062:8073	mdr_sachsen	0.9999617338180542
8267:8276	vindobona	0.9852640628814697
9171:9182	astrazeneca	0.9998370409011841
12239:12250	mdr_sachsen	0.9999362230300903
12429:12435	ikarus	0.9999352693557739
12532:12538	ikarus	0.9998928308486938
12752:12759	sachsen	0.6488453149795532
14408:14424	torgauer_zeitung	0.999858558177948
15085:15107	chemnitzer_fußballclub	0.9999815821647644
15660:15695	bundesverband_der_campingwirtschaft	0.9999471505482992
