1956:1968	dirk_hilbert	0.9999959468841553
4045:4060	barbara_richter	0.9999964237213135
4426:4433	richter	0.9999486207962036
5001:5013	jörg_hänisch	0.9999871850013733
5441:5448	hänisch	0.9999818801879883
8443:8447	bilz	0.999879002571106
8604:8615	tobias_bilz	0.9999951124191284
8949:8955	paulus	0.9999043941497803
9010:9020	steinmeier	0.9999752044677734
10757:10771	steffen_zenner	0.9999957084655762
11493:11505	martin_dulig	0.9998994767665863
12995:13005	sylke_guhr	0.9999691247940063
14381:14402	michael_bagusat-sehrs	0.9999933242797852
15947:15964	christian_günther	0.9999956488609314
16924:16942	matthieu_anatrella	0.9999935030937195
