8537:8552	corona-pandemie	0.999744713306427
8964:8981	1._korintherbrief	0.9716363847255707
9036:9047	astrazeneca	0.9577303528785706
9151:9166	covid-impfstoff	0.9999744892120361
14857:14863	corona	0.9467806220054626
17100:17106	corona	0.6347599625587463
