text	types	tokens	types/tokens
19:42	26	33	1.2308
19:21	51	60	1.1569
19:08	75	91	1.2
18:31	94	112	1.1809
17:53	74	91	1.2162
17:36	58	70	1.1897
17:21	56	72	1.2679
16:32	40	44	1.075
16:10	71	90	1.2535
15:48	60	70	1.15
15:24	27	31	1.1111
15:03	74	83	1.1081
14:44	47	55	1.1489
14:23	33	35	1.0303
13:56	51	61	1.1765
13:29	90	117	1.2889
12:48	67	78	1.1493
12:21	73	92	1.2466
11:43	63	72	1.127
11:17	75	94	1.24
09:34	30	36	1.1667
08:48	24	26	1.0417
08:19	30	35	1.1333
05:36	44	51	1.1364
05:14	32	39	1.1875
