126:133	sachsen	0.9996877908706665
256:261	dohna	0.9999867677688599
286:291	dohna	0.999987006187439
379:394	dresdner_straße	0.9999856352806091
788:796	heidenau	0.9999872446060181
824:829	dohna	0.9999868869781494
1022:1029	sachsen	0.9996533393859863
2465:2472	dresden	0.9999967813491821
2518:2525	dresden	0.999996542930603
3023:3031	pieschen	0.9999873638153076
3228:3240	augustusburg	0.9999923706054688
3309:3321	augustusburg	0.999994158744812
3615:3620	mainz	0.9976661205291748
3625:3637	augustusburg	0.999992847442627
4124:4136	augustusburg	0.9999946355819702
4474:4481	sachsen	0.9999862909317017
4516:4523	sachsen	0.9999818801879883
4762:4772	tschechien	0.9999715089797974
4778:4783	polen	0.999840497970581
4880:4887	sachsen	0.9965147376060486
5019:5026	sachsen	0.9999663829803467
5154:5164	tschechien	0.9999610185623169
5336:5343	sachsen	0.9999798536300659
6526:6533	dresden	0.9999951124191284
6662:6675	mittelsachsen	0.9999310970306396
7102:7113	oberlausitz	0.9999386072158813
7145:7156	oberlausitz	0.9998296499252319
7707:7716	neschwitz	0.9999661445617676
7725:7736	querxenland	0.9999243021011353
7740:7755	seifhennersdorf	0.9999591112136841
10294:10301	sachsen	0.9901055693626404
10513:10520	dresden	0.9999943971633911
11397:11404	sachsen	0.9999567270278931
11823:11830	dresden	0.999991774559021
11860:11867	sachsen	0.9999855756759644
11911:11918	sachsen	0.999968409538269
12262:12269	sachsen	0.9999516010284424
12703:12710	sachsen	0.9993084669113159
13789:13797	chemnitz	0.9999892711639404
13837:13841	smac	0.8443546891212463
13845:13853	chemnitz	0.9999920129776001
17446:17457	deutschland	0.9999186992645264
17799:17807	chemnitz	0.9999752044677734
18004:18015	deutschland	0.9999880790710449
18424:18432	chemnitz	0.9999916553497314
18886:18893	leipzig	0.9999926090240479
19257:19264	sachsen	0.9991720914840698
19320:19327	sachsen	0.9996398687362671
19560:19567	sachsen	0.9998190999031067
19579:19592	vogtlandkreis	0.9997598528862
19620:19635	erzgebirgskreis	0.9998496770858765
20141:20158	panschwitz-kuckau	0.9999747276306152
20240:20247	bautzen	0.9998766183853149
20251:20268	panschwitz-kuckau	0.9999864101409912
20646:20653	sachsen	0.8432639241218567
20874:20881	dresden	0.9999949932098389
21350:21357	dresden	0.9999945163726807
21823:21830	dresden	0.9999831914901733
22245:22252	leipzig	0.9999927282333374
