text	types	tokens	types/tokens
21:00	23	26	1.087
19:45	83	102	1.2169
18:58	31	32	1.0
18:05	77	94	1.2078
18:00	46	52	1.1087
17:30	81	95	1.1605
16:51	120	152	1.2583
16:33	100	121	1.2
15:51	68	84	1.2206
15:47	52	59	1.1154
15:40	43	51	1.1628
15:30	74	94	1.2568
14:45	113	146	1.2832
14:25	114	149	1.2982
14:07	119	150	1.2521
13:45	51	63	1.2157
13:30	28	30	1.0357
13:06	51	58	1.1176
12:33	110	148	1.3364
12:02	45	49	1.0667
11:35	45	49	1.0667
11:08	69	85	1.2174
10:32	112	161	1.4286
10:04	76	113	1.4737
09:38	28	33	1.1429
09:11	45	52	1.1333
08:50	62	72	1.1452
08:26	42	45	1.0476
07:41	42	55	1.2857
07:05	64	76	1.1719
06:40	23	25	1.0435
06:02	49	57	1.1429
05:34	80	88	1.0875
05:13	74	86	1.1486
05:01	61	73	1.1803
