429:434	covid	0.9312722682952881
2959:2963	euro	0.9999821186065674
3220:3226	corona	0.8605735898017883
10686:10690	boom	0.6153488755226135
13367:13374	cev-cup	0.9999825954437256
14936:14940	euro	0.9999821186065674
18504:18509	hartz	0.6854695081710815
19806:19810	euro	0.9999879598617554
20000:20004	euro	0.9999873638153076
