4197:4209	rolf_weigand	0.999994158744812
6254:6266	anne_lissner	0.9999942779541016
7897:7902	spahn	0.9999873638153076
7980:7990	jens_spahn	0.9999938011169434
8545:8550	spahn	0.9999896287918091
8682:8687	spahn	0.9999891519546509
9053:9066	dario_schramm	0.9999935626983643
9773:9787	dietmar_hötger	0.9999918937683105
10996:11010	daniela_mynett	0.9999919533729553
12679:12690	kai_kranich	0.9999914169311523
