222:229	sachsen	0.999713122844696
413:420	dresden	0.9999920129776001
442:449	zwickau	0.9999914169311523
543:550	sachsen	0.9966797828674316
1055:1062	sachsen	0.9929237365722656
1107:1115	vogtland	0.9999593496322632
1119:1127	vogtland	0.9999575614929199
1407:1411	eich	0.9999334812164307
1620:1628	vogtland	0.9999288320541382
1742:1755	niedersachsen	0.9999854564666748
1796:1803	bautzen	0.999974250793457
1828:1835	bautzen	0.9999879598617554
2339:2346	görlitz	0.9999909400939941
2491:2498	leipzig	0.99998939037323
2504:2511	namibia	0.9999915361404419
2577:2584	leipzig	0.9999927282333374
2646:2653	namibia	0.9999884366989136
2687:2698	antonov_225	0.7172659635543823
3422:3430	leipzigs	0.999991774559021
3854:3861	sachsen	0.9995819926261902
4398:4405	sachsen	0.9994831085205078
4550:4557	sachsen	0.9992679953575134
4790:4797	dresden	0.9999938011169434
4840:4847	leipzig	0.9999927282333374
5273:5280	dresden	0.999992847442627
5591:5601	sachsenhof	0.9999852180480957
5917:5924	belgern	0.9999932050704956
5929:5934	borna	0.9999703168869019
5954:5961	belgern	0.9999951124191284
5966:5971	borna	0.9999815225601196
6144:6151	leipzig	0.9999953508377075
6238:6252	torgau-oschatz	0.9990851879119873
6290:6297	belgern	0.9999939203262329
6449:6456	sachsen	0.9999836683273315
7227:7236	burgplatz	0.9998471736907959
9467:9474	bautzen	0.9999655485153198
9492:9499	bautzen	0.9999682903289795
9678:9688	westberlin	0.9999761581420898
9692:9702	bautzen_ii	0.9995855689048767
9830:9840	bautzen_ii	0.999826043844223
10268:10273	flöha	0.9999816417694092
10374:10379	flöha	0.9999876022338867
10406:10417	claußstraße	0.9999784231185913
10815:10827	montanregion	0.9999328851699829
11118:11126	freiberg	0.9999831914901733
11131:11147	annaberg-bucholz	0.9999593496322632
11173:11194	saigerhütte_olbernhau	0.9248102605342865
11327:11338	deutschland	0.997835099697113
11410:11416	kamenz	0.9999788999557495
12602:12608	grimma	0.9999592304229736
13135:13146	kreuzkirche	0.999722421169281
13364:13371	sachsen	0.9998847246170044
13417:13424	sachsen	0.9999418258666992
13529:13536	görlitz	0.9999871253967285
13542:13548	meißen	0.9999880790710449
13559:13572	mittelsachsen	0.9999866485595703
13696:13703	sachsen	0.9999347925186157
13858:13865	sachsen	0.9999614953994751
14062:14073	deutschland	0.999937891960144
