text	types	tokens	types/tokens
20:23	25	27	1.04
20:17	48	56	1.1458
18:36	58	63	1.069
17:47	79	92	1.1519
16:58	68	90	1.3088
16:25	69	83	1.1884
16:01	80	90	1.1125
15:28	75	87	1.1467
15:06	89	120	1.3371
14:20	53	65	1.2075
13:57	59	72	1.2034
13:01	30	34	1.1
12:48	52	61	1.1538
12:30	63	84	1.3175
11:40	91	115	1.2527
08:55	64	74	1.1406
08:27	80	102	1.2625
08:09	56	64	1.125
07:20	67	80	1.1791
06:42	80	99	1.225
05:52	82	102	1.2317
05:42	40	45	1.1
05:22	41	45	1.0732
05:14	59	67	1.1186
05:06	93	123	1.3118
