310:317	sachsen	0.9989426732063293
1384:1391	sachsen	0.9998683929443359
1446:1453	sachsen	0.9999339580535889
2219:2226	sachsen	0.9981319308280945
2331:2338	sachsen	0.9996154308319092
2386:2393	zwickau	0.9999945163726807
2398:2405	leipzig	0.9999922513961792
2560:2567	zwickau	0.9999926090240479
2665:2672	leipzig	0.9999932050704956
2751:2758	sachsen	0.9996554851531982
3318:3325	löbnitz	0.9999580383300781
3342:3349	löbnitz	0.9999545812606812
3354:3363	bad_düben	0.9999828934669495
3569:3576	löbnitz	0.999605119228363
4010:4022	deutschlands	0.9999607801437378
4468:4478	tschechien	0.9999934434890747
4521:4531	tschechien	0.9999915361404419
5854:5861	dresden	0.9500243663787842
5919:5926	dresden	0.9999924898147583
6360:6367	dresden	0.9999939203262329
6878:6885	dresden	0.999993085861206
6945:6958	prager_straße	0.9999773502349854
6962:6969	dresden	0.9999943971633911
7199:7206	leipzig	0.6775050759315491
7286:7293	leipzig	0.9378461241722107
