127:135	bautzens	0.9828617572784424
1307:1314	sachsen	0.6440173983573914
2257:2268	deutschland	0.9999865293502808
3409:3412	usa	0.9999814033508301
3421:3430	hong_kong	0.9335739016532898
3757:3763	niesky	0.9999281167984009
3767:3774	sachsen	0.9999454021453857
3912:3919	bautzen	0.9997627139091492
4022:4029	bautzen	0.9999514818191528
4696:4708	crimmitschau	0.9999563694000244
4713:4723	weißwasser	0.9999357461929321
6669:6676	sachsen	0.9999762773513794
6678:6692	sachsen-anhalt	0.9999734163284302
6697:6706	thüringen	0.9999778270721436
6790:6798	sachsens	0.977442741394043
7117:7124	sachsen	0.9999557733535767
7427:7434	sachsen	0.9999135732650757
8314:8324	dresden.da	0.9999940395355225
8618:8625	sachsen	0.9999474287033081
8922:8930	sachsens	0.9997928738594055
9897:9904	sachsen	0.9999842643737793
11956:11963	sachsen	0.999985933303833
12848:12855	dresden	0.9999934434890747
13252:13263	lugsteinhof	0.9998973608016968
13267:13275	zinnwald	0.9999792575836182
13780:13786	meißen	0.9998475313186646
13827:13833	meißen	0.9999485015869141
14154:14161	bautzen	0.999907374382019
14226:14233	bautzen	0.9999423027038574
14685:14693	vogtland	0.9999858140945435
15355:15362	sachsen	0.9999561309814453
15364:15378	sachsen-anhalt	0.9999649524688721
15383:15393	thüringen.	0.9999759197235107
15805:15811	berlin	0.9999879598617554
16569:16586	mitteldeutschland	0.9999536275863647
17130:17137	sachsen	0.999864935874939
17181:17188	sachsen	0.9998924732208252
17653:17659	coswig	0.9999825954437256
17858:17865	bautzen	0.9999874830245972
17870:17878	chemnitz	0.9999914169311523
17974:17981	dresden	0.9999946355819702
17983:17991	radebeul	0.9999834299087524
17993:18000	leipzig	0.9999953508377075
18005:18012	zwickau	0.9999942779541016
19640:19647	sachsen	0.9999780654907227
19702:19709	sachsen	0.9999852180480957
