text	types	tokens	types/tokens
19:00	21	25	1.1429
18:35	49	61	1.2245
18:15	123	151	1.2195
16:50	59	72	1.2034
16:30	73	100	1.3562
15:40	33	40	1.1818
14:15	126	168	1.3254
12:00	49	66	1.3265
11:43	57	73	1.2632
10:11	93	113	1.2043
10:02	67	85	1.2537
09:12	73	88	1.1918
08:07	85	102	1.1882
07:50	80	103	1.275
07:35	50	60	1.18
07:20	58	67	1.1379
07:00	36	39	1.0556
