text	types	tokens	types/tokens
20:45	58	68	1.1552
20:11	33	38	1.1212
19:53	29	30	1.0
19:40	40	42	1.025
19:23	44	50	1.1136
18:35	72	86	1.1806
17:12	78	90	1.141
17:09	57	62	1.0702
16:50	52	56	1.0577
15:32	103	124	1.1942
15:04	91	113	1.2308
14:39	59	75	1.2542
12:20	66	77	1.1515
10:39	67	86	1.2687
09:07	48	52	1.0625
08:26	73	79	1.0685
08:08	25	26	1.0
07:18	51	60	1.1569
07:00	66	78	1.1667
06:00	78	98	1.2436
05:00	79	109	1.3671
