317:324	sachsen	0.9992893934249878
491:498	leipzig	0.9999920129776001
818:828	österreich	0.9991239905357361
837:844	schweiz	0.9998503923416138
934:948	dresden-meißen	0.9999850988388062
979:987	dresdner	0.9934296011924744
1019:1033	dresden-meißen	0.9999942779541016
1191:1198	dresden	0.999995231628418
1287:1294	limburg	0.9999942779541016
1656:1663	dresden	0.999976634979248
1725:1732	sachsen	0.6318266987800598
1909:1922	mittelsachsen	0.9999269247055054
1924:1931	bautzen	0.9997658133506775
1940:1955	erzgebirgskreis	0.9994738698005676
2066:2073	sachsen	0.958855390548706
3019:3026	schweiz	0.9963919520378113
3036:3043	sachsen	0.9999139308929443
3093:3100	sachsen	0.9999732971191406
3105:3114	thüringen	0.9999799728393555
3211:3222	deutschland	0.9978621602058411
4794:4801	bautzen	0.9998443126678467
4925:4932	bautzen	0.9998370409011841
4941:4954	taucherstraße	0.9999788999557495
5402:5408	kamenz	0.9999829530715942
5413:5418	löbau	0.9984214305877686
5675:5682	leipzig	0.9540252685546875
6201:6224	haus_der_tausend_teiche	0.9998327940702438
6264:6287	haus_der_tausend_teiche	0.999914139509201
6291:6297	wartha	0.9999731779098511
7513:7520	dresden	0.9999955892562866
7643:7651	radeburg	0.9999885559082031
7653:7670	ottendorf-okrilla	0.9999758005142212
7672:7680	radeberg	0.9999861717224121
7682:7690	heidenau	0.9999905824661255
7695:7700	pirna	0.9999487400054932
7702:7716	dippoldiswalde	0.9999809265136719
7718:7727	wilsdruff	0.9999874830245972
7729:7736	freital	0.999987006187439
7741:7747	meißen	0.9999858140945435
7917:7924	dresden	0.9999916553497314
7965:7972	dresden	0.9999936819076538
7990:8022	sächsische_schweiz-osterzgebirge	0.9998960494995117
8134:8141	dresden	0.9999920129776001
8208:8227	sächsischen_schweiz	0.996748685836792
8235:8248	osterzgebirge	0.9786162972450256
8480:8487	dresden	0.9999918937683105
8635:8645	sächsische	0.999962568283081
8848:8862	südwestsachsen	0.9999816417694092
8866:8874	vogtland	0.9999488592147827
8961:8975	plauen-zwickau	0.9909111857414246
8982:8996	südwestsachsen	0.9999788999557495
9360:9377	elbschloss_übigau	0.99961718916893
9553:9559	august	0.6503049731254578
9688:9693	flöha	0.9999586343765259
9707:9712	flöha	0.9999784231185913
10011:10022	hoyerswerda	0.9999938011169434
10110:10139	schloss_&_amp_;_zoo_hoyerswerda	0.9653100570042928
10324:10331	bautzen	0.9999433755874634
10490:10491	&	0.9944983124732971
10494:10495	;	0.6448796391487122
10509:10520	hoyerswerda	0.9993791580200195
11178:11191	dübener_heide	0.9999686479568481
11205:11218	dübener_heide	0.999968409538269
11637:11643	tornau	0.9999333620071411
12118:12132	sachsen-anhalt	0.9994029998779297
12176:12183	sachsen	0.9994977712631226
12256:12265	thüringen	0.9999688863754272
12346:12354	glauchau	0.9999083280563354
12360:12370	warnemünde	0.9999746084213257
12421:12429	glauchau	0.999935507774353
12435:12443	chemnitz	0.9999849796295166
12448:12464	dresden-neustadt	0.9999924898147583
12470:12480	warnemünde	0.9999823570251465
12948:12954	ostsee	0.999657392501831
13365:13378	schreberbades	0.998204231262207
13735:13745	ostsachsen	0.999991774559021
13822:13829	bautzen	0.9999849796295166
13834:13841	görlitz	0.9999827146530151
13949:13959	ostsachsen	0.9999898672103882
14417:14424	leipzig	0.9999940395355225
14429:14440	nordsachsen	0.9999867677688599
14468:14475	leipzig	0.9999957084655762
14480:14491	nordsachsen	0.9999891519546509
14916:14923	sachsen	0.9997795224189758
14971:14978	sachsen	0.9999439716339111
15061:15068	dresden	0.9999871253967285
15210:15217	sachsen	0.9999855756759644
15390:15400	königstein	0.9360260367393494
15442:15452	königstein	0.9999861717224121
15460:15471	sächsischen	0.7373639345169067
15472:15479	schweiz	0.9967325925827026
16097:16104	dresden	0.9999961853027344
16109:16122	leipzig_halle	0.9996258914470673
16391:16398	dresden	0.9999957084655762
16493:16506	leipzig_halle	0.9996392130851746
16622:16628	plauen	0.9999630451202393
16633:16641	schöneck	0.9999690055847168
16739:16745	plauen	0.9999527931213379
16750:16758	schöneck	0.9999449253082275
17279:17285	plauen	0.5191513299942017
17336:17343	dresden	0.999995231628418
17456:17463	dresden	0.9983507394790649
17477:17484	dresden	0.9694786667823792
17990:17997	dresden	0.999995231628418
