65:72	sachsen	0.9918672442436218
172:179	leipzig	0.9999946355819702
225:232	leipzig	0.9999914169311523
1638:1645	sachsen	0.9422551393508911
1847:1854	sachsen	0.9931811690330505
2081:2088	leipzig	0.9999947547912598
3083:3091	chemnitz	0.9999922513961792
4057:4064	sachsen	0.9985904097557068
4729:4746	pirna-sonnenstein	0.9999860525131226
4764:4781	pirna-sonnenstein	0.9999929666519165
5258:5265	zwickau	0.9999929666519165
5319:5329	tschechien	0.9999923706054688
5452:5474	tschechischen_republik	0.9999232888221741
5805:5812	sachsen	0.9999171495437622
5991:5998	sachsen	0.9999507665634155
6146:6178	sächsische_schweiz-osterzgebirge	0.9996672570705414
6958:6969	klingenthal	0.9999769926071167
7083:7094	klingenthal	0.9999833106994629
7275:7285	tschechien	0.9999575614929199
7446:7453	bautzen	0.9997979998588562
7558:7565	bautzen	0.9997290968894958
7924:7930	grimma	0.9998912811279297
7974:7980	grimma	0.9999288320541382
8580:8591	hoyerswerda	0.999984860420227
8608:8619	hoyerswerda	0.9999792575836182
9023:9030	sachsen	0.999679446220398
10820:10828	freiberg	0.9999825954437256
10888:10896	freiberg	0.9999849796295166
11322:11329	sachsen	0.9518498778343201
13839:13846	sachsen	0.9260333180427551
14350:14357	leipzig	0.9965282082557678
15114:15121	bautzen	0.9999399185180664
15256:15266	kamenz.was	0.9999605417251587
15854:15861	freital	0.9999805688858032
15974:15985	deutschland	0.9999188184738159
16077:16091	großbritannien	0.9999924898147583
16135:16146	deutschland	0.9999582767486572
16299:16313	großbritannien	0.9999914169311523
16549:16559	tschechien	0.9999865293502808
16802:16812	tschechien	0.9999920129776001
16972:16979	sachsen	0.999972939491272
17044:17055	tschechiens	0.9999911785125732
17157:17168	deutschland	0.9999783039093018
17233:17249	dresden-hellerau	0.9999942779541016
17379:17390	waldschänke	0.998404324054718
17510:17518	heidenau	0.9999935626983643
18006:18019	mittelsachsen	0.9999288320541382
18473:18480	bautzen	0.9999661445617676
18500:18507	bautzen	0.9999785423278809
