text	types	tokens	types/tokens
21:45	23	24	1.0
21:23	95	113	1.1789
20:28	22	26	1.1364
19:49	32	36	1.0938
19:11	41	51	1.2195
18:36	64	77	1.1875
18:07	38	39	1.0
17:52	68	79	1.1471
17:14	74	90	1.2027
16:57	44	56	1.25
16:40	49	56	1.1224
15:55	56	64	1.125
15:11	35	38	1.0571
14:58	83	99	1.1807
14:23	49	53	1.0612
14:03	51	60	1.1569
13:26	64	74	1.1406
13:20	42	52	1.2143
12:32	82	103	1.2439
11:56	97	121	1.2371
11:15	44	47	1.0455
10:55	38	41	1.0526
10:35	56	67	1.1786
10:18	63	77	1.2063
08:59	48	53	1.0833
08:47	64	76	1.1719
08:30	47	59	1.234
07:35	38	43	1.1053
07:08	31	34	1.0645
06:52	72	89	1.2222
06:33	36	38	1.0278
06:17	46	54	1.1522
05:56	79	93	1.1646
05:44	43	48	1.093
05:30	33	36	1.0606
05:18	53	61	1.1321
05:12	40	45	1.1
