118:125	sachsen	0.9996176958084106
285:292	dresden	0.9999897480010986
1397:1404	sachsen	0.9998749494552612
2553:2560	dresden	0.9999943971633911
3218:3250	sächsische_schweiz_osterzgebirge	0.817365805308024
3374:3381	freital	0.9999815225601196
3642:3649	dresden	0.9999926090240479
3653:3660	dresden	0.9999932050704956
4276:4283	görlitz	0.9999879598617554
4328:4335	görlitz	0.9999887943267822
4683:4701	limbach-oberfrohna	0.9999805688858032
4728:4746	limbach-oberfrohna	0.9999892711639404
5193:5199	zittau	0.9999468326568604
5284:5290	zittau	0.9999567270278931
5320:5327	görlitz	0.9999892711639404
5847:5858	oberlausitz	0.9999487400054932
5905:5912	bautzen	0.9999891519546509
5917:5924	görlitz	0.9999932050704956
6309:6319	tschechien	0.9999922513961792
6373:6395	tschechischen_republik	0.9977807402610779
6541:6546	pirna	0.9999686479568481
6833:6846	dreiländereck	0.998824417591095
6851:6857	zittau	0.9998884201049805
6885:6892	sachsen	0.9999713897705078
6894:6908	sachsen-anhalt	0.9999643564224243
6913:6922	thüringen	0.9999827146530151
6966:6972	usedom	0.9999819993972778
6984:6994	seenplatte	0.9998289346694946
7038:7060	mecklenburg-vorpommern	0.9999942779541016
7067:7094	mecklenburgische_seenplatte	0.9998728334903717
7109:7115	usedom	0.9999817609786987
7246:7269	mecklenburg-vorpommerns	0.999993085861206
7382:7392	greifswald	0.9999948740005493
7397:7411	neubrandenburg	0.9999929666519165
7647:7653	usedom	0.9999825954437256
7665:7675	seenplatte	0.9998840093612671
7814:7822	chemnitz	0.999991774559021
7843:7851	chemnitz	0.999987006187439
8305:8313	chemnitz	0.9999880790710449
8394:8402	chemnitz	0.9999889135360718
8588:8598	schießhaus	0.998299777507782
8607:8624	carolaschlösschen	0.9998952150344849
10534:10541	dresden	0.9999946355819702
11024:11031	dresden	0.9999946355819702
11527:11534	dresden	0.999992847442627
11707:11714	sachsen	0.9999290704727173
11863:11870	sachsen	0.9998602867126465
12002:12010	chemnitz	0.9999924898147583
12024:12041	mittelsachsen.die	0.9999872446060181
12265:12276	weißwassers	0.9999428987503052
12355:12365	weißwasser	0.9999656677246094
12946:12955	bad_düben	0.9999785423278809
12959:12968	heide_spa	0.9999303817749023
12972:12981	bad_düben	0.999983549118042
13103:13114	nordsachsen	0.5151385068893433
13306:13337	deutsch-sorbischen_volkstheater	0.999947190284729
13341:13348	bautzen	0.9999758005142212
13569:13576	bautzen	0.999929666519165
13660:13667	dresden	0.9999872446060181
14830:14837	sachsen	0.9999839067459106
15672:15687	aue-bad_schlema	0.9999595284461975
15706:15721	aue-bad_schlema	0.9999409317970276
16109:16124	aue-bad_schlema	0.9999679327011108
16792:16801	blasewitz	0.9999818801879883
16806:16814	pillnitz	0.9999405145645142
16850:16857	dresden	0.9999874830245972
17024:17033	kirchberg	0.9999904632568359
17037:17046	kirchberg	0.9999892711639404
17060:17067	zwickau	0.9999896287918091
17211:17220	kirchberg	0.9999905824661255
17222:17235	hartmannsdorf	0.9999865293502808
17237:17248	crinitzberg	0.9999849796295166
17253:17263	hirschfeld	0.9999856948852539
17417:17426	kirchberg	0.9999915361404419
17431:17444	hartmannsdorf	0.9999879598617554
17580:17588	vogtland	0.9999897480010986
17627:17633	plauen	0.9999780654907227
17715:17721	plauen	0.9999797344207764
18298:18305	dresden	0.9999920129776001
18880:18886	treuen	0.9999905824661255
19425:19440	vogtlandkreises	0.9997808337211609
19542:19550	vogtland	0.9999773502349854
19593:19600	dresden	0.9999943971633911
19670:19677	dresden	0.9999949932098389
20107:20114	dresden	0.9999929666519165
21179:21187	sachsens	0.7720521688461304
21741:21746	löbau	0.9999561309814453
21801:21808	dresden	0.9998433589935303
