645:668	frank-walter-steinmeier	0.9999808073043823
1721:1737	christoph_josten	0.9999964237213135
1778:1785	sachsen	0.37093374133110046
2628:2643	thomas_geithner	0.9999960660934448
2812:2820	geithner	0.9999587535858154
7932:7948	thomas_grünewald	0.9999958872795105
8063:8074	ferenc_csák	0.999969482421875
8176:8188	sven_schulze	0.991392970085144
8902:8916	kathleen_parma	0.9999961853027344
9162:9173	pascal_sohm	0.9999966025352478
9606:9617	ralf_becker	0.9999961256980896
10065:10078	dario_schramm	0.9999959468841553
11383:11394	tobias_bilz	0.9999942183494568
15169:15182	albert_bourla	0.9999966025352478
15311:15317	bourla	0.9999310970306396
15945:15962	stefan_pechfelder	0.9999936819076538
18047:18061	steffen_zenner	0.9999937415122986
18531:18544	petra_köpping	0.999995768070221
19084:19096	lars_luderer	0.9999945759773254
20363:20379	christoph_josten	0.9999970197677612
20740:20746	josten	0.9999816417694092
21069:21082	manfred_wilde	0.9999967217445374
21206:21224	michael_kretschmer	0.9999959468841553
21324:21329	wilde	0.9998551607131958
21887:21898	bernd_lange	0.9999963641166687
