885:895	kretschmer	0.9997772574424744
908:913	spahn	0.9999758005142212
941:959	michael_kretschmer	0.9999963045120239
1005:1015	jens_spahn	0.9999973177909851
1176:1186	kretschmer	0.9999434947967529
1228:1238	jens_spahn	0.9999971985816956
1344:1354	kretschmer	0.9999397993087769
1520:1525	spahn	0.9999878406524658
1605:1615	kretschmer	0.9999786615371704
1665:1670	spahn	0.9999895095825195
2672:2686	anna_cavazzini	0.9999933242797852
5436:5453	markus_schlimbach	0.9999942183494568
9986:10001	annegret_müller	0.9999902248382568
10874:10886	martin_dulig	0.9999936819076538
10926:10940	thomas_schmidt	0.9999967217445374
11599:11610	hotzenplotz	0.9999150037765503
