text	types	tokens	types/tokens
20:22	52	55	1.0385
20:00	48	58	1.1875
19:41	100	133	1.32
17:46	34	35	1.0
17:32	38	43	1.1053
16:32	52	60	1.1346
15:45	71	90	1.2535
15:23	77	89	1.1429
15:02	68	85	1.2353
14:36	58	78	1.3276
14:07	46	54	1.1522
13:18	50	57	1.12
13:05	76	113	1.4737
12:40	60	84	1.3833
12:04	51	67	1.2941
11:37	74	91	1.2162
11:14	57	65	1.1228
10:48	51	67	1.2941
10:18	68	83	1.2059
07:27	30	34	1.1
06:50	69	91	1.3043
05:50	48	53	1.0833
05:25	28	33	1.1429
05:05	44	59	1.3182
