362:375	matthias_horx	0.9999945163726807
1672:1693	adam_niedzielski.ende	0.9999955296516418
4717:4741	kyrill-alexander_schwarz	0.9999843835830688
6119:6133	karsten_wöhler	0.9999943375587463
8237:8250	dirk_neubauer	0.9999961853027344
10719:10731	erik_schulze	0.9999932646751404
11027:11034	schulze	0.99998939037323
11296:11303	andreas	0.9999943971633911
14241:14255	manuel_schöbel	0.9999966621398926
14485:14492	schöbel	0.9999850988388062
15463:15477	gilbert_lupfer	0.9999874830245972
16255:16270	jasmin_schröter	0.9999955296516418
16871:16882	uschi_kruse	0.9999940991401672
17186:17201	nadine_eichhorn	0.9999938011169434
18305:18318	oliver_schenk	0.9999959468841553
18549:18562	dirk_neubauer	0.9999958276748657
