216:237	deutsche_wetterdienst	0.9985706508159637
1097:1100	cdu	0.9999897480010986
2141:2168	spitzenverband_der_kommunen	0.9799298445383707
2174:2192	deutsche_städtetag	0.9998530447483063
2556:2576	deutschen_städtetags	0.9838864803314209
2621:2624	spd	0.9999886751174927
3081:3084	spd	0.9999871253967285
3292:3317	sächsische_impfkommission	0.9983278512954712
3319:3323	siko	0.9999809265136719
4012:4019	novavax	0.9995375871658325
4214:4224	rote_kreuz	0.9999781847000122
5036:5057	paul-ehrlich-institut	0.9999711513519287
6054:6063	ssv_geyer	0.9999759793281555
6139:6153	ard-sportschau	0.9998544454574585
6819:6840	sächsische_aufbaubank	0.998418390750885
7033:7036	cdu	0.9999879598617554
7756:7768	ihk_chemnitz	0.7337871789932251
7803:7840	industrie_-_und_handelskammer_chemnitz	0.9997979998588562
8161:8164	ihk	0.9999866485595703
8570:8577	moderna	0.9999768733978271
8579:8587	biontech	0.9999732971191406
8589:8597	cure_vac	0.9999708533287048
8602:8609	sanofie	0.9999814033508301
